
Instance file: /home/ucl/ingi/stguilla/vrp/benchmarks/ss-vrptw-cr/realdata_optimod_lyon/instances/large/50cw/50cw_1.txt
Instance:   nRegions: 81(#depot:1, #customer:50, #waiting:30)   nVeh: -1   H: 480   nTimeSlots: 96   (orig. H: 480, scale: 1.00)
Wait. time multiple:	 10

SUCESSIVE WTime Multiples (Rq only, scale 1, wmult: x6 -> x3 -> x1)

Optimizing Rq_s1 [wmult=60] with initial solution (cost = 98.31) for 3600s:
Route  1():	[0;32m[0;34mD000[0;0m - [0;32mD000[0;0m 
Route  2():	[0;32m[0;34mD000[0;0m - [0;32mD000[0;0m 
Route  3():	[0;32m[0;34mD000[0;0m - [0;32mD000[0;0m 
Route  4():	[0;32m[0;34mD000[0;0m - [0;32mD000[0;0m 
Route  5():	[0;32m[0;34mD000[0;0m - [0;32mD000[0;0m 
Route  6():	[0;32m[0;34mD000[0;0m - [0;32mD000[0;0m 
Route  7():	[0;32m[0;34mD000[0;0m - [0;32mD000[0;0m 
Route  8():	[0;32m[0;34mD000[0;0m - [0;32mD000[0;0m 
Route  9():	[0;32m[0;34mD000[0;0m - [0;32mD000[0;0m 
Route 10():	[0;32m[0;34mD000[0;0m - [0;32mD000[0;0m 
Route 11():	[0;32m[0;34mD000[0;0m - [0;32mD000[0;0m 
Route 12():	[0;32m[0;34mD000[0;0m - [0;32mD000[0;0m 
Route 13():	[0;32m[0;34mD000[0;0m - [0;32mD000[0;0m 
Route 14():	[0;32m[0;34mD000[0;0m - [0;32mD000[0;0m 
Route 15():	[0;32m[0;34mD000[0;0m - [0;32mD000[0;0m 
Route 16():	[0;32m[0;34mD000[0;0m - [0;32mD000[0;0m 
Route 17():	[0;32m[0;34mD000[0;0m - [0;32mD000[0;0m 
Route 18():	[0;32m[0;34mD000[0;0m - [0;32mD000[0;0m 
Route 19():	[0;32m[0;34mD000[0;0m - [0;32mD000[0;0m 
Route 20():	[0;32m[0;34mD000[0;0m - [0;32mD000[0;0m 
CPU Time           Best      Iteration         Action
     0.7        98.3100              1          Start
     1.6        97.5415              9       New best
     2.4        95.9123             15       New best
     5.2        91.0197             24       New best
    13.9        89.1266             51       New best
    17.2        87.6018             52       New best
    24.0        86.2520             54       New best
    30.9        82.9667             60       New best
    34.4        82.3286             61       New best
    37.8        81.6292             63       New best
    44.9        79.8675             69       New best
    49.0        79.6516             70       New best
    61.0        79.6516             78               
    73.2        76.1397             87       New best
    83.9        76.1397             91               
    87.5        75.3621             96       New best
    92.3        74.9101             97       New best
   103.3        74.9101            100               
   114.2        74.9101            108               
   124.2        74.9101            118               
   135.1        74.9101            125               
   145.2        74.9101            134               
   157.8        74.9101            142               
   170.2        74.9101            150               
   183.8        74.9101            161               
   194.7        74.9101            167               
   203.5        72.5991            169       New best
   212.6        72.1690            171       New best
   220.3        72.0421            174       New best
   224.9        67.7587            177       New best
   230.1        66.6700            178       New best
   240.5        66.0631            180       New best
   251.9        66.0631            183               
   255.0        65.8166            186       New best
   268.9        65.8166            189               
   279.2        65.8166            197               
   291.7        63.1323            204       New best
   298.9        62.7163            207       New best
   311.5        62.7163            210               
   323.1        62.5470            222       New best
   329.5        61.4991            225       New best
   342.9        61.4991            228               
   357.9        61.4991            237               
   370.8        61.4991            242               
   379.3        61.2303            245       New best
   387.5        58.4276            249       New best
   398.0        56.9918            254       New best
   411.9        55.0552            258       New best
   412.8        55.0079            259       New best
   419.6        54.5942            264       New best
   422.5        54.4178            265       New best
   429.8        54.0701            267       New best
   434.8        53.9725            268       New best
   436.2        53.4347            270       New best
   450.7        53.4347            282               
   454.4        52.9552            285       New best
   458.9        51.3733            286       New best
   470.0        51.3733            291               
   481.6        51.3733            294               
   494.9        51.3733            300               
   505.3        51.3733            304               
   516.4        51.3733            309               
   528.2        51.3733            314               
   539.7        51.3733            318               
   554.2        51.3733            327               
   564.4        51.3733            330               
   574.6        51.3733            334               
   585.3        50.8190            338       New best
   588.7        48.6830            339       New best
   597.6        47.5681            342       New best
   608.5        47.5681            345               
   618.6        47.5681            353               
   629.2        47.5681            355               
   633.8        46.2678            357       New best
   643.3        45.9147            360       New best
   652.7        45.2427            366       New best
   655.5        45.1295            367       New best
   667.5        44.2795            375       New best
   679.4        44.2795            380               
   690.5        44.2795            387               
   701.0        44.0721            393       New best
   713.3        44.0721            399               
   719.5        43.0785            402       New best
   729.7        43.0785            404               
   741.5        42.7357            409       New best
   743.8        42.7342            414       New best
   749.1        42.2735            416       New best
   752.1        42.2282            417       New best
   761.4        42.1145            423       New best
   773.5        40.1711            427       New best
   783.5        39.3765            432       New best
   790.0        39.2164            434       New best
   799.1        38.6624            441       New best
   804.0        37.6229            444       New best
   813.1        37.0464            450       New best
   824.4        36.8639            456       New best
   834.9        36.8639            462               
   847.4        36.8639            469               
   860.1        36.8639            474               
   872.5        36.8639            480               
   884.9        34.4846            484       New best
   887.9        34.2087            486       New best
   891.3        33.7267            488       New best
   895.1        33.0682            489       New best
   901.0        32.9851            492       New best
   902.3        32.1932            493       New best
   910.2        31.7760            495       New best
   918.9        31.4368            498       New best
   930.5        31.4368            503               
   944.3        30.9882            511       New best
   951.3        30.6102            513       New best
   963.1        30.2288            520       New best
   966.7        29.5719            522       New best
   978.9        29.5719            527               
   980.9        29.2848            528       New best
   984.5        28.5962            529       New best
   991.5        28.2207            531       New best
  1001.7        28.2207            536               
  1002.4        27.8793            537       New best
  1013.1        27.8793            542               
  1028.0        27.8793            546               
  1038.2        27.8793            551               
  1049.3        27.8793            557               
  1060.5        27.8793            563               
  1072.7        27.8793            569               
  1083.7        27.8793            575               
  1093.9        27.8793            585               
  1104.7        27.8793            593               
  1115.1        27.8793            599               
  1125.5        27.8793            608               
  1127.9        27.8477            610       New best
  1141.0        27.8477            614               
  1151.6        27.7704            624       New best
  1154.7        27.6776            629       New best
  1156.2        27.6706            630       New best
  1166.2        27.4591            637       New best
  1178.6        27.4591            644               
  1189.7        27.4591            650               
  1201.0        27.4591            653               
  1211.7        27.4591            664               
  1223.7        27.4591            669               
  1238.5        27.4591            678               
  1249.3        27.4591            686               
  1260.2        27.4591            694               
  1272.0        27.4542            705       New best
  1274.5        27.0403            708       New best
  1284.5        26.0472            713       New best
  1287.3        25.7757            714       New best
  1293.3        25.5978            717       New best
  1303.4        25.5978            727               
  1315.1        25.5978            735               
  1326.4        25.5978            743               
  1337.3        25.5978            750               
  1350.4        25.5978            764               
  1363.3        25.5978            770               
  1376.9        25.5978            777               
  1381.5        25.3743            780       New best
  1392.1        25.3743            786               
  1400.7        25.3407            795       New best
  1413.1        25.3407            800               
  1428.6        25.3407            809               
  1436.6        24.8892            816       New best
  1446.6        24.8892            826               
  1458.2        24.6284            834       New best
  1471.6        24.6284            841               
  1473.0        24.6151            843       New best
  1483.6        24.6151            849               
  1494.0        24.6151            854               
  1499.6        24.5178            858       New best
  1505.2        24.0758            861       New best
  1515.4        24.0758            865               
  1525.4        24.0758            873               
  1535.4        24.0758            883               
  1545.9        24.0758            894               
  1547.5        23.6848            897       New best
  1557.5        23.6848            961               
  1567.5        23.6848           1030               
  1580.1        23.6848           1079               
  1588.3        23.6316           1087       New best
  1598.7        23.6316           1094               
  1613.0        23.6316           1101               
  1623.5        23.6316           1111               
  1636.4        23.6316           1119               
  1646.5        23.6316           1128               
  1659.2        23.6316           1137               
  1670.9        23.6316           1144               
  1682.3        23.6316           1151               
  1693.3        23.6316           1155               
  1703.4        23.6316           1169               
  1715.7        23.6316           1187               
  1725.8        23.6316           1199               
  1739.5        23.6316           1205               
  1751.8        23.6316           1218               
  1764.8        23.6316           1232               
  1775.5        23.6316           1240               
  1785.5        23.6316           1251               
  1795.7        23.6316           1261               
  1809.3        23.6316           1272               
  1821.0        23.6316           1281               
  1834.0        23.6316           1299               
  1847.6        23.6316           1307               
  1859.8        23.6316           1315               
  1871.2        23.6316           1324               
  1882.3        23.6316           1333               
  1892.3        23.6316           1339               
  1903.5        23.6316           1351               
  1907.9        23.6262           1358       New best
  1917.9        23.5710           1364       New best
  1930.8        23.5710           1370               
  1942.8        23.5710           1379               
  1953.2        23.5710           1387               
  1963.3        23.5710           1396               
  1976.7        23.5710           1407               
  1987.1        23.5710           1423               
  1997.2        23.5710           1429               
  2007.9        23.5710           1434               
  2021.9        23.5710           1443               
  2028.4        23.5710           1449       New best
  2040.4        23.5710           1457               
  2053.2        23.5710           1470               
  2064.5        23.5710           1477               
  2076.4        23.5710           1484               
  2086.9        23.5710           1493               
  2097.9        23.5710           1502               
  2111.1        23.5710           1515               
  2122.5        23.5710           1526               
  2136.5        23.5710           1533               
  2147.3        23.5710           1542               
  2158.6        23.5710           1550               
  2169.9        23.5710           1558               
  2180.7        23.5710           1567               
  2190.7        23.5710           1571               
  2192.8        23.5591           1575       New best
  2206.0        23.5591           1587               
  2217.3        23.4694           1599       New best
  2227.2        23.3294           1605       New best
  2237.7        23.3294           1621               
  2248.2        23.3294           1628               
  2261.4        23.3294           1641               
  2271.7        23.3294           1649               
  2282.6        23.3294           1657               
  2294.9        23.3294           1662               
  2306.0        23.3294           1672               
  2316.0        23.3294           1681               
  2326.1        23.3294           1688               
  2338.2        23.3294           1700               
  2351.9        23.3294           1713               
  2364.8        23.3294           1736               
  2376.8        23.3294           1745               
  2388.3        23.3294           1754               
  2399.5        23.3294           1759               
  2410.8        23.3294           1770               
  2422.8        23.3294           1776               
  2434.2        23.3294           1785               
  2447.2        23.3294           1794               
  2457.3        23.3294           1843               
  2467.4        23.3294           1897               
  2478.2        23.3294           1903               
  2490.3        23.3294           1911               
  2500.5        23.3294           1922               
  2510.8        23.3294           1929               
  2520.9        23.3294           1934               
  2530.9        23.3294           1938               
  2543.1        23.3294           1945               
  2553.3        23.3294           1952               
  2563.6        23.3294           1959               
  2573.9        23.3294           1970               
  2584.0        23.3294           1981               
  2596.8        23.3294           1991               
  2607.2        23.3294           1996               
  2619.8        23.3294           2005               
  2631.2        23.3294           2010               
  2645.5        23.3294           2019               
  2657.4        23.3294           2028               
  2667.8        23.3294           2042               
  2678.7        23.3294           2048               
  2688.8        23.3294           2059               
  2700.7        23.3294           2068               
  2712.4        23.3294           2078               
  2723.0        23.3294           2086               
  2735.8        23.3294           2091               
  2746.0        23.3294           2098               
  2757.2        23.3294           2102               
  2768.2        23.3294           2114               
  2778.4        23.3294           2125               
  2788.5        23.3294           2131               
  2798.5        23.3294           2138               
  2811.2        23.3294           2149               
  2821.3        23.3294           2157               
  2832.1        23.3294           2168               
  2844.8        23.3294           2181               
  2856.6        23.3294           2190               
  2868.5        23.3294           2199               
  2879.1        23.3294           2207               
  2890.0        23.3294           2220               
  2900.5        23.3294           2231               
  2910.6        23.3294           2239               
  2922.0        23.3294           2244               
  2932.4        23.3294           2249               
  2943.5        23.3294           2260               
  2953.8        23.3294           2267               
  2963.9        23.3294           2272               
  2975.2        22.5682           2283       New best
  2987.4        22.5682           2291               
  3001.0        22.5682           2297               
  3008.8        22.4193           2307       New best
  3019.4        22.4193           2325               
  3028.7        22.3941           2332       New best
  3032.8        22.2343           2337       New best
  3043.2        22.2343           2350               
  3056.6        22.2343           2366               
  3067.0        22.2343           2379               
  3077.5        22.2343           2388               
  3087.6        22.2343           2397               
  3089.7        22.0798           2400       New best
  3099.9        22.0798           2409               
  3108.9        21.7290           2419       New best
  3117.0        21.7288           2428       New best
  3128.7        21.7288           2435               
  3130.8        21.7282           2437       New best
  3135.6        21.7030           2441       New best
  3148.0        21.7030           2456               
  3159.3        21.7030           2469               
  3169.4        21.7030           2484               
  3181.4        21.7030           2491               
  3191.5        21.7030           2498               
  3202.8        21.7030           2510               
  3214.2        21.7030           2519               
  3224.3        21.7030           2545               
  3234.4        21.7030           2611               
  3245.2        21.7030           2621               
  3256.9        21.7030           2626               
  3267.3        21.7030           2631               
  3278.9        21.7030           2639               
  3290.8        21.7030           2646               
  3301.7        21.7030           2654               
  3315.1        21.7030           2659               
  3325.2        21.7030           2671               
  3335.6        21.7030           2677               
  3346.8        21.7030           2689               
  3359.9        21.7030           2698               
  3372.2        21.7030           2708               
  3383.1        21.7030           2719               
  3393.3        21.7030           2724               
  3403.5        21.7030           2730               
  3415.6        21.7030           2739               
  3429.3        21.7030           2744               
  3440.2        21.7030           2748               
  3450.2        21.7030           2754               
  3460.2        21.7030           2762               
  3471.5        21.7030           2765               
  3482.1        21.7030           2768               
  3493.1        21.7030           2775               
  3504.0        21.7030           2782               
  3515.1        21.7030           2790               
  3521.9        21.6986           2796       New best
  3532.9        21.6986           2809               
  3543.1        21.6986           2820               
  3556.8        21.6986           2837               
  3567.7        21.6986           2851               
  3579.1        21.6986           2861               
  3591.1        21.6986           2871               
Done ! Cost: 21.6986   Sol: 
Route  1():	[0;32m[0;34mD000[0;0m - [0;32mW005[0;0m[120.00] - [0;32mW010[0;0m[300.00] - [0;32mD000[0;0m 
Route  2():	[0;32m[0;34mD000[0;0m - [0;32mD000[0;0m 
Route  3():	[0;32m[0;34mD000[0;0m - [0;32mW020[0;0m[360.00] - [0;32mD000[0;0m 
Route  4():	[0;32m[0;34mD000[0;0m - [0;32mW006[0;0m[360.00] - [0;32mW028[0;0m[60.00] - [0;32mD000[0;0m 
Route  5():	[0;32m[0;34mD000[0;0m - [0;32mW009[0;0m[300.00] - [0;32mW007[0;0m[60.00] - [0;32mD000[0;0m 
Route  6():	[0;32m[0;34mD000[0;0m - [0;32mW015[0;0m[120.00] - [0;32mW018[0;0m[60.00] - [0;32mW004[0;0m[180.00] - [0;32mD000[0;0m 
Route  7():	[0;32m[0;34mD000[0;0m - [0;32mW014[0;0m[420.00] - [0;32mD000[0;0m 
Route  8():	[0;32m[0;34mD000[0;0m - [0;32mW012[0;0m[60.00] - [0;32mW016[0;0m[360.00] - [0;32mD000[0;0m 
Route  9():	[0;32m[0;34mD000[0;0m - [0;32mW003[0;0m[420.00] - [0;32mD000[0;0m 
Route 10():	[0;32m[0;34mD000[0;0m - [0;32mW023[0;0m[240.00] - [0;32mD000[0;0m 
Route 11():	[0;32m[0;34mD000[0;0m - [0;32mW029[0;0m[360.00] - [0;32mD000[0;0m 
Route 12():	[0;32m[0;34mD000[0;0m - [0;32mW017[0;0m[420.00] - [0;32mD000[0;0m 
Route 13():	[0;32m[0;34mD000[0;0m - [0;32mW025[0;0m[420.00] - [0;32mD000[0;0m 
Route 14():	[0;32m[0;34mD000[0;0m - [0;32mW027[0;0m[420.00] - [0;32mD000[0;0m 
Route 15():	[0;32m[0;34mD000[0;0m - [0;32mD000[0;0m 
Route 16():	[0;32m[0;34mD000[0;0m - [0;32mW008[0;0m[180.00] - [0;32mW002[0;0m[180.00] - [0;32mW021[0;0m[60.00] - [0;32mD000[0;0m 
Route 17():	[0;32m[0;34mD000[0;0m - [0;32mW024[0;0m[180.00] - [0;32mD000[0;0m 
Route 18():	[0;32m[0;34mD000[0;0m - [0;32mD000[0;0m 
Route 19():	[0;32m[0;34mD000[0;0m - [0;32mW011[0;0m[60.00] - [0;32mW022[0;0m[240.00] - [0;32mW026[0;0m[120.00] - [0;32mD000[0;0m 
Route 20():	[0;32m[0;34mD000[0;0m - [0;32mW001[0;0m[120.00] - [0;32mW013[0;0m[60.00] - [0;32mW019[0;0m[120.00] - [0;32mW030[0;0m[60.00] - [0;32mD000[0;0m 



Optimizing Rq_s1 [wmult=30] with initial solution (cost = 21.6986) for 3600.0000s:
Route  1():	[0;32m[0;34mD000[0;0m - [0;32mW005[0;0m[120.00] - [0;32mW010[0;0m[300.00] - [0;32mD000[0;0m 
Route  2():	[0;32m[0;34mD000[0;0m - [0;32mD000[0;0m 
Route  3():	[0;32m[0;34mD000[0;0m - [0;32mW020[0;0m[360.00] - [0;32mD000[0;0m 
Route  4():	[0;32m[0;34mD000[0;0m - [0;32mW006[0;0m[360.00] - [0;32mW028[0;0m[60.00] - [0;32mD000[0;0m 
Route  5():	[0;32m[0;34mD000[0;0m - [0;32mW009[0;0m[300.00] - [0;32mW007[0;0m[60.00] - [0;32mD000[0;0m 
Route  6():	[0;32m[0;34mD000[0;0m - [0;32mW015[0;0m[120.00] - [0;32mW018[0;0m[60.00] - [0;32mW004[0;0m[180.00] - [0;32mD000[0;0m 
Route  7():	[0;32m[0;34mD000[0;0m - [0;32mW014[0;0m[420.00] - [0;32mD000[0;0m 
Route  8():	[0;32m[0;34mD000[0;0m - [0;32mW012[0;0m[60.00] - [0;32mW016[0;0m[360.00] - [0;32mD000[0;0m 
Route  9():	[0;32m[0;34mD000[0;0m - [0;32mW003[0;0m[420.00] - [0;32mD000[0;0m 
Route 10():	[0;32m[0;34mD000[0;0m - [0;32mW023[0;0m[240.00] - [0;32mD000[0;0m 
Route 11():	[0;32m[0;34mD000[0;0m - [0;32mW029[0;0m[360.00] - [0;32mD000[0;0m 
Route 12():	[0;32m[0;34mD000[0;0m - [0;32mW017[0;0m[420.00] - [0;32mD000[0;0m 
Route 13():	[0;32m[0;34mD000[0;0m - [0;32mW025[0;0m[420.00] - [0;32mD000[0;0m 
Route 14():	[0;32m[0;34mD000[0;0m - [0;32mW027[0;0m[420.00] - [0;32mD000[0;0m 
Route 15():	[0;32m[0;34mD000[0;0m - [0;32mD000[0;0m 
Route 16():	[0;32m[0;34mD000[0;0m - [0;32mW008[0;0m[180.00] - [0;32mW002[0;0m[180.00] - [0;32mW021[0;0m[60.00] - [0;32mD000[0;0m 
Route 17():	[0;32m[0;34mD000[0;0m - [0;32mW024[0;0m[180.00] - [0;32mD000[0;0m 
Route 18():	[0;32m[0;34mD000[0;0m - [0;32mD000[0;0m 
Route 19():	[0;32m[0;34mD000[0;0m - [0;32mW011[0;0m[60.00] - [0;32mW022[0;0m[240.00] - [0;32mW026[0;0m[120.00] - [0;32mD000[0;0m 
Route 20():	[0;32m[0;34mD000[0;0m - [0;32mW001[0;0m[120.00] - [0;32mW013[0;0m[60.00] - [0;32mW019[0;0m[120.00] - [0;32mW030[0;0m[60.00] - [0;32mD000[0;0m 
CPU Time           Best      Iteration         Action
     0.5        21.6986              1          Start
    13.5        21.6986             93               
    25.4        21.6986            183               
    35.9        21.6986            192               
    46.8        21.6986            201               
    58.0        21.6986            209               
    68.1        21.6986            213               
    80.1        21.6986            220               
    92.7        21.6986            225               
   104.8        21.6986            233               
   115.8        21.6986            241               
   126.6        21.6986            247               
   137.4        21.6986            254               
   148.3        21.6986            258               
   162.0        21.6986            264               
   173.6        21.6986            269               
   183.7        21.6986            273               
   197.6        21.6986            280               
   208.0        21.6986            289               
   218.6        21.6986            298               
   228.6        21.6986            303               
   239.5        21.6986            313               
   251.2        21.6986            322               
   261.2        21.6986            328               
   274.4        21.6986            338               
   287.6        21.6986            356               
   300.4        21.6986            368               
   311.8        21.6986            381               
   323.0        21.6986            390               
   333.1        21.6986            399               
   345.0        21.6986            415               
   355.1        21.6986            422               
   365.7        21.6986            431               
   376.2        21.6986            440               
   387.1        21.6986            451               
   391.8        21.6150            456       New best
   403.4        21.6150            462               
   413.9        21.6150            476               
   424.2        21.6150            482               
   436.0        21.6150            493               
   447.8        21.6150            505               
   458.0        21.6150            513               
   469.0        21.6150            523               
   480.9        21.6150            534               
   492.4        21.6150            543               
   493.4        21.5870            545       New best
   506.1        21.5870            552               
   507.6        21.2116            556       New best
   518.8        21.2116            563               
   520.6        21.1655            564       New best
   524.1        21.1297            568       New best
   536.3        21.1297            579               
   548.2        21.1297            589               
   559.4        21.1297            597               
   571.7        21.1297            611               
   583.2        21.1297            624               
   586.4        21.1140            633       New best
   598.2        21.1140            642               
   612.5        21.1140            660               
   624.9        21.1140            669               
   637.1        21.1140            683               
   649.3        21.1140            697               
   660.0        21.1140            712               
   665.0        21.0820            717       New best
   675.8        21.0820            730               
   679.8        20.9655            732       New best
   689.8        20.9655            744               
   701.8        20.9655            757               
   712.1        20.9655            766               
   724.0        20.9655            777               
   734.0        20.9655            790               
   744.8        20.9655            796               
   754.9        20.9655            812               
   759.3        20.8746            817       New best
   769.9        20.8746            823               
   780.8        20.8746            836               
   783.0        20.8627            840       New best
   793.0        20.8627            851               
   802.2        20.8310            857       New best
   805.3        20.7501            861       New best
   816.7        20.7501            872               
   827.6        20.7501            881               
   839.0        20.7501            892               
   850.2        20.7501            899               
   860.3        20.7501            909               
   870.3        20.7501            959               
   881.8        20.7501            998               
   895.2        20.7501           1008               
   909.0        20.7501           1017               
   919.5        20.7501           1024               
   930.7        20.7501           1030               
   943.5        20.7501           1036               
   955.0        20.7501           1045               
   966.4        20.7501           1048               
   977.8        20.7501           1052               
   988.0        20.7501           1060               
  1000.1        20.7501           1068               
  1011.1        20.7501           1074               
  1023.1        20.7501           1079               
  1036.8        20.7501           1092               
  1048.9        20.7501           1106               
  1059.7        20.7501           1114               
  1070.4        20.7501           1119               
  1080.4        20.7501           1130               
  1092.3        20.7501           1137               
  1103.3        20.7501           1143               
  1115.4        20.7501           1150               
  1126.2        20.7501           1160               
  1139.3        20.7501           1173               
  1150.0        20.7501           1182               
  1161.8        20.7501           1188               
  1174.2        20.7501           1196               
  1184.9        20.7501           1200               
  1196.5        20.7501           1207               
  1209.0        20.7501           1217               
  1222.1        20.7501           1226               
  1232.4        20.7501           1232               
  1243.7        20.7501           1243               
  1254.5        20.7501           1250               
  1265.0        20.7501           1258               
  1278.3        20.7501           1268               
  1291.1        20.7501           1277               
  1301.4        20.7501           1285               
  1314.9        20.7501           1295               
  1326.4        20.7501           1303               
  1336.5        20.7501           1311               
  1347.4        20.7501           1317               
  1357.7        20.7501           1326               
  1370.1        20.7501           1340               
  1380.1        20.7501           1351               
  1392.5        20.7501           1362               
  1403.2        20.7501           1371               
  1413.2        20.7501           1382               
  1426.9        20.7501           1394               
  1438.5        20.7501           1403               
  1452.3        20.7501           1416               
  1462.4        20.7501           1425               
  1473.6        20.7501           1432               
  1484.9        20.7501           1443               
  1497.6        20.7501           1461               
  1510.3        20.7501           1479               
  1521.4        20.7501           1488               
  1532.4        20.7501           1497               
  1543.8        20.7501           1511               
  1554.5        20.7501           1528               
  1565.0        20.7501           1537               
  1576.3        20.7501           1546               
  1588.9        20.7501           1556               
  1592.6        20.5768           1560       New best
  1603.7        20.5768           1574               
  1615.2        20.5768           1585               
  1625.4        20.5768           1592               
  1635.8        20.5768           1601               
  1649.2        20.5768           1609               
  1659.7        20.5768           1617               
  1672.4        20.5768           1628               
  1678.8        20.5757           1635       New best
  1690.8        20.5757           1642               
  1691.9        20.5011           1644       New best
  1693.7        20.4261           1645       New best
  1699.0        20.4244           1653       New best
  1709.2        20.4244           1664               
  1719.4        20.4244           1675               
  1728.3        20.4167           1684       New best
  1739.7        20.4167           1700               
  1751.4        20.4167           1713               
  1762.8        20.4167           1807               
  1776.0        20.4167           1813               
  1789.4        20.4167           1821               
  1802.7        20.4167           1830               
  1815.1        20.4167           1839               
  1826.4        20.4167           1847               
  1837.9        20.4167           1852               
  1849.4        20.4167           1857               
  1859.5        20.4167           1863               
  1869.6        20.4167           1871               
  1879.8        20.4167           1879               
  1889.9        20.4167           1883               
  1901.5        20.4167           1888               
  1911.5        20.4167           1897               
  1923.3        20.4167           1909               
  1933.3        20.4167           1918               
  1945.7        20.4167           1927               
  1956.4        20.4167           1937               
  1968.2        20.4167           1946               
  1980.5        20.4167           1961               
  1992.9        20.4167           1974               
  2002.9        20.4167           1983               
  2013.4        20.4167           1998               
  2023.7        20.4167           2008               
  2034.4        20.4167           2016               
  2047.2        20.4167           2028               
  2057.4        20.4167           2039               
  2068.1        20.4167           2046               
  2078.2        20.4167           2058               
  2090.0        20.4167           2069               
  2093.8        20.4166           2076       New best
  2103.9        20.4166           2088               
  2116.4        20.4166           2100               
  2129.1        20.4166           2109               
  2139.2        20.4166           2121               
  2149.9        20.4166           2128               
  2160.9        20.4166           2141               
  2173.8        20.4166           2154               
  2184.3        20.4166           2168               
  2197.5        20.4166           2177               
  2208.8        20.4166           2188               
  2221.8        20.4166           2199               
  2232.7        20.4166           2208               
  2243.1        20.4166           2217               
  2253.2        20.4166           2226               
  2263.7        20.4166           2233               
  2277.5        20.4166           2244               
  2288.9        20.4166           2258               
  2301.3        20.4166           2269               
  2308.8        20.4161           2274       New best
  2319.8        20.4161           2285               
  2331.0        20.4161           2296               
  2341.1        20.4161           2306               
  2352.7        20.4161           2316               
  2357.2        20.2653           2319       New best
  2368.7        20.2653           2334               
  2378.7        20.2653           2343               
  2393.4        20.2653           2361               
  2404.6        20.2653           2370               
  2415.5        20.2653           2384               
  2429.8        20.2653           2402               
  2440.1        20.2653           2413               
  2450.4        20.2653           2430               
  2462.0        20.2653           2442               
  2472.7        20.2653           2456               
  2484.0        20.2653           2464               
  2496.1        20.2653           2474               
  2506.3        20.2653           2485               
  2516.7        20.2653           2494               
  2527.5        20.2653           2503               
  2538.0        20.2653           2514               
  2552.9        20.2653           2528               
  2562.9        20.2653           2549               
  2572.9        20.2653           2600               
  2583.1        20.2653           2611               
  2595.5        20.2653           2622               
  2605.6        20.2653           2686               
  2615.7        20.2653           2715               
  2625.7        20.2653           2723               
  2636.3        20.2653           2737               
  2646.7        20.2653           2752               
  2656.8        20.2653           2758               
  2667.5        20.2653           2769               
  2679.1        20.2653           2775               
  2690.5        20.2653           2788               
  2701.3        20.2653           2793               
  2702.6        20.2653           2796       New best
  2715.8        20.2653           2811               
  2727.9        20.2653           2818               
  2740.6        20.2653           2825               
  2752.0        20.2653           2836               
  2762.2        20.2653           2843               
  2775.3        20.2653           2851               
  2785.6        20.2653           2861               
  2797.0        20.2653           2869               
  2808.3        20.2653           2879               
  2817.9        20.2586           2888       New best
  2832.3        20.2586           2901               
  2844.5        20.2586           2910               
  2856.6        20.2586           2919               
  2867.5        20.2586           2932               
  2878.5        20.2586           2943               
  2888.8        20.2586           2951               
  2899.2        20.2586           2964               
  2910.1        20.2167           2977       New best
  2920.7        20.2167           2987               
  2931.9        20.2167           3004               
  2942.3        20.2167           3014               
  2952.8        20.2167           3030               
  2963.4        20.2167           3041               
  2974.3        20.2167           3052               
  2987.3        20.2167           3063               
  3001.6        20.2167           3081               
  3014.2        20.2167           3095               
  3024.9        20.2167           3106               
  3035.0        20.2167           3119               
  3046.5        20.2167           3130               
  3056.9        20.2167           3135               
  3069.2        20.2167           3149               
  3084.1        20.2167           3162               
  3096.2        20.2167           3171               
  3107.3        20.2167           3185               
  3119.1        20.2167           3198               
  3129.7        20.2167           3212               
  3142.0        20.2167           3225               
  3154.2        20.2167           3243               
  3156.4        20.2082           3247       New best
  3167.6        20.2082           3260               
  3177.9        20.2082           3270               
  3192.3        20.2082           3284               
  3204.4        20.2082           3297               
  3215.1        20.2082           3306               
  3225.3        20.2082           3315               
  3236.1        20.2082           3328               
  3246.3        20.2082           3336               
  3256.4        20.2082           3403               
  3266.4        20.2082           3474               
  3276.6        20.2082           3520               
  3289.8        20.2082           3529               
  3300.0        20.2082           3538               
  3310.4        20.2082           3549               
  3320.5        20.2082           3555               
  3332.6        20.2082           3563               
  3345.1        20.2082           3572               
  3355.6        20.2082           3579               
  3368.6        20.2082           3585               
  3383.1        20.2082           3594               
  3397.7        20.2082           3601               
  3410.8        20.2082           3610               
  3425.4        20.2082           3621               
  3436.1        20.2082           3633               
  3446.2        20.2082           3639               
  3457.3        20.2082           3644               
  3467.9        20.2082           3655               
  3481.2        20.2082           3666               
  3492.7        20.2082           3675               
  3504.3        20.2082           3684               
  3515.8        20.2082           3693               
  3529.5        20.2082           3711               
  3541.9        20.2082           3716               
  3554.8        20.2082           3721               
  3564.8        20.2082           3729               
  3574.9        20.2082           3738               
  3588.9        20.2082           3747               
  3601.2        20.2082           3756               
Done ! Cost: 20.2082   Sol: 
Route  1():	[0;32m[0;34mD000[0;0m - [0;32mW005[0;0m[120.00] - [0;32mW018[0;0m[30.00] - [0;32mW004[0;0m[180.00] - [0;32mD000[0;0m 
Route  2():	[0;32m[0;34mD000[0;0m - [0;32mW009[0;0m[300.00] - [0;32mD000[0;0m 
Route  3():	[0;32m[0;34mD000[0;0m - [0;32mW020[0;0m[420.00] - [0;32mD000[0;0m 
Route  4():	[0;32m[0;34mD000[0;0m - [0;32mW006[0;0m[390.00] - [0;32mD000[0;0m 
Route  5():	[0;32m[0;34mD000[0;0m - [0;32mW007[0;0m[420.00] - [0;32mD000[0;0m 
Route  6():	[0;32m[0;34mD000[0;0m - [0;32mW015[0;0m[120.00] - [0;32mW010[0;0m[300.00] - [0;32mD000[0;0m 
Route  7():	[0;32m[0;34mD000[0;0m - [0;32mW014[0;0m[420.00] - [0;32mD000[0;0m 
Route  8():	[0;32m[0;34mD000[0;0m - [0;32mW016[0;0m[360.00] - [0;32mW012[0;0m[60.00] - [0;32mD000[0;0m 
Route  9():	[0;32m[0;34mD000[0;0m - [0;32mW003[0;0m[420.00] - [0;32mD000[0;0m 
Route 10():	[0;32m[0;34mD000[0;0m - [0;32mW023[0;0m[360.00] - [0;32mD000[0;0m 
Route 11():	[0;32m[0;34mD000[0;0m - [0;32mW029[0;0m[390.00] - [0;32mD000[0;0m 
Route 12():	[0;32m[0;34mD000[0;0m - [0;32mW017[0;0m[390.00] - [0;32mD000[0;0m 
Route 13():	[0;32m[0;34mD000[0;0m - [0;32mW025[0;0m[420.00] - [0;32mD000[0;0m 
Route 14():	[0;32m[0;34mD000[0;0m - [0;32mW027[0;0m[450.00] - [0;32mD000[0;0m 
Route 15():	[0;32m[0;34mD000[0;0m - [0;32mD000[0;0m 
Route 16():	[0;32m[0;34mD000[0;0m - [0;32mW001[0;0m[180.00] - [0;32mW002[0;0m[210.00] - [0;32mD000[0;0m 
Route 17():	[0;32m[0;34mD000[0;0m - [0;32mW024[0;0m[360.00] - [0;32mW021[0;0m[30.00] - [0;32mD000[0;0m 
Route 18():	[0;32m[0;34mD000[0;0m - [0;32mD000[0;0m 
Route 19():	[0;32m[0;34mD000[0;0m - [0;32mW011[0;0m[60.00] - [0;32mW022[0;0m[240.00] - [0;32mW026[0;0m[120.00] - [0;32mD000[0;0m 
Route 20():	[0;32m[0;34mD000[0;0m - [0;32mW008[0;0m[180.00] - [0;32mW019[0;0m[120.00] - [0;32mW030[0;0m[60.00] - [0;32mW013[0;0m[60.00] - [0;32mD000[0;0m 



Optimizing Rq_s1 [wmult=10] with initial solution (cost = 20.2082) for 3600.0000s:
Route  1():	[0;32m[0;34mD000[0;0m - [0;32mW005[0;0m[120.00] - [0;32mW018[0;0m[30.00] - [0;32mW004[0;0m[180.00] - [0;32mD000[0;0m 
Route  2():	[0;32m[0;34mD000[0;0m - [0;32mW009[0;0m[300.00] - [0;32mD000[0;0m 
Route  3():	[0;32m[0;34mD000[0;0m - [0;32mW020[0;0m[420.00] - [0;32mD000[0;0m 
Route  4():	[0;32m[0;34mD000[0;0m - [0;32mW006[0;0m[390.00] - [0;32mD000[0;0m 
Route  5():	[0;32m[0;34mD000[0;0m - [0;32mW007[0;0m[420.00] - [0;32mD000[0;0m 
Route  6():	[0;32m[0;34mD000[0;0m - [0;32mW015[0;0m[120.00] - [0;32mW010[0;0m[300.00] - [0;32mD000[0;0m 
Route  7():	[0;32m[0;34mD000[0;0m - [0;32mW014[0;0m[420.00] - [0;32mD000[0;0m 
Route  8():	[0;32m[0;34mD000[0;0m - [0;32mW016[0;0m[360.00] - [0;32mW012[0;0m[60.00] - [0;32mD000[0;0m 
Route  9():	[0;32m[0;34mD000[0;0m - [0;32mW003[0;0m[420.00] - [0;32mD000[0;0m 
Route 10():	[0;32m[0;34mD000[0;0m - [0;32mW023[0;0m[360.00] - [0;32mD000[0;0m 
Route 11():	[0;32m[0;34mD000[0;0m - [0;32mW029[0;0m[390.00] - [0;32mD000[0;0m 
Route 12():	[0;32m[0;34mD000[0;0m - [0;32mW017[0;0m[390.00] - [0;32mD000[0;0m 
Route 13():	[0;32m[0;34mD000[0;0m - [0;32mW025[0;0m[420.00] - [0;32mD000[0;0m 
Route 14():	[0;32m[0;34mD000[0;0m - [0;32mW027[0;0m[450.00] - [0;32mD000[0;0m 
Route 15():	[0;32m[0;34mD000[0;0m - [0;32mD000[0;0m 
Route 16():	[0;32m[0;34mD000[0;0m - [0;32mW001[0;0m[180.00] - [0;32mW002[0;0m[210.00] - [0;32mD000[0;0m 
Route 17():	[0;32m[0;34mD000[0;0m - [0;32mW024[0;0m[360.00] - [0;32mW021[0;0m[30.00] - [0;32mD000[0;0m 
Route 18():	[0;32m[0;34mD000[0;0m - [0;32mD000[0;0m 
Route 19():	[0;32m[0;34mD000[0;0m - [0;32mW011[0;0m[60.00] - [0;32mW022[0;0m[240.00] - [0;32mW026[0;0m[120.00] - [0;32mD000[0;0m 
Route 20():	[0;32m[0;34mD000[0;0m - [0;32mW008[0;0m[180.00] - [0;32mW019[0;0m[120.00] - [0;32mW030[0;0m[60.00] - [0;32mW013[0;0m[60.00] - [0;32mD000[0;0m 
CPU Time           Best      Iteration         Action
     0.8        20.2082              1          Start
    10.9        20.2082             71               
    20.9        20.2082            125               
    31.1        20.2082            183               
    43.4        20.2082            192               
    53.9        20.2082            208               
    66.4        20.2082            216               
    79.5        20.2082            224               
    90.0        20.2082            234               
   100.8        20.2082            243               
   114.6        20.2082            251               
   125.8        20.2082            259               
   136.0        20.2082            265               
   148.4        20.2082            273               
   161.2        20.2082            280               
   172.2        20.2082            288               
   183.8        20.2082            300               
   194.2        20.2082            313               
   205.6        20.2082            323               
   215.9        20.2082            329               
   226.1        20.2082            334               
   237.4        20.2082            343               
   248.2        20.2082            350               
   258.7        20.2082            361               
   268.7        20.2082            371               
   279.8        20.2082            380               
   291.0        20.2082            390               
   304.0        20.2082            399               
   315.4        20.2082            413               
   328.9        20.2082            422               
   339.5        20.2082            431               
   350.8        20.2082            440               
   362.5        20.2082            451               
   373.9        20.2082            462               
   385.5        20.2082            471               
   397.2        20.2082            485               
   408.4        20.2082            495               
   418.8        20.2082            505               
   431.0        20.2082            521               
   444.1        20.2082            534               
   454.4        20.2082            547               
   465.7        20.2082            557               
   476.9        20.2082            568               
   488.0        20.2082            577               
   491.3        20.1999            579       New best
   492.9        20.1781            582       New best
   503.6        20.1781            593               
   515.6        20.1781            602               
   526.0        20.1781            611               
   537.6        20.1781            619               
   547.9        20.1781            624               
   559.0        20.1781            638               
   570.2        20.1781            656               
   580.5        20.1781            667               
   592.2        20.1781            678               
   603.7        20.1781            692               
   614.5        20.1781            700               
   623.5        20.1500            709       New best
   634.3        20.1500            719               
   641.5        19.6550            727       New best
   651.6        19.6550            734               
   665.1        19.3558            742       New best
   677.0        19.3558            753               
   691.1        19.3558            759               
   702.3        19.3558            768               
   710.5        19.3194            774       New best
   720.7        19.3194            783               
   731.5        19.2275            789       New best
   741.5        19.2275            801               
   745.3        19.1602            804       New best
   756.1        19.1602            813               
   767.4        19.1602            827               
   778.8        19.1602            836               
   789.5        19.1602            847               
   801.3        19.1602            858               
   811.8        19.1602            868               
   821.9        19.1602            876               
   836.5        19.1602            894               
   847.1        19.1602            903               
   857.2        19.1602            960               
   872.2        19.1602            998               
   882.4        19.1602           1009               
   893.4        19.1602           1015               
   904.6        19.1602           1020               
   916.4        19.1602           1029               
   929.5        19.1602           1038               
   939.7        19.1602           1047               
   949.9        19.1602           1054               
   961.5        19.1602           1058               
   973.7        19.1602           1070               
   985.0        19.1602           1078               
   995.2        19.1602           1081               
  1006.0        19.1602           1092               
  1019.0        19.1602           1101               
  1029.9        19.1602           1114               
  1041.3        19.1602           1124               
  1052.4        19.1602           1135               
  1062.9        19.1602           1146               
  1074.0        19.1602           1155               
  1087.4        19.1602           1173               
  1088.9        19.1267           1176       New best
  1100.5        19.1267           1186               
  1112.0        19.1267           1191               
  1122.6        19.1267           1198               
  1133.7        19.1267           1205               
  1143.9        19.1267           1211               
  1154.5        19.1267           1216               
  1166.0        19.1267           1223               
  1176.3        19.1267           1234               
  1186.8        19.1267           1240               
  1198.2        19.1267           1245               
  1210.0        19.1267           1259               
  1221.8        19.1267           1272               
  1231.9        19.1267           1281               
  1243.7        19.1267           1294               
  1254.2        19.1267           1301               
  1264.7        19.1267           1312               
  1275.0        19.1267           1317               
  1286.7        19.1267           1327               
  1296.8        19.1267           1335               
  1307.0        19.1267           1347               
  1317.7        19.1267           1357               
  1329.5        19.1267           1369               
  1339.6        19.1267           1382               
  1350.4        19.1267           1397               
  1363.2        19.1267           1412               
  1373.7        19.1267           1423               
  1387.8        19.1267           1432               
  1398.0        19.1267           1444               
  1408.9        19.1267           1455               
  1420.8        19.1267           1466               
  1434.1        19.1267           1475               
  1445.2        19.1267           1484               
  1455.4        19.1267           1497               
  1465.4        19.1267           1506               
  1472.5        19.0793           1515       New best
  1485.1        19.0793           1531               
  1487.7        18.9206           1533       New best
  1499.1        18.9206           1547               
  1507.2        18.8345           1554       New best
  1517.5        18.8345           1569               
  1519.9        18.8342           1574       New best
  1530.8        18.8342           1583               
  1542.9        18.8342           1596               
  1553.0        18.8342           1608               
  1561.1        18.7730           1617       New best
  1564.1        18.7714           1620       New best
  1577.7        18.7714           1632               
  1587.8        18.7714           1644               
  1597.8        18.7714           1650               
  1610.7        18.7714           1659               
  1620.4        18.7303           1668       New best
  1622.5        18.7250           1672       New best
  1630.2        18.6190           1680       New best
  1642.5        18.6190           1691               
  1654.4        18.6190           1704               
  1664.4        18.6190           1728               
  1676.1        18.6190           1808               
  1686.2        18.6190           1854               
  1696.2        18.6190           1863               
  1706.3        18.6190           1875               
  1717.8        18.6190           1883               
  1728.9        18.6190           1891               
  1739.1        18.6190           1904               
  1751.1        18.6190           1913               
  1761.1        18.6190           1922               
  1771.8        18.6190           1929               
  1784.4        18.6190           1938               
  1799.0        18.6190           1947               
  1810.2        18.6190           1956               
  1821.7        18.6190           1962               
  1832.5        18.6190           1974               
  1843.2        18.6190           1984               
  1853.7        18.6190           1992               
  1864.1        18.6190           2003               
  1876.7        18.6190           2015               
  1887.8        18.6190           2028               
  1898.4        18.6190           2036               
  1910.9        18.6190           2042               
  1922.2        18.6190           2053               
  1932.3        18.6190           2065               
  1945.9        18.6190           2075               
  1957.3        18.6190           2087               
  1967.9        18.6190           2096               
  1978.2        18.6190           2114               
  1988.9        18.6190           2125               
  2000.1        18.6190           2132               
  2011.1        18.6190           2140               
  2021.3        18.6190           2152               
  2032.8        18.6190           2159               
  2043.5        18.6190           2171               
  2054.5        18.6190           2181               
  2065.5        18.6190           2194               
  2076.7        18.6190           2208               
  2089.2        18.6190           2215               
  2100.8        18.6190           2222               
  2113.5        18.6190           2235               
  2124.7        18.6190           2245               
  2135.4        18.6190           2257               
  2147.8        18.6190           2269               
  2160.6        18.1167           2284       New best
  2170.8        18.1167           2296               
  2183.8        18.1167           2303               
  2195.1        18.1167           2314               
  2205.2        18.1167           2331               
  2218.3        18.1167           2348               
  2224.4        18.0990           2355       New best
  2235.2        18.0990           2365               
  2245.2        18.0990           2377               
  2258.2        18.0990           2388               
  2265.0        18.0815           2397       New best
  2275.9        18.0815           2411               
  2286.6        18.0815           2420               
  2298.4        18.0815           2428               
  2313.5        18.0815           2442               
  2325.5        18.0815           2460               
  2335.6        18.0815           2477               
  2348.9        18.0815           2487               
  2360.3        18.0815           2496               
  2363.5        17.9830           2500       New best
  2373.5        17.9830           2514               
  2375.8        17.9553           2517       New best
  2387.5        17.9553           2528               
  2397.6        17.9553           2574               
  2408.5        17.9553           2618               
  2418.7        17.9553           2628               
  2428.8        17.9553           2636               
  2439.4        17.9553           2640               
  2451.2        17.9553           2646               
  2465.9        17.9553           2653               
  2476.1        17.9553           2657               
  2489.0        17.9553           2667               
  2499.4        17.9553           2672               
  2513.0        17.9553           2677               
  2524.4        17.9553           2685               
  2535.4        17.9553           2694               
  2545.5        17.9553           2704               
  2557.7        17.9553           2716               
  2567.8        17.9553           2724               
  2579.3        17.9553           2739               
  2590.2        17.9553           2749               
  2601.5        17.9553           2762               
  2612.4        17.9553           2771               
  2624.1        17.9553           2776               
  2636.6        17.9553           2784               
  2647.1        17.9553           2793               
  2659.3        17.9553           2802               
  2670.8        17.9553           2813               
  2681.1        17.9553           2820               
  2693.4        17.9553           2833               
  2704.0        17.9553           2841               
  2714.1        17.9553           2855               
  2725.6        17.9553           2861               
  2738.4        17.9553           2872               
  2752.6        17.9553           2883               
  2764.8        17.9553           2891               
  2776.4        17.9553           2906               
  2788.2        17.9553           2915               
  2801.4        17.9553           2926               
  2812.1        17.9553           2936               
  2823.0        17.9553           2942               
  2836.4        17.9553           2955               
  2848.3        17.9553           2969               
  2856.6        17.7692           2976       New best
  2868.2        17.7692           2991               
  2879.3        17.7692           3000               
  2891.9        17.7692           3009               
  2901.0        17.6993           3020       New best
  2911.3        17.6993           3031               
  2922.4        17.6993           3036               
  2933.3        17.6993           3045               
  2944.5        17.6993           3059               
  2955.5        17.6993           3068               
  2966.2        17.6993           3079               
  2976.2        17.6993           3088               
  2977.9        17.6976           3090       New best
  2990.2        17.6976           3104               
  3000.3        17.6976           3122               
  3011.2        17.6671           3137       New best
  3022.6        17.6671           3149               
  3034.2        17.6671           3157               
  3045.6        17.6671           3167               
  3057.2        17.6671           3180               
  3067.9        17.6671           3194               
  3080.3        17.6671           3212               
  3093.0        17.6671           3223               
  3104.9        17.6671           3234               
  3115.1        17.6671           3248               
  3126.2        17.6671           3259               
  3138.7        17.6671           3270               
  3149.8        17.6671           3284               
  3163.1        17.6671           3297               
  3174.9        17.6671           3306               
  3185.4        17.6671           3320               
  3196.4        17.6671           3329               
  3207.2        17.6671           3340               
  3217.5        17.6671           3348               
  3232.1        17.6671           3383               
  3244.5        17.6671           3394               
  3257.3        17.6671           3404               
  3269.7        17.6671           3414               
  3281.2        17.6671           3420               
  3294.1        17.6671           3427               
  3304.6        17.6671           3439               
  3315.8        17.6671           3450               
  3326.6        17.6671           3458               
  3337.9        17.6671           3468               
  3348.6        17.6671           3482               
  3359.9        17.6671           3491               
  3370.2        17.6671           3500               
  3380.6        17.6671           3513               
  3391.4        17.6671           3525               
  3402.9        17.6671           3540               
  3413.5        17.6671           3547               
  3424.4        17.6671           3558               
  3435.3        17.6671           3572               
  3446.4        17.6671           3581               
  3458.0        17.6671           3589               
  3468.3        17.6671           3598               
  3478.4        17.6671           3604               
  3489.0        17.6671           3612               
  3500.7        17.6671           3621               
  3512.7        17.6671           3634               
  3522.7        17.6671           3639               
  3535.7        17.6671           3648               
  3547.7        17.6671           3657               
  3558.5        17.6671           3665               
  3572.3        17.6671           3675               
  3583.2        17.6671           3684               
  3595.3        17.6671           3693               
Done ! Cost: 17.6671   Sol: 
Route  1():	[0;32m[0;34mD000[0;0m - [0;32mW005[0;0m[120.00] - [0;32mW004[0;0m[230.00] - [0;32mW018[0;0m[30.00] - [0;32mD000[0;0m 
Route  2():	[0;32m[0;34mD000[0;0m - [0;32mW009[0;0m[350.00] - [0;32mW028[0;0m[100.00] - [0;32mD000[0;0m 
Route  3():	[0;32m[0;34mD000[0;0m - [0;32mW011[0;0m[60.00] - [0;32mW022[0;0m[250.00] - [0;32mD000[0;0m 
Route  4():	[0;32m[0;34mD000[0;0m - [0;32mW006[0;0m[450.00] - [0;32mD000[0;0m 
Route  5():	[0;32m[0;34mD000[0;0m - [0;32mW020[0;0m[50.00] - [0;32mW029[0;0m[370.00] - [0;32mD000[0;0m 
Route  6():	[0;32m[0;34mD000[0;0m - [0;32mW026[0;0m[120.00] - [0;32mW010[0;0m[310.00] - [0;32mD000[0;0m 
Route  7():	[0;32m[0;34mD000[0;0m - [0;32mW014[0;0m[440.00] - [0;32mD000[0;0m 
Route  8():	[0;32m[0;34mD000[0;0m - [0;32mW016[0;0m[360.00] - [0;32mW012[0;0m[60.00] - [0;32mD000[0;0m 
Route  9():	[0;32m[0;34mD000[0;0m - [0;32mW003[0;0m[410.00] - [0;32mD000[0;0m 
Route 10():	[0;32m[0;34mD000[0;0m - [0;32mW023[0;0m[380.00] - [0;32mD000[0;0m 
Route 11():	[0;32m[0;34mD000[0;0m - [0;32mW007[0;0m[380.00] - [0;32mD000[0;0m 
Route 12():	[0;32m[0;34mD000[0;0m - [0;32mW017[0;0m[380.00] - [0;32mD000[0;0m 
Route 13():	[0;32m[0;34mD000[0;0m - [0;32mW025[0;0m[360.00] - [0;32mD000[0;0m 
Route 14():	[0;32m[0;34mD000[0;0m - [0;32mW027[0;0m[450.00] - [0;32mD000[0;0m 
Route 15():	[0;32m[0;34mD000[0;0m - [0;32mD000[0;0m 
Route 16():	[0;32m[0;34mD000[0;0m - [0;32mW001[0;0m[350.00] - [0;32mD000[0;0m 
Route 17():	[0;32m[0;34mD000[0;0m - [0;32mW024[0;0m[350.00] - [0;32mD000[0;0m 
Route 18():	[0;32m[0;34mD000[0;0m - [0;32mD000[0;0m 
Route 19():	[0;32m[0;34mD000[0;0m - [0;32mW002[0;0m[240.00] - [0;32mW015[0;0m[120.00] - [0;32mD000[0;0m 
Route 20():	[0;32m[0;34mD000[0;0m - [0;32mW008[0;0m[180.00] - [0;32mW019[0;0m[120.00] - [0;32mW030[0;0m[60.00] - [0;32mW013[0;0m[60.00] - [0;32mD000[0;0m 



Writting JSON summary file...    Done.
Run #1 : Cost under scale 1 (R_CAPA_PLUS) ==> 15.6339
=========================================================================


###########################################################################
Avg cost / 1 runs: 15.6339
###########################################################################
