Algorithm: "LS_succ"


Instance files: STGUILLAIN /home/ucl/ingi/stguilla/vrp/benchmarks/ss-vrptw-cr/realdata_optimod_lyon/travel_times.txt
Instance:   nRegions: 81(#depot:1, #customer:50, #waiting:30)   nVeh: -1   H: 480   nTimeSlots: 96   (orig. H: 480, scale: 1.00)
#Vehicles: 5 (""[Q=20,v=1,c=1])
Solution 1 / 137...
CPU time: 0.01	Solution:     (scale: 5.0)
Route  1():	[0;32m[0;34mD000[0;0m - [0;32mD000[0;0m 
Route  2():	[0;32m[0;34mD000[0;0m - [0;32mD000[0;0m 
Route  3():	[0;32m[0;34mD000[0;0m - [0;32mD000[0;0m 
Route  4():	[0;32m[0;34mD000[0;0m - [0;32mD000[0;0m 
Route  5():	[0;32m[0;34mD000[0;0m - [0;32mD000[0;0m 
Cost: 			98.31
Cost R+: 		98.31
Cost Scale 1: 		98.31
Cost R+ Scale 1: 	98.31

Solution 2 / 137...
CPU time: 0.63	Solution:     (scale: 5.0)
Route  1():	[0;32m[0;34mD000[0;0m - [0;32mD000[0;0m 
Route  2():	[0;32m[0;34mD000[0;0m - [0;32mD000[0;0m 
Route  3():	[0;32m[0;34mD000[0;0m - [0;32mD000[0;0m 
Route  4():	[0;32m[0;34mD000[0;0m - [0;32mD000[0;0m 
Route  5():	[0;32m[0;34mD000[0;0m - [0;32mW022[0;0m[12.00] - [0;32mD000[0;0m 
Cost: 			97.3888
Cost R+: 		97.2019
Cost Scale 1: 		97.02
Cost R+ Scale 1: 	96.7193

Solution 3 / 137...
CPU time: 1.7	Solution:     (scale: 5.0)
Route  1():	[0;32m[0;34mD000[0;0m - [0;32mD000[0;0m 
Route  2():	[0;32m[0;34mD000[0;0m - [0;32mD000[0;0m 
Route  3():	[0;32m[0;34mD000[0;0m - [0;32mW014[0;0m[12.00] - [0;32mD000[0;0m 
Route  4():	[0;32m[0;34mD000[0;0m - [0;32mD000[0;0m 
Route  5():	[0;32m[0;34mD000[0;0m - [0;32mD000[0;0m 
Cost: 			96.9663
Cost R+: 		96.635
Cost Scale 1: 		96.5517
Cost R+ Scale 1: 	96.1366

Solution 4 / 137...
CPU time: 2.07	Solution:     (scale: 5.0)
Route  1():	[0;32m[0;34mD000[0;0m - [0;32mD000[0;0m 
Route  2():	[0;32m[0;34mD000[0;0m - [0;32mD000[0;0m 
Route  3():	[0;32m[0;34mD000[0;0m - [0;32mW014[0;0m[18.00] - [0;32mD000[0;0m 
Route  4():	[0;32m[0;34mD000[0;0m - [0;32mD000[0;0m 
Route  5():	[0;32m[0;34mD000[0;0m - [0;32mD000[0;0m 
Cost: 			96.2469
Cost R+: 		95.7217
Cost Scale 1: 		95.4406
Cost R+ Scale 1: 	94.7269

Solution 5 / 137...
CPU time: 4.44	Solution:     (scale: 5.0)
Route  1():	[0;32m[0;34mD000[0;0m - [0;32mD000[0;0m 
Route  2():	[0;32m[0;34mD000[0;0m - [0;32mD000[0;0m 
Route  3():	[0;32m[0;34mD000[0;0m - [0;32mD000[0;0m 
Route  4():	[0;32m[0;34mD000[0;0m - [0;32mD000[0;0m 
Route  5():	[0;32m[0;34mD000[0;0m - [0;32mW029[0;0m[34.00] - [0;32mD000[0;0m 
Cost: 			94.1019
Cost R+: 		92.6186
Cost Scale 1: 		92.6936
Cost R+ Scale 1: 	90.4217

Solution 6 / 137...
CPU time: 6.35	Solution:     (scale: 5.0)
Route  1():	[0;32m[0;34mD000[0;0m - [0;32mD000[0;0m 
Route  2():	[0;32m[0;34mD000[0;0m - [0;32mD000[0;0m 
Route  3():	[0;32m[0;34mD000[0;0m - [0;32mD000[0;0m 
Route  4():	[0;32m[0;34mD000[0;0m - [0;32mD000[0;0m 
Route  5():	[0;32m[0;34mD000[0;0m - [0;32mW029[0;0m[46.00] - [0;32mD000[0;0m 
Cost: 			92.315
Cost R+: 		90.1157
Cost Scale 1: 		90.2687
Cost R+ Scale 1: 	87.037

Solution 7 / 137...
CPU time: 11.95	Solution:     (scale: 5.0)
Route  1():	[0;32m[0;34mD000[0;0m - [0;32mD000[0;0m 
Route  2():	[0;32m[0;34mD000[0;0m - [0;32mD000[0;0m 
Route  3():	[0;32m[0;34mD000[0;0m - [0;32mD000[0;0m 
Route  4():	[0;32m[0;34mD000[0;0m - [0;32mD000[0;0m 
Route  5():	[0;32m[0;34mD000[0;0m - [0;32mW029[0;0m[54.00] - [0;32mD000[0;0m 
Cost: 			90.8603
Cost R+: 		88.0655
Cost Scale 1: 		88.1209
Cost R+ Scale 1: 	84.2993

Solution 8 / 137...
CPU time: 18.67	Solution:     (scale: 5.0)
Route  1():	[0;32m[0;34mD000[0;0m - [0;32mD000[0;0m 
Route  2():	[0;32m[0;34mD000[0;0m - [0;32mD000[0;0m 
Route  3():	[0;32m[0;34mD000[0;0m - [0;32mW014[0;0m[6.00] - [0;32mD000[0;0m 
Route  4():	[0;32m[0;34mD000[0;0m - [0;32mW022[0;0m[30.00] - [0;32mW026[0;0m[30.00] - [0;32mD000[0;0m 
Route  5():	[0;32m[0;34mD000[0;0m - [0;32mD000[0;0m 
Cost: 			90.6839
Cost R+: 		88.4063
Cost Scale 1: 		88.2374
Cost R+ Scale 1: 	84.3154

Solution 9 / 137...
CPU time: 19.2	Solution:     (scale: 5.0)
Route  1():	[0;32m[0;34mD000[0;0m - [0;32mD000[0;0m 
Route  2():	[0;32m[0;34mD000[0;0m - [0;32mW023[0;0m[12.00] - [0;32mD000[0;0m 
Route  3():	[0;32m[0;34mD000[0;0m - [0;32mD000[0;0m 
Route  4():	[0;32m[0;34mD000[0;0m - [0;32mW022[0;0m[30.00] - [0;32mW026[0;0m[30.00] - [0;32mD000[0;0m 
Route  5():	[0;32m[0;34mD000[0;0m - [0;32mD000[0;0m 
Cost: 			90.4237
Cost R+: 		88.1397
Cost Scale 1: 		88.053
Cost R+ Scale 1: 	84.2012

Solution 10 / 137...
CPU time: 20.99	Solution:     (scale: 5.0)
Route  1():	[0;32m[0;34mD000[0;0m - [0;32mD000[0;0m 
Route  2():	[0;32m[0;34mD000[0;0m - [0;32mW023[0;0m[32.00] - [0;32mD000[0;0m 
Route  3():	[0;32m[0;34mD000[0;0m - [0;32mD000[0;0m 
Route  4():	[0;32m[0;34mD000[0;0m - [0;32mW026[0;0m[30.00] - [0;32mW022[0;0m[26.00] - [0;32mD000[0;0m 
Route  5():	[0;32m[0;34mD000[0;0m - [0;32mD000[0;0m 
Cost: 			89.7175
Cost R+: 		87.8344
Cost Scale 1: 		86.9759
Cost R+ Scale 1: 	83.61

Solution 11 / 137...
CPU time: 22.06	Solution:     (scale: 5.0)
Route  1():	[0;32m[0;34mD000[0;0m - [0;32mD000[0;0m 
Route  2():	[0;32m[0;34mD000[0;0m - [0;32mW023[0;0m[32.00] - [0;32mD000[0;0m 
Route  3():	[0;32m[0;34mD000[0;0m - [0;32mD000[0;0m 
Route  4():	[0;32m[0;34mD000[0;0m - [0;32mW026[0;0m[8.00] - [0;32mW022[0;0m[48.00] - [0;32mD000[0;0m 
Route  5():	[0;32m[0;34mD000[0;0m - [0;32mW029[0;0m[12.00] - [0;32mD000[0;0m 
Cost: 			89.1442
Cost R+: 		87.2934
Cost Scale 1: 		86.4838
Cost R+ Scale 1: 	83.0119

Solution 12 / 137...
CPU time: 23.31	Solution:     (scale: 5.0)
Route  1():	[0;32m[0;34mD000[0;0m - [0;32mD000[0;0m 
Route  2():	[0;32m[0;34mD000[0;0m - [0;32mW023[0;0m[32.00] - [0;32mD000[0;0m 
Route  3():	[0;32m[0;34mD000[0;0m - [0;32mD000[0;0m 
Route  4():	[0;32m[0;34mD000[0;0m - [0;32mW022[0;0m[48.00] - [0;32mW026[0;0m[8.00] - [0;32mD000[0;0m 
Route  5():	[0;32m[0;34mD000[0;0m - [0;32mW029[0;0m[12.00] - [0;32mD000[0;0m 
Cost: 			89.1358
Cost R+: 		87.2828
Cost Scale 1: 		86.4653
Cost R+ Scale 1: 	82.981

Solution 13 / 137...
CPU time: 25.87	Solution:     (scale: 5.0)
Route  1():	[0;32m[0;34mD000[0;0m - [0;32mD000[0;0m 
Route  2():	[0;32m[0;34mD000[0;0m - [0;32mW023[0;0m[32.00] - [0;32mD000[0;0m 
Route  3():	[0;32m[0;34mD000[0;0m - [0;32mW012[0;0m[24.00] - [0;32mD000[0;0m 
Route  4():	[0;32m[0;34mD000[0;0m - [0;32mW026[0;0m[6.00] - [0;32mW022[0;0m[48.00] - [0;32mD000[0;0m 
Route  5():	[0;32m[0;34mD000[0;0m - [0;32mD000[0;0m 
Cost: 			89.0243
Cost R+: 		87.0904
Cost Scale 1: 		85.6441
Cost R+ Scale 1: 	81.9092

Solution 14 / 137...
CPU time: 27.74	Solution:     (scale: 5.0)
Route  1():	[0;32m[0;34mD000[0;0m - [0;32mD000[0;0m 
Route  2():	[0;32m[0;34mD000[0;0m - [0;32mW023[0;0m[42.00] - [0;32mD000[0;0m 
Route  3():	[0;32m[0;34mD000[0;0m - [0;32mD000[0;0m 
Route  4():	[0;32m[0;34mD000[0;0m - [0;32mW022[0;0m[24.00] - [0;32mW026[0;0m[30.00] - [0;32mD000[0;0m 
Route  5():	[0;32m[0;34mD000[0;0m - [0;32mW019[0;0m[12.00] - [0;32mD000[0;0m 
Cost: 			88.7536
Cost R+: 		86.6646
Cost Scale 1: 		86.0688
Cost R+ Scale 1: 	82.3775

Solution 15 / 137...
CPU time: 28.2	Solution:     (scale: 5.0)
Route  1():	[0;32m[0;34mD000[0;0m - [0;32mD000[0;0m 
Route  2():	[0;32m[0;34mD000[0;0m - [0;32mW023[0;0m[32.00] - [0;32mD000[0;0m 
Route  3():	[0;32m[0;34mD000[0;0m - [0;32mD000[0;0m 
Route  4():	[0;32m[0;34mD000[0;0m - [0;32mW022[0;0m[24.00] - [0;32mW026[0;0m[40.00] - [0;32mD000[0;0m 
Route  5():	[0;32m[0;34mD000[0;0m - [0;32mW019[0;0m[12.00] - [0;32mD000[0;0m 
Cost: 			87.6535
Cost R+: 		84.9032
Cost Scale 1: 		84.8431
Cost R+ Scale 1: 	80.4085

Solution 16 / 137...
CPU time: 38.93	Solution:     (scale: 5.0)
Route  1():	[0;32m[0;34mD000[0;0m - [0;32mD000[0;0m 
Route  2():	[0;32m[0;34mD000[0;0m - [0;32mW026[0;0m[40.00] - [0;32mD000[0;0m 
Route  3():	[0;32m[0;34mD000[0;0m - [0;32mD000[0;0m 
Route  4():	[0;32m[0;34mD000[0;0m - [0;32mW023[0;0m[32.00] - [0;32mW022[0;0m[36.00] - [0;32mD000[0;0m 
Route  5():	[0;32m[0;34mD000[0;0m - [0;32mW019[0;0m[12.00] - [0;32mD000[0;0m 
Cost: 			86.7682
Cost R+: 		83.9031
Cost Scale 1: 		82.8897
Cost R+ Scale 1: 	77.8932

Solution 17 / 137...
CPU time: 39.46	Solution:     (scale: 5.0)
Route  1():	[0;32m[0;34mD000[0;0m - [0;32mD000[0;0m 
Route  2():	[0;32m[0;34mD000[0;0m - [0;32mW026[0;0m[48.00] - [0;32mD000[0;0m 
Route  3():	[0;32m[0;34mD000[0;0m - [0;32mD000[0;0m 
Route  4():	[0;32m[0;34mD000[0;0m - [0;32mW023[0;0m[32.00] - [0;32mW022[0;0m[36.00] - [0;32mD000[0;0m 
Route  5():	[0;32m[0;34mD000[0;0m - [0;32mW019[0;0m[4.00] - [0;32mD000[0;0m 
Cost: 			86.2546
Cost R+: 		83.2761
Cost Scale 1: 		82.1652
Cost R+ Scale 1: 	76.8385

Solution 18 / 137...
CPU time: 39.98	Solution:     (scale: 5.0)
Route  1():	[0;32m[0;34mD000[0;0m - [0;32mD000[0;0m 
Route  2():	[0;32m[0;34mD000[0;0m - [0;32mW026[0;0m[48.00] - [0;32mD000[0;0m 
Route  3():	[0;32m[0;34mD000[0;0m - [0;32mW027[0;0m[12.00] - [0;32mD000[0;0m 
Route  4():	[0;32m[0;34mD000[0;0m - [0;32mW023[0;0m[32.00] - [0;32mW022[0;0m[36.00] - [0;32mD000[0;0m 
Route  5():	[0;32m[0;34mD000[0;0m - [0;32mW019[0;0m[4.00] - [0;32mD000[0;0m 
Cost: 			86.1158
Cost R+: 		83.1374
Cost Scale 1: 		81.6421
Cost R+ Scale 1: 	76.2929

Solution 19 / 137...
CPU time: 41.51	Solution:     (scale: 5.0)
Route  1():	[0;32m[0;34mD000[0;0m - [0;32mD000[0;0m 
Route  2():	[0;32m[0;34mD000[0;0m - [0;32mW026[0;0m[48.00] - [0;32mD000[0;0m 
Route  3():	[0;32m[0;34mD000[0;0m - [0;32mD000[0;0m 
Route  4():	[0;32m[0;34mD000[0;0m - [0;32mW023[0;0m[32.00] - [0;32mW022[0;0m[36.00] - [0;32mD000[0;0m 
Route  5():	[0;32m[0;34mD000[0;0m - [0;32mW019[0;0m[4.00] - [0;32mW027[0;0m[14.00] - [0;32mD000[0;0m 
Cost: 			86.0438
Cost R+: 		83.0586
Cost Scale 1: 		81.8468
Cost R+ Scale 1: 	76.5159

Solution 20 / 137...
CPU time: 42.69	Solution:     (scale: 5.0)
Route  1():	[0;32m[0;34mD000[0;0m - [0;32mW030[0;0m[12.00] - [0;32mD000[0;0m 
Route  2():	[0;32m[0;34mD000[0;0m - [0;32mW026[0;0m[48.00] - [0;32mD000[0;0m 
Route  3():	[0;32m[0;34mD000[0;0m - [0;32mD000[0;0m 
Route  4():	[0;32m[0;34mD000[0;0m - [0;32mW023[0;0m[32.00] - [0;32mW022[0;0m[36.00] - [0;32mD000[0;0m 
Route  5():	[0;32m[0;34mD000[0;0m - [0;32mW019[0;0m[4.00] - [0;32mW027[0;0m[14.00] - [0;32mD000[0;0m 
Cost: 			84.9066
Cost R+: 		81.6989
Cost Scale 1: 		80.451
Cost R+ Scale 1: 	74.8722

Solution 21 / 137...
CPU time: 44.64	Solution:     (scale: 5.0)
Route  1():	[0;32m[0;34mD000[0;0m - [0;32mW030[0;0m[12.00] - [0;32mW019[0;0m[2.00] - [0;32mD000[0;0m 
Route  2():	[0;32m[0;34mD000[0;0m - [0;32mW026[0;0m[48.00] - [0;32mD000[0;0m 
Route  3():	[0;32m[0;34mD000[0;0m - [0;32mD000[0;0m 
Route  4():	[0;32m[0;34mD000[0;0m - [0;32mW023[0;0m[32.00] - [0;32mW022[0;0m[36.00] - [0;32mD000[0;0m 
Route  5():	[0;32m[0;34mD000[0;0m - [0;32mW027[0;0m[26.00] - [0;32mD000[0;0m 
Cost: 			84.8765
Cost R+: 		81.6682
Cost Scale 1: 		80.1887
Cost R+ Scale 1: 	74.5811

Solution 22 / 137...
CPU time: 45.23	Solution:     (scale: 5.0)
Route  1():	[0;32m[0;34mD000[0;0m - [0;32mW030[0;0m[12.00] - [0;32mW019[0;0m[2.00] - [0;32mD000[0;0m 
Route  2():	[0;32m[0;34mD000[0;0m - [0;32mW026[0;0m[58.00] - [0;32mD000[0;0m 
Route  3():	[0;32m[0;34mD000[0;0m - [0;32mD000[0;0m 
Route  4():	[0;32m[0;34mD000[0;0m - [0;32mW023[0;0m[32.00] - [0;32mW022[0;0m[36.00] - [0;32mD000[0;0m 
Route  5():	[0;32m[0;34mD000[0;0m - [0;32mW027[0;0m[16.00] - [0;32mD000[0;0m 
Cost: 			83.9387
Cost R+: 		80.5111
Cost Scale 1: 		78.885
Cost R+ Scale 1: 	72.8339

Solution 23 / 137...
CPU time: 46.19	Solution:     (scale: 5.0)
Route  1():	[0;32m[0;34mD000[0;0m - [0;32mW030[0;0m[12.00] - [0;32mW013[0;0m[12.00] - [0;32mW019[0;0m[2.00] - [0;32mD000[0;0m 
Route  2():	[0;32m[0;34mD000[0;0m - [0;32mW026[0;0m[58.00] - [0;32mD000[0;0m 
Route  3():	[0;32m[0;34mD000[0;0m - [0;32mD000[0;0m 
Route  4():	[0;32m[0;34mD000[0;0m - [0;32mW023[0;0m[32.00] - [0;32mW022[0;0m[36.00] - [0;32mD000[0;0m 
Route  5():	[0;32m[0;34mD000[0;0m - [0;32mW027[0;0m[16.00] - [0;32mD000[0;0m 
Cost: 			83.4035
Cost R+: 		79.958
Cost Scale 1: 		78.0085
Cost R+ Scale 1: 	72.0455

Solution 24 / 137...
CPU time: 48.97	Solution:     (scale: 5.0)
Route  1():	[0;32m[0;34mD000[0;0m - [0;32mW023[0;0m[32.00] - [0;32mW030[0;0m[12.00] - [0;32mW019[0;0m[2.00] - [0;32mW013[0;0m[12.00] - [0;32mD000[0;0m 
Route  2():	[0;32m[0;34mD000[0;0m - [0;32mW026[0;0m[70.00] - [0;32mD000[0;0m 
Route  3():	[0;32m[0;34mD000[0;0m - [0;32mD000[0;0m 
Route  4():	[0;32m[0;34mD000[0;0m - [0;32mW022[0;0m[36.00] - [0;32mD000[0;0m 
Route  5():	[0;32m[0;34mD000[0;0m - [0;32mW027[0;0m[16.00] - [0;32mD000[0;0m 
Cost: 			82.3616
Cost R+: 		78.6421
Cost Scale 1: 		76.8409
Cost R+ Scale 1: 	70.5913

Solution 25 / 137...
CPU time: 51.07	Solution:     (scale: 5.0)
Route  1():	[0;32m[0;34mD000[0;0m - [0;32mW023[0;0m[32.00] - [0;32mW019[0;0m[2.00] - [0;32mW013[0;0m[12.00] - [0;32mD000[0;0m 
Route  2():	[0;32m[0;34mD000[0;0m - [0;32mW026[0;0m[82.00] - [0;32mD000[0;0m 
Route  3():	[0;32m[0;34mD000[0;0m - [0;32mD000[0;0m 
Route  4():	[0;32m[0;34mD000[0;0m - [0;32mW029[0;0m[12.00] - [0;32mW022[0;0m[24.00] - [0;32mD000[0;0m 
Route  5():	[0;32m[0;34mD000[0;0m - [0;32mW027[0;0m[16.00] - [0;32mD000[0;0m 
Cost: 			81.9315
Cost R+: 		78.053
Cost Scale 1: 		76.0819
Cost R+ Scale 1: 	69.3184

Solution 26 / 137...
CPU time: 51.95	Solution:     (scale: 5.0)
Route  1():	[0;32m[0;34mD000[0;0m - [0;32mW023[0;0m[32.00] - [0;32mW019[0;0m[2.00] - [0;32mW013[0;0m[12.00] - [0;32mD000[0;0m 
Route  2():	[0;32m[0;34mD000[0;0m - [0;32mW026[0;0m[82.00] - [0;32mD000[0;0m 
Route  3():	[0;32m[0;34mD000[0;0m - [0;32mD000[0;0m 
Route  4():	[0;32m[0;34mD000[0;0m - [0;32mW022[0;0m[24.00] - [0;32mW029[0;0m[12.00] - [0;32mD000[0;0m 
Route  5():	[0;32m[0;34mD000[0;0m - [0;32mW027[0;0m[16.00] - [0;32mD000[0;0m 
Cost: 			81.7502
Cost R+: 		77.7616
Cost Scale 1: 		75.5358
Cost R+ Scale 1: 	68.9304

Solution 27 / 137...
CPU time: 53.29	Solution:     (scale: 5.0)
Route  1():	[0;32m[0;34mD000[0;0m - [0;32mW023[0;0m[32.00] - [0;32mW022[0;0m[24.00] - [0;32mD000[0;0m 
Route  2():	[0;32m[0;34mD000[0;0m - [0;32mW026[0;0m[82.00] - [0;32mD000[0;0m 
Route  3():	[0;32m[0;34mD000[0;0m - [0;32mD000[0;0m 
Route  4():	[0;32m[0;34mD000[0;0m - [0;32mW019[0;0m[2.00] - [0;32mW013[0;0m[12.00] - [0;32mW029[0;0m[12.00] - [0;32mD000[0;0m 
Route  5():	[0;32m[0;34mD000[0;0m - [0;32mW027[0;0m[16.00] - [0;32mD000[0;0m 
Cost: 			81.5298
Cost R+: 		77.5628
Cost Scale 1: 		76.0248
Cost R+ Scale 1: 	69.6424

Solution 28 / 137...
CPU time: 53.46	Solution:     (scale: 5.0)
Route  1():	[0;32m[0;34mD000[0;0m - [0;32mW023[0;0m[32.00] - [0;32mW022[0;0m[24.00] - [0;32mD000[0;0m 
Route  2():	[0;32m[0;34mD000[0;0m - [0;32mW026[0;0m[82.00] - [0;32mD000[0;0m 
Route  3():	[0;32m[0;34mD000[0;0m - [0;32mD000[0;0m 
Route  4():	[0;32m[0;34mD000[0;0m - [0;32mW019[0;0m[2.00] - [0;32mW013[0;0m[12.00] - [0;32mW029[0;0m[12.00] - [0;32mD000[0;0m 
Route  5():	[0;32m[0;34mD000[0;0m - [0;32mW027[0;0m[20.00] - [0;32mD000[0;0m 
Cost: 			81.5202
Cost R+: 		77.5528
Cost Scale 1: 		76.0148
Cost R+ Scale 1: 	69.6324

Solution 29 / 137...
CPU time: 60.46	Solution:     (scale: 5.0)
Route  1():	[0;32m[0;34mD000[0;0m - [0;32mW023[0;0m[32.00] - [0;32mW029[0;0m[12.00] - [0;32mD000[0;0m 
Route  2():	[0;32m[0;34mD000[0;0m - [0;32mW005[0;0m[12.00] - [0;32mW026[0;0m[70.00] - [0;32mD000[0;0m 
Route  3():	[0;32m[0;34mD000[0;0m - [0;32mD000[0;0m 
Route  4():	[0;32m[0;34mD000[0;0m - [0;32mW027[0;0m[20.00] - [0;32mW022[0;0m[34.00] - [0;32mW013[0;0m[12.00] - [0;32mD000[0;0m 
Route  5():	[0;32m[0;34mD000[0;0m - [0;32mD000[0;0m 
Cost: 			81.4776
Cost R+: 		77.7759
Cost Scale 1: 		74.8593
Cost R+ Scale 1: 	69.0002

Solution 30 / 137...
CPU time: 70.95	Solution:     (scale: 5.0)
Route  1():	[0;32m[0;34mD000[0;0m - [0;32mW023[0;0m[42.00] - [0;32mW010[0;0m[2.00] - [0;32mD000[0;0m 
Route  2():	[0;32m[0;34mD000[0;0m - [0;32mW026[0;0m[70.00] - [0;32mD000[0;0m 
Route  3():	[0;32m[0;34mD000[0;0m - [0;32mW016[0;0m[12.00] - [0;32mD000[0;0m 
Route  4():	[0;32m[0;34mD000[0;0m - [0;32mW027[0;0m[12.00] - [0;32mW029[0;0m[12.00] - [0;32mW022[0;0m[34.00] - [0;32mW013[0;0m[12.00] - [0;32mD000[0;0m 
Route  5():	[0;32m[0;34mD000[0;0m - [0;32mD000[0;0m 
Cost: 			81.1965
Cost R+: 		77.3961
Cost Scale 1: 		75.363
Cost R+ Scale 1: 	68.9781

Solution 31 / 137...
CPU time: 72.02	Solution:     (scale: 5.0)
Route  1():	[0;32m[0;34mD000[0;0m - [0;32mW023[0;0m[42.00] - [0;32mW010[0;0m[2.00] - [0;32mD000[0;0m 
Route  2():	[0;32m[0;34mD000[0;0m - [0;32mW026[0;0m[70.00] - [0;32mW025[0;0m[12.00] - [0;32mD000[0;0m 
Route  3():	[0;32m[0;34mD000[0;0m - [0;32mW016[0;0m[12.00] - [0;32mD000[0;0m 
Route  4():	[0;32m[0;34mD000[0;0m - [0;32mW027[0;0m[12.00] - [0;32mW029[0;0m[12.00] - [0;32mW022[0;0m[34.00] - [0;32mW013[0;0m[12.00] - [0;32mD000[0;0m 
Route  5():	[0;32m[0;34mD000[0;0m - [0;32mD000[0;0m 
Cost: 			80.5912
Cost R+: 		76.7276
Cost Scale 1: 		74.676
Cost R+ Scale 1: 	68.2764

Solution 32 / 137...
CPU time: 74.61	Solution:     (scale: 5.0)
Route  1():	[0;32m[0;34mD000[0;0m - [0;32mW010[0;0m[2.00] - [0;32mW016[0;0m[12.00] - [0;32mD000[0;0m 
Route  2():	[0;32m[0;34mD000[0;0m - [0;32mW026[0;0m[70.00] - [0;32mW025[0;0m[12.00] - [0;32mD000[0;0m 
Route  3():	[0;32m[0;34mD000[0;0m - [0;32mW023[0;0m[64.00] - [0;32mD000[0;0m 
Route  4():	[0;32m[0;34mD000[0;0m - [0;32mW027[0;0m[12.00] - [0;32mW029[0;0m[12.00] - [0;32mW022[0;0m[34.00] - [0;32mW013[0;0m[12.00] - [0;32mD000[0;0m 
Route  5():	[0;32m[0;34mD000[0;0m - [0;32mD000[0;0m 
Cost: 			80.1427
Cost R+: 		76.1945
Cost Scale 1: 		73.712
Cost R+ Scale 1: 	67.1707

Solution 33 / 137...
CPU time: 90.1	Solution:     (scale: 5.0)
Route  1():	[0;32m[0;34mD000[0;0m - [0;32mW013[0;0m[16.00] - [0;32mW010[0;0m[22.00] - [0;32mW016[0;0m[2.00] - [0;32mD000[0;0m 
Route  2():	[0;32m[0;34mD000[0;0m - [0;32mW030[0;0m[12.00] - [0;32mW026[0;0m[66.00] - [0;32mD000[0;0m 
Route  3():	[0;32m[0;34mD000[0;0m - [0;32mW023[0;0m[60.00] - [0;32mD000[0;0m 
Route  4():	[0;32m[0;34mD000[0;0m - [0;32mW027[0;0m[14.00] - [0;32mW022[0;0m[34.00] - [0;32mW029[0;0m[12.00] - [0;32mD000[0;0m 
Route  5():	[0;32m[0;34mD000[0;0m - [0;32mW018[0;0m[8.00] - [0;32mD000[0;0m 
Cost: 			79.0912
Cost R+: 		75.0361
Cost Scale 1: 		72.3274
Cost R+ Scale 1: 	65.6905

Solution 34 / 137...
CPU time: 90.78	Solution:     (scale: 5.0)
Route  1():	[0;32m[0;34mD000[0;0m - [0;32mW013[0;0m[16.00] - [0;32mW022[0;0m[34.00] - [0;32mD000[0;0m 
Route  2():	[0;32m[0;34mD000[0;0m - [0;32mW030[0;0m[12.00] - [0;32mW026[0;0m[66.00] - [0;32mD000[0;0m 
Route  3():	[0;32m[0;34mD000[0;0m - [0;32mW023[0;0m[60.00] - [0;32mD000[0;0m 
Route  4():	[0;32m[0;34mD000[0;0m - [0;32mW027[0;0m[14.00] - [0;32mW010[0;0m[22.00] - [0;32mW016[0;0m[2.00] - [0;32mW029[0;0m[12.00] - [0;32mD000[0;0m 
Route  5():	[0;32m[0;34mD000[0;0m - [0;32mW018[0;0m[8.00] - [0;32mD000[0;0m 
Cost: 			78.4653
Cost R+: 		74.0012
Cost Scale 1: 		72.0596
Cost R+ Scale 1: 	65.5397

Solution 35 / 137...
CPU time: 91.62	Solution:     (scale: 5.0)
Route  1():	[0;32m[0;34mD000[0;0m - [0;32mW013[0;0m[22.00] - [0;32mW022[0;0m[34.00] - [0;32mD000[0;0m 
Route  2():	[0;32m[0;34mD000[0;0m - [0;32mW030[0;0m[12.00] - [0;32mW026[0;0m[66.00] - [0;32mD000[0;0m 
Route  3():	[0;32m[0;34mD000[0;0m - [0;32mW023[0;0m[60.00] - [0;32mD000[0;0m 
Route  4():	[0;32m[0;34mD000[0;0m - [0;32mW027[0;0m[14.00] - [0;32mW010[0;0m[22.00] - [0;32mW016[0;0m[2.00] - [0;32mW029[0;0m[12.00] - [0;32mD000[0;0m 
Route  5():	[0;32m[0;34mD000[0;0m - [0;32mW018[0;0m[2.00] - [0;32mD000[0;0m 
Cost: 			78.2536
Cost R+: 		73.7252
Cost Scale 1: 		71.7354
Cost R+ Scale 1: 	65.4269

Solution 36 / 137...
CPU time: 95.6	Solution:     (scale: 5.0)
Route  1():	[0;32m[0;34mD000[0;0m - [0;32mW013[0;0m[22.00] - [0;32mW022[0;0m[34.00] - [0;32mD000[0;0m 
Route  2():	[0;32m[0;34mD000[0;0m - [0;32mW030[0;0m[12.00] - [0;32mW026[0;0m[66.00] - [0;32mD000[0;0m 
Route  3():	[0;32m[0;34mD000[0;0m - [0;32mW023[0;0m[48.00] - [0;32mD000[0;0m 
Route  4():	[0;32m[0;34mD000[0;0m - [0;32mW027[0;0m[14.00] - [0;32mW010[0;0m[22.00] - [0;32mW012[0;0m[12.00] - [0;32mW016[0;0m[12.00] - [0;32mW029[0;0m[12.00] - [0;32mD000[0;0m 
Route  5():	[0;32m[0;34mD000[0;0m - [0;32mW018[0;0m[2.00] - [0;32mD000[0;0m 
Cost: 			77.7282
Cost R+: 		73.4159
Cost Scale 1: 		71.3485
Cost R+ Scale 1: 	64.7106

Solution 37 / 137...
CPU time: 96.5	Solution:     (scale: 5.0)
Route  1():	[0;32m[0;34mD000[0;0m - [0;32mW013[0;0m[22.00] - [0;32mW022[0;0m[34.00] - [0;32mD000[0;0m 
Route  2():	[0;32m[0;34mD000[0;0m - [0;32mW030[0;0m[12.00] - [0;32mW026[0;0m[66.00] - [0;32mD000[0;0m 
Route  3():	[0;32m[0;34mD000[0;0m - [0;32mW023[0;0m[48.00] - [0;32mD000[0;0m 
Route  4():	[0;32m[0;34mD000[0;0m - [0;32mW027[0;0m[14.00] - [0;32mW010[0;0m[22.00] - [0;32mW012[0;0m[12.00] - [0;32mW029[0;0m[12.00] - [0;32mD000[0;0m 
Route  5():	[0;32m[0;34mD000[0;0m - [0;32mW018[0;0m[2.00] - [0;32mW016[0;0m[12.00] - [0;32mD000[0;0m 
Cost: 			77.3258
Cost R+: 		72.9074
Cost Scale 1: 		70.2034
Cost R+ Scale 1: 	63.9372

Solution 38 / 137...
CPU time: 97.48	Solution:     (scale: 5.0)
Route  1():	[0;32m[0;34mD000[0;0m - [0;32mW013[0;0m[46.00] - [0;32mW022[0;0m[34.00] - [0;32mD000[0;0m 
Route  2():	[0;32m[0;34mD000[0;0m - [0;32mW030[0;0m[12.00] - [0;32mW026[0;0m[66.00] - [0;32mD000[0;0m 
Route  3():	[0;32m[0;34mD000[0;0m - [0;32mW023[0;0m[48.00] - [0;32mD000[0;0m 
Route  4():	[0;32m[0;34mD000[0;0m - [0;32mW027[0;0m[14.00] - [0;32mW010[0;0m[22.00] - [0;32mW012[0;0m[12.00] - [0;32mW029[0;0m[12.00] - [0;32mD000[0;0m 
Route  5():	[0;32m[0;34mD000[0;0m - [0;32mW018[0;0m[2.00] - [0;32mW016[0;0m[12.00] - [0;32mD000[0;0m 
Cost: 			76.9048
Cost R+: 		72.5109
Cost Scale 1: 		69.5198
Cost R+ Scale 1: 	63.9061

Solution 39 / 137...
CPU time: 98.34	Solution:     (scale: 5.0)
Route  1():	[0;32m[0;34mD000[0;0m - [0;32mW013[0;0m[30.00] - [0;32mW022[0;0m[34.00] - [0;32mD000[0;0m 
Route  2():	[0;32m[0;34mD000[0;0m - [0;32mW030[0;0m[12.00] - [0;32mW026[0;0m[66.00] - [0;32mD000[0;0m 
Route  3():	[0;32m[0;34mD000[0;0m - [0;32mW023[0;0m[64.00] - [0;32mD000[0;0m 
Route  4():	[0;32m[0;34mD000[0;0m - [0;32mW027[0;0m[14.00] - [0;32mW010[0;0m[22.00] - [0;32mW012[0;0m[12.00] - [0;32mW029[0;0m[12.00] - [0;32mD000[0;0m 
Route  5():	[0;32m[0;34mD000[0;0m - [0;32mW018[0;0m[2.00] - [0;32mW016[0;0m[12.00] - [0;32mD000[0;0m 
Cost: 			76.7871
Cost R+: 		72.2457
Cost Scale 1: 		69.3288
Cost R+ Scale 1: 	63.1894

Solution 40 / 137...
CPU time: 99.32	Solution:     (scale: 5.0)
Route  1():	[0;32m[0;34mD000[0;0m - [0;32mW013[0;0m[30.00] - [0;32mW022[0;0m[34.00] - [0;32mW028[0;0m[12.00] - [0;32mD000[0;0m 
Route  2():	[0;32m[0;34mD000[0;0m - [0;32mW030[0;0m[12.00] - [0;32mW026[0;0m[66.00] - [0;32mD000[0;0m 
Route  3():	[0;32m[0;34mD000[0;0m - [0;32mW023[0;0m[64.00] - [0;32mD000[0;0m 
Route  4():	[0;32m[0;34mD000[0;0m - [0;32mW027[0;0m[14.00] - [0;32mW010[0;0m[22.00] - [0;32mW012[0;0m[12.00] - [0;32mW029[0;0m[12.00] - [0;32mD000[0;0m 
Route  5():	[0;32m[0;34mD000[0;0m - [0;32mW018[0;0m[2.00] - [0;32mW016[0;0m[12.00] - [0;32mD000[0;0m 
Cost: 			76.1453
Cost R+: 		71.6518
Cost Scale 1: 		68.1312
Cost R+ Scale 1: 	62.2228

Solution 41 / 137...
CPU time: 101.28	Solution:     (scale: 5.0)
Route  1():	[0;32m[0;34mD000[0;0m - [0;32mW013[0;0m[30.00] - [0;32mW028[0;0m[12.00] - [0;32mW022[0;0m[34.00] - [0;32mD000[0;0m 
Route  2():	[0;32m[0;34mD000[0;0m - [0;32mW030[0;0m[12.00] - [0;32mW026[0;0m[66.00] - [0;32mD000[0;0m 
Route  3():	[0;32m[0;34mD000[0;0m - [0;32mW023[0;0m[64.00] - [0;32mD000[0;0m 
Route  4():	[0;32m[0;34mD000[0;0m - [0;32mW027[0;0m[14.00] - [0;32mW010[0;0m[22.00] - [0;32mW012[0;0m[12.00] - [0;32mW029[0;0m[12.00] - [0;32mD000[0;0m 
Route  5():	[0;32m[0;34mD000[0;0m - [0;32mW018[0;0m[2.00] - [0;32mW016[0;0m[12.00] - [0;32mD000[0;0m 
Cost: 			75.8076
Cost R+: 		71.2968
Cost Scale 1: 		68.045
Cost R+ Scale 1: 	62.1565

Solution 42 / 137...
CPU time: 103.57	Solution:     (scale: 5.0)
Route  1():	[0;32m[0;34mD000[0;0m - [0;32mW013[0;0m[30.00] - [0;32mW028[0;0m[12.00] - [0;32mW022[0;0m[34.00] - [0;32mD000[0;0m 
Route  2():	[0;32m[0;34mD000[0;0m - [0;32mW030[0;0m[12.00] - [0;32mW026[0;0m[66.00] - [0;32mD000[0;0m 
Route  3():	[0;32m[0;34mD000[0;0m - [0;32mW023[0;0m[64.00] - [0;32mD000[0;0m 
Route  4():	[0;32m[0;34mD000[0;0m - [0;32mW027[0;0m[14.00] - [0;32mW010[0;0m[22.00] - [0;32mW012[0;0m[12.00] - [0;32mW029[0;0m[12.00] - [0;32mD000[0;0m 
Route  5():	[0;32m[0;34mD000[0;0m - [0;32mW018[0;0m[2.00] - [0;32mW016[0;0m[12.00] - [0;32mW007[0;0m[12.00] - [0;32mD000[0;0m 
Cost: 			75.5829
Cost R+: 		71.0514
Cost Scale 1: 		67.7531
Cost R+ Scale 1: 	61.8808

Solution 43 / 137...
CPU time: 105.27	Solution:     (scale: 5.0)
Route  1():	[0;32m[0;34mD000[0;0m - [0;32mW013[0;0m[30.00] - [0;32mW028[0;0m[12.00] - [0;32mW022[0;0m[34.00] - [0;32mD000[0;0m 
Route  2():	[0;32m[0;34mD000[0;0m - [0;32mW027[0;0m[14.00] - [0;32mW026[0;0m[66.00] - [0;32mD000[0;0m 
Route  3():	[0;32m[0;34mD000[0;0m - [0;32mW023[0;0m[64.00] - [0;32mD000[0;0m 
Route  4():	[0;32m[0;34mD000[0;0m - [0;32mW030[0;0m[12.00] - [0;32mW010[0;0m[22.00] - [0;32mW012[0;0m[12.00] - [0;32mW029[0;0m[12.00] - [0;32mD000[0;0m 
Route  5():	[0;32m[0;34mD000[0;0m - [0;32mW018[0;0m[2.00] - [0;32mW016[0;0m[12.00] - [0;32mW007[0;0m[12.00] - [0;32mD000[0;0m 
Cost: 			75.3756
Cost R+: 		70.7727
Cost Scale 1: 		67.4062
Cost R+ Scale 1: 	61.4279

Solution 44 / 137...
CPU time: 106.28	Solution:     (scale: 5.0)
Route  1():	[0;32m[0;34mD000[0;0m - [0;32mW013[0;0m[30.00] - [0;32mW028[0;0m[12.00] - [0;32mW022[0;0m[34.00] - [0;32mD000[0;0m 
Route  2():	[0;32m[0;34mD000[0;0m - [0;32mW027[0;0m[14.00] - [0;32mW026[0;0m[66.00] - [0;32mD000[0;0m 
Route  3():	[0;32m[0;34mD000[0;0m - [0;32mW023[0;0m[64.00] - [0;32mW011[0;0m[12.00] - [0;32mD000[0;0m 
Route  4():	[0;32m[0;34mD000[0;0m - [0;32mW030[0;0m[12.00] - [0;32mW010[0;0m[22.00] - [0;32mW012[0;0m[12.00] - [0;32mW029[0;0m[12.00] - [0;32mD000[0;0m 
Route  5():	[0;32m[0;34mD000[0;0m - [0;32mW018[0;0m[2.00] - [0;32mW016[0;0m[22.00] - [0;32mW007[0;0m[12.00] - [0;32mD000[0;0m 
Cost: 			75.1282
Cost R+: 		70.5478
Cost Scale 1: 		66.2614
Cost R+ Scale 1: 	60.1546

Solution 45 / 137...
CPU time: 128.56	Solution:     (scale: 5.0)
Route  1():	[0;32m[0;34mD000[0;0m - [0;32mW030[0;0m[12.00] - [0;32mW017[0;0m[12.00] - [0;32mW012[0;0m[12.00] - [0;32mW022[0;0m[34.00] - [0;32mD000[0;0m 
Route  2():	[0;32m[0;34mD000[0;0m - [0;32mW026[0;0m[82.00] - [0;32mD000[0;0m 
Route  3():	[0;32m[0;34mD000[0;0m - [0;32mW011[0;0m[2.00] - [0;32mW023[0;0m[64.00] - [0;32mD000[0;0m 
Route  4():	[0;32m[0;34mD000[0;0m - [0;32mW013[0;0m[30.00] - [0;32mW028[0;0m[12.00] - [0;32mW029[0;0m[6.00] - [0;32mW010[0;0m[22.00] - [0;32mD000[0;0m 
Route  5():	[0;32m[0;34mD000[0;0m - [0;32mW007[0;0m[10.00] - [0;32mW016[0;0m[36.00] - [0;32mW002[0;0m[20.00] - [0;32mW018[0;0m[2.00] - [0;32mD000[0;0m 
Cost: 			75.0333
Cost R+: 		70.8244
Cost Scale 1: 		66.5377
Cost R+ Scale 1: 	60.205

Solution 46 / 137...
CPU time: 144.53	Solution:     (scale: 5.0)
Route  1():	[0;32m[0;34mD000[0;0m - [0;32mW030[0;0m[12.00] - [0;32mW017[0;0m[12.00] - [0;32mW022[0;0m[14.00] - [0;32mW012[0;0m[32.00] - [0;32mD000[0;0m 
Route  2():	[0;32m[0;34mD000[0;0m - [0;32mW026[0;0m[82.00] - [0;32mD000[0;0m 
Route  3():	[0;32m[0;34mD000[0;0m - [0;32mW011[0;0m[2.00] - [0;32mW023[0;0m[64.00] - [0;32mD000[0;0m 
Route  4():	[0;32m[0;34mD000[0;0m - [0;32mW028[0;0m[16.00] - [0;32mW016[0;0m[32.00] - [0;32mW013[0;0m[30.00] - [0;32mD000[0;0m 
Route  5():	[0;32m[0;34mD000[0;0m - [0;32mW029[0;0m[2.00] - [0;32mW010[0;0m[22.00] - [0;32mW002[0;0m[20.00] - [0;32mW018[0;0m[2.00] - [0;32mD000[0;0m 
Cost: 			73.2765
Cost R+: 		68.3665
Cost Scale 1: 		63.4861
Cost R+ Scale 1: 	56.8107

Solution 47 / 137...
CPU time: 146.71	Solution:     (scale: 5.0)
Route  1():	[0;32m[0;34mD000[0;0m - [0;32mW030[0;0m[12.00] - [0;32mW017[0;0m[12.00] - [0;32mW022[0;0m[14.00] - [0;32mW012[0;0m[32.00] - [0;32mD000[0;0m 
Route  2():	[0;32m[0;34mD000[0;0m - [0;32mW026[0;0m[82.00] - [0;32mD000[0;0m 
Route  3():	[0;32m[0;34mD000[0;0m - [0;32mW023[0;0m[64.00] - [0;32mW011[0;0m[2.00] - [0;32mD000[0;0m 
Route  4():	[0;32m[0;34mD000[0;0m - [0;32mW028[0;0m[16.00] - [0;32mW016[0;0m[32.00] - [0;32mW013[0;0m[30.00] - [0;32mD000[0;0m 
Route  5():	[0;32m[0;34mD000[0;0m - [0;32mW029[0;0m[2.00] - [0;32mW010[0;0m[22.00] - [0;32mW002[0;0m[20.00] - [0;32mW018[0;0m[2.00] - [0;32mD000[0;0m 
Cost: 			73.1621
Cost R+: 		68.2214
Cost Scale 1: 		63.4132
Cost R+ Scale 1: 	56.7177

Solution 48 / 137...
CPU time: 146.99	Solution:     (scale: 5.0)
Route  1():	[0;32m[0;34mD000[0;0m - [0;32mW030[0;0m[12.00] - [0;32mW017[0;0m[12.00] - [0;32mW022[0;0m[14.00] - [0;32mW012[0;0m[36.00] - [0;32mD000[0;0m 
Route  2():	[0;32m[0;34mD000[0;0m - [0;32mW026[0;0m[82.00] - [0;32mD000[0;0m 
Route  3():	[0;32m[0;34mD000[0;0m - [0;32mW023[0;0m[64.00] - [0;32mW011[0;0m[2.00] - [0;32mD000[0;0m 
Route  4():	[0;32m[0;34mD000[0;0m - [0;32mW028[0;0m[16.00] - [0;32mW016[0;0m[32.00] - [0;32mW013[0;0m[30.00] - [0;32mD000[0;0m 
Route  5():	[0;32m[0;34mD000[0;0m - [0;32mW029[0;0m[2.00] - [0;32mW010[0;0m[22.00] - [0;32mW002[0;0m[20.00] - [0;32mW018[0;0m[2.00] - [0;32mD000[0;0m 
Cost: 			73.1157
Cost R+: 		68.1749
Cost Scale 1: 		63.2249
Cost R+ Scale 1: 	56.5256

Solution 49 / 137...
CPU time: 149.66	Solution:     (scale: 5.0)
Route  1():	[0;32m[0;34mD000[0;0m - [0;32mW030[0;0m[12.00] - [0;32mW017[0;0m[12.00] - [0;32mW011[0;0m[2.00] - [0;32mW012[0;0m[36.00] - [0;32mD000[0;0m 
Route  2():	[0;32m[0;34mD000[0;0m - [0;32mW026[0;0m[82.00] - [0;32mD000[0;0m 
Route  3():	[0;32m[0;34mD000[0;0m - [0;32mW023[0;0m[64.00] - [0;32mW022[0;0m[14.00] - [0;32mD000[0;0m 
Route  4():	[0;32m[0;34mD000[0;0m - [0;32mW028[0;0m[16.00] - [0;32mW016[0;0m[32.00] - [0;32mW013[0;0m[30.00] - [0;32mD000[0;0m 
Route  5():	[0;32m[0;34mD000[0;0m - [0;32mW029[0;0m[2.00] - [0;32mW010[0;0m[22.00] - [0;32mW002[0;0m[20.00] - [0;32mW018[0;0m[2.00] - [0;32mD000[0;0m 
Cost: 			72.3845
Cost R+: 		67.3846
Cost Scale 1: 		62.8074
Cost R+ Scale 1: 	56.2576

Solution 50 / 137...
CPU time: 152.48	Solution:     (scale: 5.0)
Route  1():	[0;32m[0;34mD000[0;0m - [0;32mW030[0;0m[12.00] - [0;32mW017[0;0m[12.00] - [0;32mW011[0;0m[2.00] - [0;32mW012[0;0m[36.00] - [0;32mD000[0;0m 
Route  2():	[0;32m[0;34mD000[0;0m - [0;32mW026[0;0m[82.00] - [0;32mD000[0;0m 
Route  3():	[0;32m[0;34mD000[0;0m - [0;32mW023[0;0m[64.00] - [0;32mW022[0;0m[2.00] - [0;32mD000[0;0m 
Route  4():	[0;32m[0;34mD000[0;0m - [0;32mW028[0;0m[16.00] - [0;32mW016[0;0m[32.00] - [0;32mW013[0;0m[30.00] - [0;32mD000[0;0m 
Route  5():	[0;32m[0;34mD000[0;0m - [0;32mW029[0;0m[14.00] - [0;32mW010[0;0m[22.00] - [0;32mW002[0;0m[20.00] - [0;32mW018[0;0m[2.00] - [0;32mD000[0;0m 
Cost: 			72.1897
Cost R+: 		67.4028
Cost Scale 1: 		62.8612
Cost R+ Scale 1: 	56.2839

Solution 51 / 137...
CPU time: 153.85	Solution:     (scale: 5.0)
Route  1():	[0;32m[0;34mD000[0;0m - [0;32mW030[0;0m[12.00] - [0;32mW017[0;0m[12.00] - [0;32mW011[0;0m[2.00] - [0;32mW012[0;0m[36.00] - [0;32mD000[0;0m 
Route  2():	[0;32m[0;34mD000[0;0m - [0;32mW026[0;0m[82.00] - [0;32mD000[0;0m 
Route  3():	[0;32m[0;34mD000[0;0m - [0;32mW023[0;0m[64.00] - [0;32mW022[0;0m[2.00] - [0;32mD000[0;0m 
Route  4():	[0;32m[0;34mD000[0;0m - [0;32mW028[0;0m[16.00] - [0;32mW016[0;0m[32.00] - [0;32mW013[0;0m[30.00] - [0;32mD000[0;0m 
Route  5():	[0;32m[0;34mD000[0;0m - [0;32mW029[0;0m[14.00] - [0;32mW010[0;0m[22.00] - [0;32mW002[0;0m[20.00] - [0;32mW018[0;0m[24.00] - [0;32mD000[0;0m 
Cost: 			71.678
Cost R+: 		66.8399
Cost Scale 1: 		62.1142
Cost R+ Scale 1: 	55.4685

Solution 52 / 137...
CPU time: 155.72	Solution:     (scale: 5.0)
Route  1():	[0;32m[0;34mD000[0;0m - [0;32mW030[0;0m[12.00] - [0;32mW017[0;0m[12.00] - [0;32mW011[0;0m[10.00] - [0;32mW012[0;0m[36.00] - [0;32mD000[0;0m 
Route  2():	[0;32m[0;34mD000[0;0m - [0;32mW026[0;0m[82.00] - [0;32mD000[0;0m 
Route  3():	[0;32m[0;34mD000[0;0m - [0;32mW023[0;0m[64.00] - [0;32mW022[0;0m[2.00] - [0;32mD000[0;0m 
Route  4():	[0;32m[0;34mD000[0;0m - [0;32mW028[0;0m[16.00] - [0;32mW016[0;0m[32.00] - [0;32mW013[0;0m[30.00] - [0;32mD000[0;0m 
Route  5():	[0;32m[0;34mD000[0;0m - [0;32mW029[0;0m[14.00] - [0;32mW010[0;0m[22.00] - [0;32mW002[0;0m[20.00] - [0;32mW018[0;0m[24.00] - [0;32mD000[0;0m 
Cost: 			71.4351
Cost R+: 		66.6221
Cost Scale 1: 		61.8945
Cost R+ Scale 1: 	55.2822

Solution 53 / 137...
CPU time: 158.18	Solution:     (scale: 5.0)
Route  1():	[0;32m[0;34mD000[0;0m - [0;32mW030[0;0m[12.00] - [0;32mW011[0;0m[10.00] - [0;32mW017[0;0m[12.00] - [0;32mW012[0;0m[36.00] - [0;32mD000[0;0m 
Route  2():	[0;32m[0;34mD000[0;0m - [0;32mW026[0;0m[82.00] - [0;32mD000[0;0m 
Route  3():	[0;32m[0;34mD000[0;0m - [0;32mW023[0;0m[72.00] - [0;32mW022[0;0m[2.00] - [0;32mD000[0;0m 
Route  4():	[0;32m[0;34mD000[0;0m - [0;32mW028[0;0m[16.00] - [0;32mW016[0;0m[32.00] - [0;32mW013[0;0m[30.00] - [0;32mD000[0;0m 
Route  5():	[0;32m[0;34mD000[0;0m - [0;32mW029[0;0m[14.00] - [0;32mW010[0;0m[22.00] - [0;32mW002[0;0m[20.00] - [0;32mW018[0;0m[24.00] - [0;32mD000[0;0m 
Cost: 			71.2483
Cost R+: 		66.4676
Cost Scale 1: 		61.7961
Cost R+ Scale 1: 	55.1946

Solution 54 / 137...
CPU time: 161.1	Solution:     (scale: 5.0)
Route  1():	[0;32m[0;34mD000[0;0m - [0;32mW030[0;0m[12.00] - [0;32mW011[0;0m[10.00] - [0;32mW017[0;0m[12.00] - [0;32mW012[0;0m[36.00] - [0;32mD000[0;0m 
Route  2():	[0;32m[0;34mD000[0;0m - [0;32mW026[0;0m[82.00] - [0;32mD000[0;0m 
Route  3():	[0;32m[0;34mD000[0;0m - [0;32mW023[0;0m[72.00] - [0;32mW022[0;0m[2.00] - [0;32mD000[0;0m 
Route  4():	[0;32m[0;34mD000[0;0m - [0;32mW028[0;0m[16.00] - [0;32mW016[0;0m[32.00] - [0;32mW013[0;0m[30.00] - [0;32mD000[0;0m 
Route  5():	[0;32m[0;34mD000[0;0m - [0;32mW010[0;0m[22.00] - [0;32mW029[0;0m[14.00] - [0;32mW002[0;0m[20.00] - [0;32mW018[0;0m[24.00] - [0;32mD000[0;0m 
Cost: 			70.1658
Cost R+: 		65.1159
Cost Scale 1: 		59.8889
Cost R+ Scale 1: 	53.0757

Solution 55 / 137...
CPU time: 161.96	Solution:     (scale: 5.0)
Route  1():	[0;32m[0;34mD000[0;0m - [0;32mW030[0;0m[12.00] - [0;32mW011[0;0m[10.00] - [0;32mW017[0;0m[12.00] - [0;32mW012[0;0m[44.00] - [0;32mD000[0;0m 
Route  2():	[0;32m[0;34mD000[0;0m - [0;32mW026[0;0m[82.00] - [0;32mD000[0;0m 
Route  3():	[0;32m[0;34mD000[0;0m - [0;32mW023[0;0m[72.00] - [0;32mW022[0;0m[2.00] - [0;32mD000[0;0m 
Route  4():	[0;32m[0;34mD000[0;0m - [0;32mW028[0;0m[16.00] - [0;32mW016[0;0m[32.00] - [0;32mW013[0;0m[30.00] - [0;32mD000[0;0m 
Route  5():	[0;32m[0;34mD000[0;0m - [0;32mW010[0;0m[14.00] - [0;32mW029[0;0m[14.00] - [0;32mW002[0;0m[20.00] - [0;32mW018[0;0m[24.00] - [0;32mD000[0;0m 
Cost: 			69.8223
Cost R+: 		64.5492
Cost Scale 1: 		59.4763
Cost R+ Scale 1: 	52.4562

Solution 56 / 137...
CPU time: 164.9	Solution:     (scale: 5.0)
Route  1():	[0;32m[0;34mD000[0;0m - [0;32mW030[0;0m[12.00] - [0;32mW017[0;0m[12.00] - [0;32mW012[0;0m[44.00] - [0;32mD000[0;0m 
Route  2():	[0;32m[0;34mD000[0;0m - [0;32mW026[0;0m[82.00] - [0;32mD000[0;0m 
Route  3():	[0;32m[0;34mD000[0;0m - [0;32mW023[0;0m[72.00] - [0;32mW022[0;0m[2.00] - [0;32mD000[0;0m 
Route  4():	[0;32m[0;34mD000[0;0m - [0;32mW028[0;0m[16.00] - [0;32mW016[0;0m[32.00] - [0;32mW013[0;0m[30.00] - [0;32mD000[0;0m 
Route  5():	[0;32m[0;34mD000[0;0m - [0;32mW010[0;0m[14.00] - [0;32mW029[0;0m[14.00] - [0;32mW002[0;0m[20.00] - [0;32mW018[0;0m[24.00] - [0;32mD000[0;0m 
Cost: 			69.661
Cost R+: 		64.4491
Cost Scale 1: 		59.217
Cost R+ Scale 1: 	52.3208

Solution 57 / 137...
CPU time: 166.53	Solution:     (scale: 5.0)
Route  1():	[0;32m[0;34mD000[0;0m - [0;32mW030[0;0m[12.00] - [0;32mW017[0;0m[12.00] - [0;32mW012[0;0m[44.00] - [0;32mD000[0;0m 
Route  2():	[0;32m[0;34mD000[0;0m - [0;32mW026[0;0m[82.00] - [0;32mD000[0;0m 
Route  3():	[0;32m[0;34mD000[0;0m - [0;32mW023[0;0m[78.00] - [0;32mW022[0;0m[2.00] - [0;32mD000[0;0m 
Route  4():	[0;32m[0;34mD000[0;0m - [0;32mW028[0;0m[16.00] - [0;32mW016[0;0m[32.00] - [0;32mW013[0;0m[30.00] - [0;32mD000[0;0m 
Route  5():	[0;32m[0;34mD000[0;0m - [0;32mW010[0;0m[14.00] - [0;32mW029[0;0m[14.00] - [0;32mW002[0;0m[20.00] - [0;32mW018[0;0m[24.00] - [0;32mD000[0;0m 
Cost: 			69.5071
Cost R+: 		64.2919
Cost Scale 1: 		58.9636
Cost R+ Scale 1: 	52.055

Solution 58 / 137...
CPU time: 172.24	Solution:     (scale: 5.0)
Route  1():	[0;32m[0;34mD000[0;0m - [0;32mW030[0;0m[12.00] - [0;32mW017[0;0m[12.00] - [0;32mW012[0;0m[56.00] - [0;32mD000[0;0m 
Route  2():	[0;32m[0;34mD000[0;0m - [0;32mW026[0;0m[82.00] - [0;32mD000[0;0m 
Route  3():	[0;32m[0;34mD000[0;0m - [0;32mW023[0;0m[78.00] - [0;32mW022[0;0m[2.00] - [0;32mD000[0;0m 
Route  4():	[0;32m[0;34mD000[0;0m - [0;32mW028[0;0m[16.00] - [0;32mW016[0;0m[32.00] - [0;32mW013[0;0m[30.00] - [0;32mD000[0;0m 
Route  5():	[0;32m[0;34mD000[0;0m - [0;32mW010[0;0m[14.00] - [0;32mW029[0;0m[14.00] - [0;32mW002[0;0m[20.00] - [0;32mW018[0;0m[24.00] - [0;32mD000[0;0m 
Cost: 			69.1703
Cost R+: 		63.9264
Cost Scale 1: 		58.4046
Cost R+ Scale 1: 	51.4823

Solution 59 / 137...
CPU time: 174.38	Solution:     (scale: 5.0)
Route  1():	[0;32m[0;34mD000[0;0m - [0;32mW030[0;0m[12.00] - [0;32mW012[0;0m[56.00] - [0;32mW017[0;0m[12.00] - [0;32mD000[0;0m 
Route  2():	[0;32m[0;34mD000[0;0m - [0;32mW026[0;0m[82.00] - [0;32mD000[0;0m 
Route  3():	[0;32m[0;34mD000[0;0m - [0;32mW023[0;0m[78.00] - [0;32mW022[0;0m[2.00] - [0;32mD000[0;0m 
Route  4():	[0;32m[0;34mD000[0;0m - [0;32mW028[0;0m[16.00] - [0;32mW016[0;0m[32.00] - [0;32mW013[0;0m[30.00] - [0;32mD000[0;0m 
Route  5():	[0;32m[0;34mD000[0;0m - [0;32mW010[0;0m[14.00] - [0;32mW029[0;0m[14.00] - [0;32mW002[0;0m[20.00] - [0;32mW018[0;0m[24.00] - [0;32mD000[0;0m 
Cost: 			68.8517
Cost R+: 		63.5709
Cost Scale 1: 		58.5025
Cost R+ Scale 1: 	51.542

Solution 60 / 137...
CPU time: 176.78	Solution:     (scale: 5.0)
Route  1():	[0;32m[0;34mD000[0;0m - [0;32mW030[0;0m[12.00] - [0;32mW012[0;0m[56.00] - [0;32mW017[0;0m[12.00] - [0;32mD000[0;0m 
Route  2():	[0;32m[0;34mD000[0;0m - [0;32mW026[0;0m[82.00] - [0;32mD000[0;0m 
Route  3():	[0;32m[0;34mD000[0;0m - [0;32mW023[0;0m[78.00] - [0;32mW022[0;0m[2.00] - [0;32mD000[0;0m 
Route  4():	[0;32m[0;34mD000[0;0m - [0;32mW028[0;0m[16.00] - [0;32mW016[0;0m[32.00] - [0;32mW013[0;0m[30.00] - [0;32mD000[0;0m 
Route  5():	[0;32m[0;34mD000[0;0m - [0;32mW010[0;0m[14.00] - [0;32mW029[0;0m[20.00] - [0;32mW002[0;0m[20.00] - [0;32mW018[0;0m[24.00] - [0;32mD000[0;0m 
Cost: 			68.6972
Cost R+: 		63.4612
Cost Scale 1: 		58.3946
Cost R+ Scale 1: 	51.2989

Solution 61 / 137...
CPU time: 179.74	Solution:     (scale: 5.0)
Route  1():	[0;32m[0;34mD000[0;0m - [0;32mW030[0;0m[12.00] - [0;32mW012[0;0m[56.00] - [0;32mW017[0;0m[12.00] - [0;32mD000[0;0m 
Route  2():	[0;32m[0;34mD000[0;0m - [0;32mW026[0;0m[88.00] - [0;32mD000[0;0m 
Route  3():	[0;32m[0;34mD000[0;0m - [0;32mW023[0;0m[78.00] - [0;32mW022[0;0m[2.00] - [0;32mD000[0;0m 
Route  4():	[0;32m[0;34mD000[0;0m - [0;32mW028[0;0m[16.00] - [0;32mW016[0;0m[32.00] - [0;32mW013[0;0m[30.00] - [0;32mD000[0;0m 
Route  5():	[0;32m[0;34mD000[0;0m - [0;32mW010[0;0m[14.00] - [0;32mW029[0;0m[20.00] - [0;32mW002[0;0m[20.00] - [0;32mW018[0;0m[24.00] - [0;32mD000[0;0m 
Cost: 			68.562
Cost R+: 		63.3212
Cost Scale 1: 		57.9154
Cost R+ Scale 1: 	50.7756

Solution 62 / 137...
CPU time: 180.51	Solution:     (scale: 5.0)
Route  1():	[0;32m[0;34mD000[0;0m - [0;32mW030[0;0m[12.00] - [0;32mW012[0;0m[56.00] - [0;32mW017[0;0m[12.00] - [0;32mD000[0;0m 
Route  2():	[0;32m[0;34mD000[0;0m - [0;32mW026[0;0m[88.00] - [0;32mD000[0;0m 
Route  3():	[0;32m[0;34mD000[0;0m - [0;32mW023[0;0m[78.00] - [0;32mW022[0;0m[2.00] - [0;32mD000[0;0m 
Route  4():	[0;32m[0;34mD000[0;0m - [0;32mW028[0;0m[16.00] - [0;32mW016[0;0m[32.00] - [0;32mW013[0;0m[30.00] - [0;32mD000[0;0m 
Route  5():	[0;32m[0;34mD000[0;0m - [0;32mW010[0;0m[14.00] - [0;32mW029[0;0m[12.00] - [0;32mW002[0;0m[28.00] - [0;32mW018[0;0m[24.00] - [0;32mD000[0;0m 
Cost: 			68.5617
Cost R+: 		63.2461
Cost Scale 1: 		57.3992
Cost R+ Scale 1: 	50.3293

Solution 63 / 137...
CPU time: 189.69	Solution:     (scale: 5.0)
Route  1():	[0;32m[0;34mD000[0;0m - [0;32mW030[0;0m[12.00] - [0;32mW012[0;0m[56.00] - [0;32mW017[0;0m[12.00] - [0;32mD000[0;0m 
Route  2():	[0;32m[0;34mD000[0;0m - [0;32mW026[0;0m[88.00] - [0;32mD000[0;0m 
Route  3():	[0;32m[0;34mD000[0;0m - [0;32mW023[0;0m[78.00] - [0;32mW022[0;0m[2.00] - [0;32mD000[0;0m 
Route  4():	[0;32m[0;34mD000[0;0m - [0;32mW028[0;0m[26.00] - [0;32mW013[0;0m[18.00] - [0;32mW016[0;0m[30.00] - [0;32mD000[0;0m 
Route  5():	[0;32m[0;34mD000[0;0m - [0;32mW010[0;0m[14.00] - [0;32mW029[0;0m[12.00] - [0;32mW002[0;0m[28.00] - [0;32mW018[0;0m[24.00] - [0;32mD000[0;0m 
Cost: 			68.2622
Cost R+: 		62.8079
Cost Scale 1: 		58.2473
Cost R+ Scale 1: 	50.7847

Solution 64 / 137...
CPU time: 234.44	Solution:     (scale: 5.0)
Route  1():	[0;32m[0;34mD000[0;0m - [0;32mW030[0;0m[12.00] - [0;32mW012[0;0m[56.00] - [0;32mW017[0;0m[12.00] - [0;32mD000[0;0m 
Route  2():	[0;32m[0;34mD000[0;0m - [0;32mW026[0;0m[88.00] - [0;32mD000[0;0m 
Route  3():	[0;32m[0;34mD000[0;0m - [0;32mW023[0;0m[78.00] - [0;32mW022[0;0m[2.00] - [0;32mD000[0;0m 
Route  4():	[0;32m[0;34mD000[0;0m - [0;32mW028[0;0m[32.00] - [0;32mW013[0;0m[18.00] - [0;32mW016[0;0m[30.00] - [0;32mD000[0;0m 
Route  5():	[0;32m[0;34mD000[0;0m - [0;32mW010[0;0m[14.00] - [0;32mW029[0;0m[12.00] - [0;32mW002[0;0m[28.00] - [0;32mW018[0;0m[24.00] - [0;32mD000[0;0m 
Cost: 			68.1437
Cost R+: 		62.6663
Cost Scale 1: 		57.7305
Cost R+ Scale 1: 	50.1426

Solution 65 / 137...
CPU time: 341.76	Solution:     (scale: 5.0)
Route  1():	[0;32m[0;34mD000[0;0m - [0;32mW028[0;0m[28.00] - [0;32mW012[0;0m[54.00] - [0;32mD000[0;0m 
Route  2():	[0;32m[0;34mD000[0;0m - [0;32mW029[0;0m[16.00] - [0;32mW026[0;0m[68.00] - [0;32mD000[0;0m 
Route  3():	[0;32m[0;34mD000[0;0m - [0;32mW023[0;0m[60.00] - [0;32mW022[0;0m[20.00] - [0;32mD000[0;0m 
Route  4():	[0;32m[0;34mD000[0;0m - [0;32mW030[0;0m[54.00] - [0;32mW014[0;0m[12.00] - [0;32mD000[0;0m 
Route  5():	[0;32m[0;34mD000[0;0m - [0;32mW010[0;0m[14.00] - [0;32mW002[0;0m[30.00] - [0;32mW018[0;0m[20.00] - [0;32mD000[0;0m 
Cost: 			67.8005
Cost R+: 		62.2387
Cost Scale 1: 		57.2843
Cost R+ Scale 1: 	49.8748

Solution 66 / 137...
CPU time: 342.53	Solution:     (scale: 5.0)
Route  1():	[0;32m[0;34mD000[0;0m - [0;32mW028[0;0m[28.00] - [0;32mW012[0;0m[54.00] - [0;32mD000[0;0m 
Route  2():	[0;32m[0;34mD000[0;0m - [0;32mW029[0;0m[16.00] - [0;32mW026[0;0m[68.00] - [0;32mD000[0;0m 
Route  3():	[0;32m[0;34mD000[0;0m - [0;32mW023[0;0m[60.00] - [0;32mW022[0;0m[20.00] - [0;32mD000[0;0m 
Route  4():	[0;32m[0;34mD000[0;0m - [0;32mW030[0;0m[54.00] - [0;32mW014[0;0m[12.00] - [0;32mW027[0;0m[12.00] - [0;32mD000[0;0m 
Route  5():	[0;32m[0;34mD000[0;0m - [0;32mW010[0;0m[14.00] - [0;32mW002[0;0m[30.00] - [0;32mW018[0;0m[20.00] - [0;32mD000[0;0m 
Cost: 			67.5258
Cost R+: 		61.9387
Cost Scale 1: 		56.9483
Cost R+ Scale 1: 	49.503

Solution 67 / 137...
CPU time: 343.18	Solution:     (scale: 5.0)
Route  1():	[0;32m[0;34mD000[0;0m - [0;32mW028[0;0m[28.00] - [0;32mW012[0;0m[54.00] - [0;32mD000[0;0m 
Route  2():	[0;32m[0;34mD000[0;0m - [0;32mW029[0;0m[16.00] - [0;32mW026[0;0m[68.00] - [0;32mD000[0;0m 
Route  3():	[0;32m[0;34mD000[0;0m - [0;32mW023[0;0m[60.00] - [0;32mW022[0;0m[20.00] - [0;32mD000[0;0m 
Route  4():	[0;32m[0;34mD000[0;0m - [0;32mW030[0;0m[50.00] - [0;32mW014[0;0m[12.00] - [0;32mW027[0;0m[12.00] - [0;32mD000[0;0m 
Route  5():	[0;32m[0;34mD000[0;0m - [0;32mW010[0;0m[14.00] - [0;32mW002[0;0m[30.00] - [0;32mW018[0;0m[20.00] - [0;32mD000[0;0m 
Cost: 			67.4687
Cost R+: 		61.8491
Cost Scale 1: 		56.9643
Cost R+ Scale 1: 	49.5398

Solution 68 / 137...
CPU time: 463.1	Solution:     (scale: 5.0)
Route  1():	[0;32m[0;34mD000[0;0m - [0;32mW028[0;0m[28.00] - [0;32mW012[0;0m[46.00] - [0;32mD000[0;0m 
Route  2():	[0;32m[0;34mD000[0;0m - [0;32mW029[0;0m[16.00] - [0;32mW026[0;0m[68.00] - [0;32mD000[0;0m 
Route  3():	[0;32m[0;34mD000[0;0m - [0;32mW023[0;0m[60.00] - [0;32mW022[0;0m[20.00] - [0;32mD000[0;0m 
Route  4():	[0;32m[0;34mD000[0;0m - [0;32mW030[0;0m[50.00] - [0;32mW014[0;0m[20.00] - [0;32mW027[0;0m[12.00] - [0;32mD000[0;0m 
Route  5():	[0;32m[0;34mD000[0;0m - [0;32mW010[0;0m[14.00] - [0;32mW002[0;0m[30.00] - [0;32mW018[0;0m[20.00] - [0;32mD000[0;0m 
Cost: 			67.2249
Cost R+: 		61.614
Cost Scale 1: 		56.3913
Cost R+ Scale 1: 	48.8802

Solution 69 / 137...
CPU time: 465.28	Solution:     (scale: 5.0)
Route  1():	[0;32m[0;34mD000[0;0m - [0;32mW028[0;0m[36.00] - [0;32mW012[0;0m[46.00] - [0;32mD000[0;0m 
Route  2():	[0;32m[0;34mD000[0;0m - [0;32mW029[0;0m[16.00] - [0;32mW026[0;0m[68.00] - [0;32mD000[0;0m 
Route  3():	[0;32m[0;34mD000[0;0m - [0;32mW023[0;0m[60.00] - [0;32mW022[0;0m[20.00] - [0;32mD000[0;0m 
Route  4():	[0;32m[0;34mD000[0;0m - [0;32mW030[0;0m[50.00] - [0;32mW014[0;0m[20.00] - [0;32mW027[0;0m[12.00] - [0;32mD000[0;0m 
Route  5():	[0;32m[0;34mD000[0;0m - [0;32mW010[0;0m[14.00] - [0;32mW002[0;0m[30.00] - [0;32mW018[0;0m[20.00] - [0;32mD000[0;0m 
Cost: 			66.8955
Cost R+: 		61.2593
Cost Scale 1: 		55.8491
Cost R+ Scale 1: 	48.3344

Solution 70 / 137...
CPU time: 465.46	Solution:     (scale: 5.0)
Route  1():	[0;32m[0;34mD000[0;0m - [0;32mW028[0;0m[36.00] - [0;32mW012[0;0m[46.00] - [0;32mD000[0;0m 
Route  2():	[0;32m[0;34mD000[0;0m - [0;32mW029[0;0m[16.00] - [0;32mW026[0;0m[68.00] - [0;32mD000[0;0m 
Route  3():	[0;32m[0;34mD000[0;0m - [0;32mW023[0;0m[60.00] - [0;32mW022[0;0m[20.00] - [0;32mD000[0;0m 
Route  4():	[0;32m[0;34mD000[0;0m - [0;32mW030[0;0m[50.00] - [0;32mW014[0;0m[20.00] - [0;32mW027[0;0m[8.00] - [0;32mD000[0;0m 
Route  5():	[0;32m[0;34mD000[0;0m - [0;32mW010[0;0m[14.00] - [0;32mW002[0;0m[30.00] - [0;32mW018[0;0m[24.00] - [0;32mD000[0;0m 
Cost: 			66.7693
Cost R+: 		61.1186
Cost Scale 1: 		55.8264
Cost R+ Scale 1: 	48.3037

Solution 71 / 137...
CPU time: 535.79	Solution:     (scale: 5.0)
Route  1():	[0;32m[0;34mD000[0;0m - [0;32mW028[0;0m[36.00] - [0;32mW012[0;0m[48.00] - [0;32mD000[0;0m 
Route  2():	[0;32m[0;34mD000[0;0m - [0;32mW029[0;0m[16.00] - [0;32mW026[0;0m[68.00] - [0;32mD000[0;0m 
Route  3():	[0;32m[0;34mD000[0;0m - [0;32mW023[0;0m[60.00] - [0;32mW022[0;0m[18.00] - [0;32mD000[0;0m 
Route  4():	[0;32m[0;34mD000[0;0m - [0;32mW030[0;0m[50.00] - [0;32mW014[0;0m[20.00] - [0;32mW027[0;0m[8.00] - [0;32mD000[0;0m 
Route  5():	[0;32m[0;34mD000[0;0m - [0;32mW010[0;0m[14.00] - [0;32mW002[0;0m[30.00] - [0;32mW018[0;0m[24.00] - [0;32mD000[0;0m 
Cost: 			66.7359
Cost R+: 		61.0717
Cost Scale 1: 		56.0038
Cost R+ Scale 1: 	48.5399

Solution 72 / 137...
CPU time: 660.69	Solution:     (scale: 5.0)
Route  1():	[0;32m[0;34mD000[0;0m - [0;32mW028[0;0m[36.00] - [0;32mW012[0;0m[40.00] - [0;32mD000[0;0m 
Route  2():	[0;32m[0;34mD000[0;0m - [0;32mW026[0;0m[68.00] - [0;32mW029[0;0m[16.00] - [0;32mD000[0;0m 
Route  3():	[0;32m[0;34mD000[0;0m - [0;32mW023[0;0m[60.00] - [0;32mW022[0;0m[18.00] - [0;32mD000[0;0m 
Route  4():	[0;32m[0;34mD000[0;0m - [0;32mW030[0;0m[50.00] - [0;32mW014[0;0m[20.00] - [0;32mW027[0;0m[8.00] - [0;32mD000[0;0m 
Route  5():	[0;32m[0;34mD000[0;0m - [0;32mW010[0;0m[14.00] - [0;32mW002[0;0m[44.00] - [0;32mW018[0;0m[24.00] - [0;32mD000[0;0m 
Cost: 			66.4925
Cost R+: 		60.654
Cost Scale 1: 		55.4268
Cost R+ Scale 1: 	47.8795

Solution 73 / 137...
CPU time: 663.21	Solution:     (scale: 5.0)
Route  1():	[0;32m[0;34mD000[0;0m - [0;32mW028[0;0m[36.00] - [0;32mW012[0;0m[40.00] - [0;32mD000[0;0m 
Route  2():	[0;32m[0;34mD000[0;0m - [0;32mW026[0;0m[68.00] - [0;32mW029[0;0m[18.00] - [0;32mD000[0;0m 
Route  3():	[0;32m[0;34mD000[0;0m - [0;32mW023[0;0m[60.00] - [0;32mW022[0;0m[18.00] - [0;32mD000[0;0m 
Route  4():	[0;32m[0;34mD000[0;0m - [0;32mW030[0;0m[50.00] - [0;32mW014[0;0m[20.00] - [0;32mW027[0;0m[6.00] - [0;32mD000[0;0m 
Route  5():	[0;32m[0;34mD000[0;0m - [0;32mW010[0;0m[14.00] - [0;32mW002[0;0m[44.00] - [0;32mW018[0;0m[24.00] - [0;32mD000[0;0m 
Cost: 			66.3459
Cost R+: 		60.4713
Cost Scale 1: 		55.2513
Cost R+ Scale 1: 	47.638

Solution 74 / 137...
CPU time: 669.23	Solution:     (scale: 5.0)
Route  1():	[0;32m[0;34mD000[0;0m - [0;32mW028[0;0m[36.00] - [0;32mW012[0;0m[38.00] - [0;32mD000[0;0m 
Route  2():	[0;32m[0;34mD000[0;0m - [0;32mW026[0;0m[68.00] - [0;32mW029[0;0m[18.00] - [0;32mD000[0;0m 
Route  3():	[0;32m[0;34mD000[0;0m - [0;32mW023[0;0m[60.00] - [0;32mW022[0;0m[20.00] - [0;32mD000[0;0m 
Route  4():	[0;32m[0;34mD000[0;0m - [0;32mW030[0;0m[50.00] - [0;32mW014[0;0m[20.00] - [0;32mW027[0;0m[6.00] - [0;32mD000[0;0m 
Route  5():	[0;32m[0;34mD000[0;0m - [0;32mW010[0;0m[14.00] - [0;32mW002[0;0m[44.00] - [0;32mW018[0;0m[24.00] - [0;32mD000[0;0m 
Cost: 			66.3193
Cost R+: 		60.4821
Cost Scale 1: 		55.1296
Cost R+ Scale 1: 	47.5719

Solution 75 / 137...
CPU time: 687.92	Solution:     (scale: 5.0)
Route  1():	[0;32m[0;34mD000[0;0m - [0;32mW028[0;0m[36.00] - [0;32mW012[0;0m[38.00] - [0;32mD000[0;0m 
Route  2():	[0;32m[0;34mD000[0;0m - [0;32mW029[0;0m[18.00] - [0;32mW026[0;0m[68.00] - [0;32mD000[0;0m 
Route  3():	[0;32m[0;34mD000[0;0m - [0;32mW023[0;0m[60.00] - [0;32mW022[0;0m[20.00] - [0;32mD000[0;0m 
Route  4():	[0;32m[0;34mD000[0;0m - [0;32mW030[0;0m[50.00] - [0;32mW014[0;0m[20.00] - [0;32mW027[0;0m[6.00] - [0;32mD000[0;0m 
Route  5():	[0;32m[0;34mD000[0;0m - [0;32mW010[0;0m[14.00] - [0;32mW002[0;0m[44.00] - [0;32mW018[0;0m[24.00] - [0;32mD000[0;0m 
Cost: 			66.1579
Cost R+: 		60.3696
Cost Scale 1: 		55.1781
Cost R+ Scale 1: 	47.6749

Solution 76 / 137...
CPU time: 688.51	Solution:     (scale: 5.0)
Route  1():	[0;32m[0;34mD000[0;0m - [0;32mW028[0;0m[36.00] - [0;32mW012[0;0m[48.00] - [0;32mD000[0;0m 
Route  2():	[0;32m[0;34mD000[0;0m - [0;32mW029[0;0m[18.00] - [0;32mW026[0;0m[68.00] - [0;32mD000[0;0m 
Route  3():	[0;32m[0;34mD000[0;0m - [0;32mW023[0;0m[60.00] - [0;32mW022[0;0m[20.00] - [0;32mD000[0;0m 
Route  4():	[0;32m[0;34mD000[0;0m - [0;32mW030[0;0m[50.00] - [0;32mW014[0;0m[20.00] - [0;32mW027[0;0m[6.00] - [0;32mD000[0;0m 
Route  5():	[0;32m[0;34mD000[0;0m - [0;32mW010[0;0m[14.00] - [0;32mW002[0;0m[44.00] - [0;32mW018[0;0m[24.00] - [0;32mD000[0;0m 
Cost: 			66.0485
Cost R+: 		60.2561
Cost Scale 1: 		54.9518
Cost R+ Scale 1: 	47.4427

Solution 77 / 137...
CPU time: 703.74	Solution:     (scale: 5.0)
Route  1():	[0;32m[0;34mD000[0;0m - [0;32mW028[0;0m[36.00] - [0;32mW012[0;0m[48.00] - [0;32mD000[0;0m 
Route  2():	[0;32m[0;34mD000[0;0m - [0;32mW029[0;0m[14.00] - [0;32mW026[0;0m[72.00] - [0;32mD000[0;0m 
Route  3():	[0;32m[0;34mD000[0;0m - [0;32mW023[0;0m[40.00] - [0;32mW022[0;0m[40.00] - [0;32mD000[0;0m 
Route  4():	[0;32m[0;34mD000[0;0m - [0;32mW030[0;0m[50.00] - [0;32mW014[0;0m[20.00] - [0;32mW027[0;0m[6.00] - [0;32mD000[0;0m 
Route  5():	[0;32m[0;34mD000[0;0m - [0;32mW010[0;0m[14.00] - [0;32mW002[0;0m[44.00] - [0;32mW018[0;0m[24.00] - [0;32mD000[0;0m 
Cost: 			65.9008
Cost R+: 		60.1438
Cost Scale 1: 		54.6943
Cost R+ Scale 1: 	47.3212

Solution 78 / 137...
CPU time: 711.64	Solution:     (scale: 5.0)
Route  1():	[0;32m[0;34mD000[0;0m - [0;32mW028[0;0m[36.00] - [0;32mW012[0;0m[48.00] - [0;32mD000[0;0m 
Route  2():	[0;32m[0;34mD000[0;0m - [0;32mW029[0;0m[2.00] - [0;32mW026[0;0m[84.00] - [0;32mD000[0;0m 
Route  3():	[0;32m[0;34mD000[0;0m - [0;32mW023[0;0m[40.00] - [0;32mW022[0;0m[40.00] - [0;32mD000[0;0m 
Route  4():	[0;32m[0;34mD000[0;0m - [0;32mW030[0;0m[50.00] - [0;32mW014[0;0m[20.00] - [0;32mW027[0;0m[6.00] - [0;32mD000[0;0m 
Route  5():	[0;32m[0;34mD000[0;0m - [0;32mW010[0;0m[14.00] - [0;32mW002[0;0m[44.00] - [0;32mW018[0;0m[24.00] - [0;32mD000[0;0m 
Cost: 			65.8643
Cost R+: 		60.0038
Cost Scale 1: 		54.8166
Cost R+ Scale 1: 	47.326

Solution 79 / 137...
CPU time: 716.81	Solution:     (scale: 5.0)
Route  1():	[0;32m[0;34mD000[0;0m - [0;32mW028[0;0m[36.00] - [0;32mW012[0;0m[48.00] - [0;32mD000[0;0m 
Route  2():	[0;32m[0;34mD000[0;0m - [0;32mW029[0;0m[2.00] - [0;32mW026[0;0m[84.00] - [0;32mD000[0;0m 
Route  3():	[0;32m[0;34mD000[0;0m - [0;32mW023[0;0m[40.00] - [0;32mW022[0;0m[40.00] - [0;32mD000[0;0m 
Route  4():	[0;32m[0;34mD000[0;0m - [0;32mW030[0;0m[50.00] - [0;32mW014[0;0m[22.00] - [0;32mW027[0;0m[6.00] - [0;32mD000[0;0m 
Route  5():	[0;32m[0;34mD000[0;0m - [0;32mW010[0;0m[14.00] - [0;32mW002[0;0m[44.00] - [0;32mW018[0;0m[22.00] - [0;32mD000[0;0m 
Cost: 			65.8141
Cost R+: 		59.9533
Cost Scale 1: 		54.6687
Cost R+ Scale 1: 	47.1642

Solution 80 / 137...
CPU time: 921.74	Solution:     (scale: 5.0)
Route  1():	[0;32m[0;34mD000[0;0m - [0;32mW028[0;0m[36.00] - [0;32mW012[0;0m[44.00] - [0;32mD000[0;0m 
Route  2():	[0;32m[0;34mD000[0;0m - [0;32mW029[0;0m[2.00] - [0;32mW026[0;0m[84.00] - [0;32mD000[0;0m 
Route  3():	[0;32m[0;34mD000[0;0m - [0;32mW023[0;0m[40.00] - [0;32mW022[0;0m[40.00] - [0;32mD000[0;0m 
Route  4():	[0;32m[0;34mD000[0;0m - [0;32mW030[0;0m[50.00] - [0;32mW014[0;0m[22.00] - [0;32mW027[0;0m[6.00] - [0;32mD000[0;0m 
Route  5():	[0;32m[0;34mD000[0;0m - [0;32mW010[0;0m[14.00] - [0;32mW002[0;0m[44.00] - [0;32mW018[0;0m[26.00] - [0;32mD000[0;0m 
Cost: 			65.8136
Cost R+: 		59.9532
Cost Scale 1: 		54.7203
Cost R+ Scale 1: 	47.215

Solution 81 / 137...
CPU time: 1147.6	Solution:     (scale: 5.0)
Route  1():	[0;32m[0;34mD000[0;0m - [0;32mW028[0;0m[36.00] - [0;32mW012[0;0m[48.00] - [0;32mD000[0;0m 
Route  2():	[0;32m[0;34mD000[0;0m - [0;32mW029[0;0m[2.00] - [0;32mW026[0;0m[84.00] - [0;32mD000[0;0m 
Route  3():	[0;32m[0;34mD000[0;0m - [0;32mW023[0;0m[40.00] - [0;32mW022[0;0m[40.00] - [0;32mD000[0;0m 
Route  4():	[0;32m[0;34mD000[0;0m - [0;32mW030[0;0m[50.00] - [0;32mW014[0;0m[22.00] - [0;32mW027[0;0m[6.00] - [0;32mD000[0;0m 
Route  5():	[0;32m[0;34mD000[0;0m - [0;32mW010[0;0m[14.00] - [0;32mW002[0;0m[44.00] - [0;32mW018[0;0m[26.00] - [0;32mD000[0;0m 
Cost: 			65.8041
Cost R+: 		59.9433
Cost Scale 1: 		54.6687
Cost R+ Scale 1: 	47.1642

Solution 82 / 137...
CPU time: 1158.77	Solution:     (scale: 5.0)
Route  1():	[0;32m[0;34mD000[0;0m - [0;32mW028[0;0m[36.00] - [0;32mW012[0;0m[48.00] - [0;32mD000[0;0m 
Route  2():	[0;32m[0;34mD000[0;0m - [0;32mW029[0;0m[6.00] - [0;32mW026[0;0m[80.00] - [0;32mD000[0;0m 
Route  3():	[0;32m[0;34mD000[0;0m - [0;32mW023[0;0m[40.00] - [0;32mW022[0;0m[40.00] - [0;32mD000[0;0m 
Route  4():	[0;32m[0;34mD000[0;0m - [0;32mW030[0;0m[50.00] - [0;32mW014[0;0m[22.00] - [0;32mW027[0;0m[6.00] - [0;32mD000[0;0m 
Route  5():	[0;32m[0;34mD000[0;0m - [0;32mW010[0;0m[14.00] - [0;32mW002[0;0m[44.00] - [0;32mW018[0;0m[26.00] - [0;32mD000[0;0m 
Cost: 			65.7631
Cost R+: 		59.966
Cost Scale 1: 		54.5394
Cost R+ Scale 1: 	47.0537

Solution 83 / 137...
CPU time: 1375.86	Solution:     (scale: 5.0)
Route  1():	[0;32m[0;34mD000[0;0m - [0;32mW028[0;0m[36.00] - [0;32mW012[0;0m[48.00] - [0;32mD000[0;0m 
Route  2():	[0;32m[0;34mD000[0;0m - [0;32mW029[0;0m[6.00] - [0;32mW026[0;0m[80.00] - [0;32mD000[0;0m 
Route  3():	[0;32m[0;34mD000[0;0m - [0;32mW023[0;0m[40.00] - [0;32mW022[0;0m[40.00] - [0;32mD000[0;0m 
Route  4():	[0;32m[0;34mD000[0;0m - [0;32mW030[0;0m[42.00] - [0;32mW014[0;0m[22.00] - [0;32mW027[0;0m[6.00] - [0;32mD000[0;0m 
Route  5():	[0;32m[0;34mD000[0;0m - [0;32mW010[0;0m[14.00] - [0;32mW002[0;0m[44.00] - [0;32mW018[0;0m[26.00] - [0;32mD000[0;0m 
Cost: 			65.7047
Cost R+: 		59.8043
Cost Scale 1: 		54.5767
Cost R+ Scale 1: 	46.9576

Solution 84 / 137...
CPU time: 1402.71	Solution:     (scale: 5.0)
Route  1():	[0;32m[0;34mD000[0;0m - [0;32mW028[0;0m[36.00] - [0;32mW012[0;0m[48.00] - [0;32mD000[0;0m 
Route  2():	[0;32m[0;34mD000[0;0m - [0;32mW029[0;0m[6.00] - [0;32mW026[0;0m[80.00] - [0;32mD000[0;0m 
Route  3():	[0;32m[0;34mD000[0;0m - [0;32mW023[0;0m[40.00] - [0;32mW022[0;0m[40.00] - [0;32mD000[0;0m 
Route  4():	[0;32m[0;34mD000[0;0m - [0;32mW030[0;0m[42.00] - [0;32mW014[0;0m[22.00] - [0;32mW027[0;0m[6.00] - [0;32mW011[0;0m[12.00] - [0;32mD000[0;0m 
Route  5():	[0;32m[0;34mD000[0;0m - [0;32mW010[0;0m[14.00] - [0;32mW002[0;0m[44.00] - [0;32mW018[0;0m[26.00] - [0;32mD000[0;0m 
Cost: 			65.7043
Cost R+: 		59.8042
Cost Scale 1: 		54.5667
Cost R+ Scale 1: 	46.9478

Solution 85 / 137...
CPU time: 1408.48	Solution:     (scale: 5.0)
Route  1():	[0;32m[0;34mD000[0;0m - [0;32mW028[0;0m[36.00] - [0;32mW012[0;0m[48.00] - [0;32mD000[0;0m 
Route  2():	[0;32m[0;34mD000[0;0m - [0;32mW029[0;0m[6.00] - [0;32mW026[0;0m[80.00] - [0;32mD000[0;0m 
Route  3():	[0;32m[0;34mD000[0;0m - [0;32mW023[0;0m[40.00] - [0;32mW022[0;0m[40.00] - [0;32mD000[0;0m 
Route  4():	[0;32m[0;34mD000[0;0m - [0;32mW030[0;0m[42.00] - [0;32mW014[0;0m[22.00] - [0;32mW011[0;0m[12.00] - [0;32mD000[0;0m 
Route  5():	[0;32m[0;34mD000[0;0m - [0;32mW010[0;0m[14.00] - [0;32mW002[0;0m[44.00] - [0;32mW018[0;0m[26.00] - [0;32mD000[0;0m 
Cost: 			65.6526
Cost R+: 		59.7671
Cost Scale 1: 		54.6217
Cost R+ Scale 1: 	46.9752

Solution 86 / 137...
CPU time: 1412.86	Solution:     (scale: 5.0)
Route  1():	[0;32m[0;34mD000[0;0m - [0;32mW028[0;0m[36.00] - [0;32mW012[0;0m[48.00] - [0;32mD000[0;0m 
Route  2():	[0;32m[0;34mD000[0;0m - [0;32mW029[0;0m[6.00] - [0;32mW026[0;0m[80.00] - [0;32mD000[0;0m 
Route  3():	[0;32m[0;34mD000[0;0m - [0;32mW030[0;0m[42.00] - [0;32mW022[0;0m[40.00] - [0;32mD000[0;0m 
Route  4():	[0;32m[0;34mD000[0;0m - [0;32mW023[0;0m[40.00] - [0;32mW014[0;0m[22.00] - [0;32mW011[0;0m[12.00] - [0;32mD000[0;0m 
Route  5():	[0;32m[0;34mD000[0;0m - [0;32mW010[0;0m[14.00] - [0;32mW002[0;0m[44.00] - [0;32mW018[0;0m[26.00] - [0;32mD000[0;0m 
Cost: 			65.6424
Cost R+: 		59.7666
Cost Scale 1: 		54.4759
Cost R+ Scale 1: 	46.9086

Solution 87 / 137...
CPU time: 1615.84	Solution:     (scale: 5.0)
Route  1():	[0;32m[0;34mD000[0;0m - [0;32mW028[0;0m[36.00] - [0;32mW012[0;0m[42.00] - [0;32mD000[0;0m 
Route  2():	[0;32m[0;34mD000[0;0m - [0;32mW026[0;0m[70.00] - [0;32mW020[0;0m[12.00] - [0;32mD000[0;0m 
Route  3():	[0;32m[0;34mD000[0;0m - [0;32mW030[0;0m[42.00] - [0;32mW022[0;0m[40.00] - [0;32mD000[0;0m 
Route  4():	[0;32m[0;34mD000[0;0m - [0;32mW023[0;0m[38.00] - [0;32mW014[0;0m[22.00] - [0;32mW011[0;0m[12.00] - [0;32mD000[0;0m 
Route  5():	[0;32m[0;34mD000[0;0m - [0;32mW010[0;0m[14.00] - [0;32mW002[0;0m[66.00] - [0;32mD000[0;0m 
Cost: 			65.4434
Cost R+: 		59.5928
Cost Scale 1: 		53.9538
Cost R+ Scale 1: 	46.4245

Solution 88 / 137...
CPU time: 1633.71	Solution:     (scale: 5.0)
Route  1():	[0;32m[0;34mD000[0;0m - [0;32mW028[0;0m[36.00] - [0;32mW012[0;0m[42.00] - [0;32mD000[0;0m 
Route  2():	[0;32m[0;34mD000[0;0m - [0;32mW026[0;0m[70.00] - [0;32mW003[0;0m[12.00] - [0;32mD000[0;0m 
Route  3():	[0;32m[0;34mD000[0;0m - [0;32mW030[0;0m[42.00] - [0;32mW022[0;0m[40.00] - [0;32mD000[0;0m 
Route  4():	[0;32m[0;34mD000[0;0m - [0;32mW023[0;0m[38.00] - [0;32mW014[0;0m[22.00] - [0;32mW011[0;0m[12.00] - [0;32mD000[0;0m 
Route  5():	[0;32m[0;34mD000[0;0m - [0;32mW010[0;0m[14.00] - [0;32mW002[0;0m[66.00] - [0;32mD000[0;0m 
Cost: 			65.2333
Cost R+: 		59.3526
Cost Scale 1: 		53.6644
Cost R+ Scale 1: 	46.1008

Solution 89 / 137...
CPU time: 1634.02	Solution:     (scale: 5.0)
Route  1():	[0;32m[0;34mD000[0;0m - [0;32mW028[0;0m[36.00] - [0;32mW012[0;0m[42.00] - [0;32mD000[0;0m 
Route  2():	[0;32m[0;34mD000[0;0m - [0;32mW026[0;0m[70.00] - [0;32mW003[0;0m[12.00] - [0;32mD000[0;0m 
Route  3():	[0;32m[0;34mD000[0;0m - [0;32mW030[0;0m[42.00] - [0;32mW022[0;0m[40.00] - [0;32mD000[0;0m 
Route  4():	[0;32m[0;34mD000[0;0m - [0;32mW023[0;0m[38.00] - [0;32mW014[0;0m[22.00] - [0;32mW011[0;0m[12.00] - [0;32mD000[0;0m 
Route  5():	[0;32m[0;34mD000[0;0m - [0;32mW010[0;0m[14.00] - [0;32mW002[0;0m[70.00] - [0;32mD000[0;0m 
Cost: 			65.0607
Cost R+: 		59.1553
Cost Scale 1: 		53.3417
Cost R+ Scale 1: 	45.7569

Solution 90 / 137...
CPU time: 1678.97	Solution:     (scale: 5.0)
Route  1():	[0;32m[0;34mD000[0;0m - [0;32mW028[0;0m[34.00] - [0;32mW012[0;0m[42.00] - [0;32mD000[0;0m 
Route  2():	[0;32m[0;34mD000[0;0m - [0;32mW026[0;0m[70.00] - [0;32mW003[0;0m[12.00] - [0;32mD000[0;0m 
Route  3():	[0;32m[0;34mD000[0;0m - [0;32mW030[0;0m[42.00] - [0;32mW022[0;0m[40.00] - [0;32mD000[0;0m 
Route  4():	[0;32m[0;34mD000[0;0m - [0;32mW023[0;0m[40.00] - [0;32mW014[0;0m[24.00] - [0;32mW011[0;0m[12.00] - [0;32mD000[0;0m 
Route  5():	[0;32m[0;34mD000[0;0m - [0;32mW010[0;0m[14.00] - [0;32mW002[0;0m[74.00] - [0;32mD000[0;0m 
Cost: 			64.9599
Cost R+: 		59.0685
Cost Scale 1: 		53.2138
Cost R+ Scale 1: 	45.6679

Solution 91 / 137...
CPU time: 1844.56	Solution:     (scale: 5.0)
Route  1():	[0;32m[0;34mD000[0;0m - [0;32mW028[0;0m[34.00] - [0;32mW012[0;0m[42.00] - [0;32mD000[0;0m 
Route  2():	[0;32m[0;34mD000[0;0m - [0;32mW026[0;0m[68.00] - [0;32mW003[0;0m[12.00] - [0;32mD000[0;0m 
Route  3():	[0;32m[0;34mD000[0;0m - [0;32mW023[0;0m[40.00] - [0;32mW022[0;0m[40.00] - [0;32mD000[0;0m 
Route  4():	[0;32m[0;34mD000[0;0m - [0;32mW030[0;0m[42.00] - [0;32mW014[0;0m[24.00] - [0;32mW011[0;0m[12.00] - [0;32mD000[0;0m 
Route  5():	[0;32m[0;34mD000[0;0m - [0;32mW010[0;0m[14.00] - [0;32mW002[0;0m[74.00] - [0;32mD000[0;0m 
Cost: 			64.8745
Cost R+: 		58.8884
Cost Scale 1: 		53.1171
Cost R+ Scale 1: 	45.3695

Solution 92 / 137...
CPU time: 1855.88	Solution:     (scale: 5.0)
Route  1():	[0;32m[0;34mD000[0;0m - [0;32mW028[0;0m[34.00] - [0;32mW012[0;0m[42.00] - [0;32mD000[0;0m 
Route  2():	[0;32m[0;34mD000[0;0m - [0;32mW026[0;0m[68.00] - [0;32mW003[0;0m[12.00] - [0;32mD000[0;0m 
Route  3():	[0;32m[0;34mD000[0;0m - [0;32mW023[0;0m[40.00] - [0;32mW022[0;0m[40.00] - [0;32mD000[0;0m 
Route  4():	[0;32m[0;34mD000[0;0m - [0;32mW030[0;0m[42.00] - [0;32mW014[0;0m[24.00] - [0;32mW011[0;0m[12.00] - [0;32mD000[0;0m 
Route  5():	[0;32m[0;34mD000[0;0m - [0;32mW010[0;0m[12.00] - [0;32mW002[0;0m[74.00] - [0;32mD000[0;0m 
Cost: 			64.8587
Cost R+: 		58.821
Cost Scale 1: 		53.262
Cost R+ Scale 1: 	45.5386

Solution 93 / 137...
CPU time: 1862.71	Solution:     (scale: 5.0)
Route  1():	[0;32m[0;34mD000[0;0m - [0;32mW028[0;0m[34.00] - [0;32mW012[0;0m[46.00] - [0;32mD000[0;0m 
Route  2():	[0;32m[0;34mD000[0;0m - [0;32mW026[0;0m[68.00] - [0;32mW003[0;0m[12.00] - [0;32mD000[0;0m 
Route  3():	[0;32m[0;34mD000[0;0m - [0;32mW023[0;0m[40.00] - [0;32mW022[0;0m[40.00] - [0;32mD000[0;0m 
Route  4():	[0;32m[0;34mD000[0;0m - [0;32mW030[0;0m[42.00] - [0;32mW014[0;0m[24.00] - [0;32mW011[0;0m[12.00] - [0;32mD000[0;0m 
Route  5():	[0;32m[0;34mD000[0;0m - [0;32mW010[0;0m[12.00] - [0;32mW002[0;0m[74.00] - [0;32mD000[0;0m 
Cost: 			64.8115
Cost R+: 		58.7749
Cost Scale 1: 		53.2627
Cost R+ Scale 1: 	45.5364

Solution 94 / 137...
CPU time: 1886.05	Solution:     (scale: 5.0)
Route  1():	[0;32m[0;34mD000[0;0m - [0;32mW022[0;0m[36.00] - [0;32mW012[0;0m[46.00] - [0;32mD000[0;0m 
Route  2():	[0;32m[0;34mD000[0;0m - [0;32mW030[0;0m[42.00] - [0;32mW014[0;0m[24.00] - [0;32mW003[0;0m[12.00] - [0;32mD000[0;0m 
Route  3():	[0;32m[0;34mD000[0;0m - [0;32mW023[0;0m[40.00] - [0;32mW028[0;0m[34.00] - [0;32mD000[0;0m 
Route  4():	[0;32m[0;34mD000[0;0m - [0;32mW011[0;0m[16.00] - [0;32mW026[0;0m[68.00] - [0;32mD000[0;0m 
Route  5():	[0;32m[0;34mD000[0;0m - [0;32mW010[0;0m[12.00] - [0;32mW002[0;0m[74.00] - [0;32mD000[0;0m 
Cost: 			64.7708
Cost R+: 		58.7621
Cost Scale 1: 		55.1496
Cost R+ Scale 1: 	47.7987

Solution 95 / 137...
CPU time: 1886.57	Solution:     (scale: 5.0)
Route  1():	[0;32m[0;34mD000[0;0m - [0;32mW022[0;0m[36.00] - [0;32mW012[0;0m[46.00] - [0;32mD000[0;0m 
Route  2():	[0;32m[0;34mD000[0;0m - [0;32mW030[0;0m[42.00] - [0;32mW014[0;0m[24.00] - [0;32mW003[0;0m[12.00] - [0;32mD000[0;0m 
Route  3():	[0;32m[0;34mD000[0;0m - [0;32mW023[0;0m[44.00] - [0;32mW028[0;0m[34.00] - [0;32mD000[0;0m 
Route  4():	[0;32m[0;34mD000[0;0m - [0;32mW011[0;0m[16.00] - [0;32mW026[0;0m[68.00] - [0;32mD000[0;0m 
Route  5():	[0;32m[0;34mD000[0;0m - [0;32mW010[0;0m[12.00] - [0;32mW002[0;0m[74.00] - [0;32mD000[0;0m 
Cost: 			64.5754
Cost R+: 		58.5213
Cost Scale 1: 		54.8741
Cost R+ Scale 1: 	47.4764

Solution 96 / 137...
CPU time: 1899.38	Solution:     (scale: 5.0)
Route  1():	[0;32m[0;34mD000[0;0m - [0;32mW022[0;0m[36.00] - [0;32mW012[0;0m[46.00] - [0;32mD000[0;0m 
Route  2():	[0;32m[0;34mD000[0;0m - [0;32mW030[0;0m[42.00] - [0;32mW014[0;0m[24.00] - [0;32mW003[0;0m[12.00] - [0;32mD000[0;0m 
Route  3():	[0;32m[0;34mD000[0;0m - [0;32mW023[0;0m[26.00] - [0;32mW028[0;0m[52.00] - [0;32mD000[0;0m 
Route  4():	[0;32m[0;34mD000[0;0m - [0;32mW011[0;0m[16.00] - [0;32mW026[0;0m[68.00] - [0;32mD000[0;0m 
Route  5():	[0;32m[0;34mD000[0;0m - [0;32mW010[0;0m[12.00] - [0;32mW002[0;0m[74.00] - [0;32mD000[0;0m 
Cost: 			64.4026
Cost R+: 		58.4843
Cost Scale 1: 		53.9396
Cost R+ Scale 1: 	46.825

Solution 97 / 137...
CPU time: 1928.48	Solution:     (scale: 5.0)
Route  1():	[0;32m[0;34mD000[0;0m - [0;32mW022[0;0m[36.00] - [0;32mW012[0;0m[46.00] - [0;32mD000[0;0m 
Route  2():	[0;32m[0;34mD000[0;0m - [0;32mW030[0;0m[42.00] - [0;32mW014[0;0m[22.00] - [0;32mW003[0;0m[12.00] - [0;32mD000[0;0m 
Route  3():	[0;32m[0;34mD000[0;0m - [0;32mW023[0;0m[26.00] - [0;32mW028[0;0m[52.00] - [0;32mD000[0;0m 
Route  4():	[0;32m[0;34mD000[0;0m - [0;32mW011[0;0m[16.00] - [0;32mW026[0;0m[70.00] - [0;32mD000[0;0m 
Route  5():	[0;32m[0;34mD000[0;0m - [0;32mW010[0;0m[12.00] - [0;32mW002[0;0m[74.00] - [0;32mD000[0;0m 
Cost: 			64.356
Cost R+: 		58.4339
Cost Scale 1: 		53.88
Cost R+ Scale 1: 	46.6505

Solution 98 / 137...
CPU time: 2149.48	Solution:     (scale: 5.0)
Route  1():	[0;32m[0;34mD000[0;0m - [0;32mW022[0;0m[36.00] - [0;32mW012[0;0m[42.00] - [0;32mD000[0;0m 
Route  2():	[0;32m[0;34mD000[0;0m - [0;32mW030[0;0m[46.00] - [0;32mW014[0;0m[22.00] - [0;32mW003[0;0m[12.00] - [0;32mD000[0;0m 
Route  3():	[0;32m[0;34mD000[0;0m - [0;32mW023[0;0m[26.00] - [0;32mW028[0;0m[52.00] - [0;32mD000[0;0m 
Route  4():	[0;32m[0;34mD000[0;0m - [0;32mW011[0;0m[16.00] - [0;32mW026[0;0m[70.00] - [0;32mD000[0;0m 
Route  5():	[0;32m[0;34mD000[0;0m - [0;32mW010[0;0m[12.00] - [0;32mW002[0;0m[74.00] - [0;32mD000[0;0m 
Cost: 			64.3283
Cost R+: 		58.3937
Cost Scale 1: 		53.8036
Cost R+ Scale 1: 	46.5656

Solution 99 / 137...
CPU time: 2201.6	Solution:     (scale: 5.0)
Route  1():	[0;32m[0;34mD000[0;0m - [0;32mW022[0;0m[36.00] - [0;32mW012[0;0m[42.00] - [0;32mD000[0;0m 
Route  2():	[0;32m[0;34mD000[0;0m - [0;32mW030[0;0m[46.00] - [0;32mW014[0;0m[22.00] - [0;32mW003[0;0m[12.00] - [0;32mD000[0;0m 
Route  3():	[0;32m[0;34mD000[0;0m - [0;32mW023[0;0m[32.00] - [0;32mW028[0;0m[48.00] - [0;32mD000[0;0m 
Route  4():	[0;32m[0;34mD000[0;0m - [0;32mW011[0;0m[16.00] - [0;32mW026[0;0m[70.00] - [0;32mD000[0;0m 
Route  5():	[0;32m[0;34mD000[0;0m - [0;32mW010[0;0m[12.00] - [0;32mW002[0;0m[74.00] - [0;32mD000[0;0m 
Cost: 			64.321
Cost R+: 		58.3619
Cost Scale 1: 		54.1009
Cost R+ Scale 1: 	46.8499

Solution 100 / 137...
CPU time: 2374.06	Solution:     (scale: 5.0)
Route  1():	[0;32m[0;34mD000[0;0m - [0;32mW022[0;0m[36.00] - [0;32mW028[0;0m[48.00] - [0;32mD000[0;0m 
Route  2():	[0;32m[0;34mD000[0;0m - [0;32mW030[0;0m[46.00] - [0;32mW014[0;0m[22.00] - [0;32mW003[0;0m[12.00] - [0;32mD000[0;0m 
Route  3():	[0;32m[0;34mD000[0;0m - [0;32mW023[0;0m[32.00] - [0;32mW012[0;0m[42.00] - [0;32mD000[0;0m 
Route  4():	[0;32m[0;34mD000[0;0m - [0;32mW011[0;0m[16.00] - [0;32mW026[0;0m[70.00] - [0;32mD000[0;0m 
Route  5():	[0;32m[0;34mD000[0;0m - [0;32mW010[0;0m[12.00] - [0;32mW002[0;0m[74.00] - [0;32mD000[0;0m 
Cost: 			64.2393
Cost R+: 		58.271
Cost Scale 1: 		54.0095
Cost R+ Scale 1: 	46.7344

Solution 101 / 137...
CPU time: 2909.31	Solution:     (scale: 5.0)
Route  1():	[0;32m[0;34mD000[0;0m - [0;32mW022[0;0m[28.00] - [0;32mW028[0;0m[56.00] - [0;32mD000[0;0m 
Route  2():	[0;32m[0;34mD000[0;0m - [0;32mW030[0;0m[46.00] - [0;32mW014[0;0m[22.00] - [0;32mW003[0;0m[12.00] - [0;32mD000[0;0m 
Route  3():	[0;32m[0;34mD000[0;0m - [0;32mW023[0;0m[32.00] - [0;32mW012[0;0m[46.00] - [0;32mD000[0;0m 
Route  4():	[0;32m[0;34mD000[0;0m - [0;32mW011[0;0m[16.00] - [0;32mW026[0;0m[70.00] - [0;32mD000[0;0m 
Route  5():	[0;32m[0;34mD000[0;0m - [0;32mW010[0;0m[12.00] - [0;32mW002[0;0m[74.00] - [0;32mD000[0;0m 
Cost: 			64.2104
Cost R+: 		58.2134
Cost Scale 1: 		53.694
Cost R+ Scale 1: 	46.4516

Solution 102 / 137...
CPU time: 2931.05	Solution:     (scale: 5.0)
Route  1():	[0;32m[0;34mD000[0;0m - [0;32mW022[0;0m[28.00] - [0;32mW028[0;0m[56.00] - [0;32mD000[0;0m 
Route  2():	[0;32m[0;34mD000[0;0m - [0;32mW030[0;0m[44.00] - [0;32mW014[0;0m[22.00] - [0;32mW003[0;0m[12.00] - [0;32mD000[0;0m 
Route  3():	[0;32m[0;34mD000[0;0m - [0;32mW023[0;0m[32.00] - [0;32mW012[0;0m[46.00] - [0;32mD000[0;0m 
Route  4():	[0;32m[0;34mD000[0;0m - [0;32mW011[0;0m[16.00] - [0;32mW026[0;0m[70.00] - [0;32mD000[0;0m 
Route  5():	[0;32m[0;34mD000[0;0m - [0;32mW010[0;0m[12.00] - [0;32mW002[0;0m[74.00] - [0;32mD000[0;0m 
Cost: 			64.2015
Cost R+: 		58.1545
Cost Scale 1: 		53.7087
Cost R+ Scale 1: 	46.4389

Solution 103 / 137...
CPU time: 2994.82	Solution:     (scale: 5.0)
Route  1():	[0;32m[0;34mD000[0;0m - [0;32mW022[0;0m[28.00] - [0;32mW028[0;0m[56.00] - [0;32mD000[0;0m 
Route  2():	[0;32m[0;34mD000[0;0m - [0;32mW030[0;0m[44.00] - [0;32mW014[0;0m[24.00] - [0;32mW003[0;0m[12.00] - [0;32mD000[0;0m 
Route  3():	[0;32m[0;34mD000[0;0m - [0;32mW023[0;0m[32.00] - [0;32mW012[0;0m[46.00] - [0;32mD000[0;0m 
Route  4():	[0;32m[0;34mD000[0;0m - [0;32mW011[0;0m[16.00] - [0;32mW026[0;0m[70.00] - [0;32mD000[0;0m 
Route  5():	[0;32m[0;34mD000[0;0m - [0;32mW010[0;0m[12.00] - [0;32mW002[0;0m[74.00] - [0;32mD000[0;0m 
Cost: 			64.1532
Cost R+: 		58.1524
Cost Scale 1: 		53.5542
Cost R+ Scale 1: 	46.2975

Solution 104 / 137...
CPU time: 3126.03	Solution:     (scale: 5.0)
Route  1():	[0;32m[0;34mD000[0;0m - [0;32mW022[0;0m[28.00] - [0;32mW028[0;0m[56.00] - [0;32mD000[0;0m 
Route  2():	[0;32m[0;34mD000[0;0m - [0;32mW030[0;0m[44.00] - [0;32mW014[0;0m[24.00] - [0;32mW003[0;0m[12.00] - [0;32mD000[0;0m 
Route  3():	[0;32m[0;34mD000[0;0m - [0;32mW023[0;0m[32.00] - [0;32mW012[0;0m[46.00] - [0;32mD000[0;0m 
Route  4():	[0;32m[0;34mD000[0;0m - [0;32mW026[0;0m[88.00] - [0;32mD000[0;0m 
Route  5():	[0;32m[0;34mD000[0;0m - [0;32mW010[0;0m[2.00] - [0;32mW002[0;0m[74.00] - [0;32mD000[0;0m 
Cost: 			64.0368
Cost R+: 		57.9604
Cost Scale 1: 		52.3925
Cost R+ Scale 1: 	45.1425

Solution 105 / 137...
CPU time: 3128.36	Solution:     (scale: 5.0)
Route  1():	[0;32m[0;34mD000[0;0m - [0;32mW022[0;0m[28.00] - [0;32mW028[0;0m[56.00] - [0;32mD000[0;0m 
Route  2():	[0;32m[0;34mD000[0;0m - [0;32mW030[0;0m[44.00] - [0;32mW014[0;0m[24.00] - [0;32mW003[0;0m[12.00] - [0;32mD000[0;0m 
Route  3():	[0;32m[0;34mD000[0;0m - [0;32mW023[0;0m[32.00] - [0;32mW012[0;0m[48.00] - [0;32mD000[0;0m 
Route  4():	[0;32m[0;34mD000[0;0m - [0;32mW026[0;0m[88.00] - [0;32mD000[0;0m 
Route  5():	[0;32m[0;34mD000[0;0m - [0;32mW010[0;0m[2.00] - [0;32mW002[0;0m[74.00] - [0;32mD000[0;0m 
Cost: 			64.0214
Cost R+: 		57.9507
Cost Scale 1: 		52.3828
Cost R+ Scale 1: 	45.144

Solution 106 / 137...
CPU time: 3136.15	Solution:     (scale: 5.0)
Route  1():	[0;32m[0;34mD000[0;0m - [0;32mW022[0;0m[28.00] - [0;32mW028[0;0m[56.00] - [0;32mD000[0;0m 
Route  2():	[0;32m[0;34mD000[0;0m - [0;32mW030[0;0m[44.00] - [0;32mW014[0;0m[24.00] - [0;32mW003[0;0m[12.00] - [0;32mD000[0;0m 
Route  3():	[0;32m[0;34mD000[0;0m - [0;32mW023[0;0m[32.00] - [0;32mW012[0;0m[48.00] - [0;32mD000[0;0m 
Route  4():	[0;32m[0;34mD000[0;0m - [0;32mW026[0;0m[88.00] - [0;32mD000[0;0m 
Route  5():	[0;32m[0;34mD000[0;0m - [0;32mW010[0;0m[6.00] - [0;32mW002[0;0m[70.00] - [0;32mD000[0;0m 
Cost: 			63.9479
Cost R+: 		57.9023
Cost Scale 1: 		52.4607
Cost R+ Scale 1: 	45.2104

Solution 107 / 137...
CPU time: 3163.99	Solution:     (scale: 5.0)
Route  1():	[0;32m[0;34mD000[0;0m - [0;32mW022[0;0m[28.00] - [0;32mW028[0;0m[50.00] - [0;32mD000[0;0m 
Route  2():	[0;32m[0;34mD000[0;0m - [0;32mW030[0;0m[44.00] - [0;32mW014[0;0m[24.00] - [0;32mW003[0;0m[12.00] - [0;32mD000[0;0m 
Route  3():	[0;32m[0;34mD000[0;0m - [0;32mW023[0;0m[32.00] - [0;32mW012[0;0m[48.00] - [0;32mD000[0;0m 
Route  4():	[0;32m[0;34mD000[0;0m - [0;32mW026[0;0m[88.00] - [0;32mD000[0;0m 
Route  5():	[0;32m[0;34mD000[0;0m - [0;32mW010[0;0m[12.00] - [0;32mW002[0;0m[70.00] - [0;32mD000[0;0m 
Cost: 			63.7977
Cost R+: 		57.777
Cost Scale 1: 		52.4402
Cost R+ Scale 1: 	45.0606

Solution 108 / 137...
CPU time: 3353.57	Solution:     (scale: 5.0)
Route  1():	[0;32m[0;34mD000[0;0m - [0;32mW022[0;0m[28.00] - [0;32mW021[0;0m[12.00] - [0;32mW028[0;0m[38.00] - [0;32mD000[0;0m 
Route  2():	[0;32m[0;34mD000[0;0m - [0;32mW030[0;0m[44.00] - [0;32mW014[0;0m[24.00] - [0;32mW003[0;0m[12.00] - [0;32mD000[0;0m 
Route  3():	[0;32m[0;34mD000[0;0m - [0;32mW023[0;0m[32.00] - [0;32mW012[0;0m[48.00] - [0;32mD000[0;0m 
Route  4():	[0;32m[0;34mD000[0;0m - [0;32mW026[0;0m[86.00] - [0;32mD000[0;0m 
Route  5():	[0;32m[0;34mD000[0;0m - [0;32mW002[0;0m[90.00] - [0;32mD000[0;0m 
Cost: 			63.7302
Cost R+: 		57.617
Cost Scale 1: 		52.7504
Cost R+ Scale 1: 	45.7544

Solution 109 / 137...
CPU time: 3607.22	Solution:     (scale: 2.0)
Route  1():	[0;32m[0;34mD000[0;0m - [0;32mW022[0;0m[70.00] - [0;32mW021[0;0m[30.00] - [0;32mW028[0;0m[95.00] - [0;32mD000[0;0m 
Route  2():	[0;32m[0;34mD000[0;0m - [0;32mW030[0;0m[110.00] - [0;32mW014[0;0m[60.00] - [0;32mW003[0;0m[30.00] - [0;32mD000[0;0m 
Route  3():	[0;32m[0;34mD000[0;0m - [0;32mW023[0;0m[80.00] - [0;32mW012[0;0m[120.00] - [0;32mD000[0;0m 
Route  4():	[0;32m[0;34mD000[0;0m - [0;32mW026[0;0m[215.00] - [0;32mD000[0;0m 
Route  5():	[0;32m[0;34mD000[0;0m - [0;32mW002[0;0m[225.00] - [0;32mD000[0;0m 
Cost: 			57.4378
Cost R+: 		50.6777
Cost Scale 1: 		52.7504
Cost R+ Scale 1: 	45.7544

Solution 110 / 137...
CPU time: 3621.67	Solution:     (scale: 2.0)
Route  1():	[0;32m[0;34mD000[0;0m - [0;32mW028[0;0m[95.00] - [0;32mW021[0;0m[30.00] - [0;32mW022[0;0m[70.00] - [0;32mD000[0;0m 
Route  2():	[0;32m[0;34mD000[0;0m - [0;32mW030[0;0m[110.00] - [0;32mW014[0;0m[60.00] - [0;32mW003[0;0m[30.00] - [0;32mD000[0;0m 
Route  3():	[0;32m[0;34mD000[0;0m - [0;32mW023[0;0m[80.00] - [0;32mW012[0;0m[120.00] - [0;32mD000[0;0m 
Route  4():	[0;32m[0;34mD000[0;0m - [0;32mW026[0;0m[215.00] - [0;32mD000[0;0m 
Route  5():	[0;32m[0;34mD000[0;0m - [0;32mW002[0;0m[225.00] - [0;32mD000[0;0m 
Cost: 			57.1688
Cost R+: 		49.9729
Cost Scale 1: 		51.9649
Cost R+ Scale 1: 	44.4681

Solution 111 / 137...
CPU time: 3997.56	Solution:     (scale: 2.0)
Route  1():	[0;32m[0;34mD000[0;0m - [0;32mW021[0;0m[30.00] - [0;32mW028[0;0m[95.00] - [0;32mW022[0;0m[70.00] - [0;32mD000[0;0m 
Route  2():	[0;32m[0;34mD000[0;0m - [0;32mW030[0;0m[110.00] - [0;32mW014[0;0m[60.00] - [0;32mW003[0;0m[30.00] - [0;32mD000[0;0m 
Route  3():	[0;32m[0;34mD000[0;0m - [0;32mW023[0;0m[80.00] - [0;32mW012[0;0m[120.00] - [0;32mD000[0;0m 
Route  4():	[0;32m[0;34mD000[0;0m - [0;32mW026[0;0m[215.00] - [0;32mD000[0;0m 
Route  5():	[0;32m[0;34mD000[0;0m - [0;32mW002[0;0m[225.00] - [0;32mD000[0;0m 
Cost: 			56.9078
Cost R+: 		49.8466
Cost Scale 1: 		51.7705
Cost R+ Scale 1: 	44.4024

Solution 112 / 137...
CPU time: 4310.02	Solution:     (scale: 2.0)
Route  1():	[0;32m[0;34mD000[0;0m - [0;32mW021[0;0m[30.00] - [0;32mW028[0;0m[150.00] - [0;32mW022[0;0m[15.00] - [0;32mD000[0;0m 
Route  2():	[0;32m[0;34mD000[0;0m - [0;32mW030[0;0m[110.00] - [0;32mW014[0;0m[55.00] - [0;32mW003[0;0m[35.00] - [0;32mD000[0;0m 
Route  3():	[0;32m[0;34mD000[0;0m - [0;32mW023[0;0m[80.00] - [0;32mW012[0;0m[120.00] - [0;32mD000[0;0m 
Route  4():	[0;32m[0;34mD000[0;0m - [0;32mW026[0;0m[215.00] - [0;32mD000[0;0m 
Route  5():	[0;32m[0;34mD000[0;0m - [0;32mW002[0;0m[225.00] - [0;32mD000[0;0m 
Cost: 			56.8398
Cost R+: 		49.9037
Cost Scale 1: 		51.7219
Cost R+ Scale 1: 	44.5139

Solution 113 / 137...
CPU time: 4334.54	Solution:     (scale: 2.0)
Route  1():	[0;32m[0;34mD000[0;0m - [0;32mW021[0;0m[30.00] - [0;32mW022[0;0m[15.00] - [0;32mW028[0;0m[150.00] - [0;32mD000[0;0m 
Route  2():	[0;32m[0;34mD000[0;0m - [0;32mW030[0;0m[110.00] - [0;32mW014[0;0m[55.00] - [0;32mW003[0;0m[35.00] - [0;32mD000[0;0m 
Route  3():	[0;32m[0;34mD000[0;0m - [0;32mW023[0;0m[80.00] - [0;32mW012[0;0m[120.00] - [0;32mD000[0;0m 
Route  4():	[0;32m[0;34mD000[0;0m - [0;32mW026[0;0m[215.00] - [0;32mD000[0;0m 
Route  5():	[0;32m[0;34mD000[0;0m - [0;32mW002[0;0m[225.00] - [0;32mD000[0;0m 
Cost: 			56.6151
Cost R+: 		49.8458
Cost Scale 1: 		51.7138
Cost R+ Scale 1: 	44.7089

Solution 114 / 137...
CPU time: 4343.14	Solution:     (scale: 2.0)
Route  1():	[0;32m[0;34mD000[0;0m - [0;32mW021[0;0m[30.00] - [0;32mW022[0;0m[15.00] - [0;32mW028[0;0m[165.00] - [0;32mD000[0;0m 
Route  2():	[0;32m[0;34mD000[0;0m - [0;32mW030[0;0m[110.00] - [0;32mW014[0;0m[55.00] - [0;32mW003[0;0m[35.00] - [0;32mD000[0;0m 
Route  3():	[0;32m[0;34mD000[0;0m - [0;32mW023[0;0m[80.00] - [0;32mW012[0;0m[120.00] - [0;32mD000[0;0m 
Route  4():	[0;32m[0;34mD000[0;0m - [0;32mW026[0;0m[215.00] - [0;32mD000[0;0m 
Route  5():	[0;32m[0;34mD000[0;0m - [0;32mW002[0;0m[225.00] - [0;32mD000[0;0m 
Cost: 			56.2214
Cost R+: 		49.4672
Cost Scale 1: 		51.248
Cost R+ Scale 1: 	44.2213

Solution 115 / 137...
CPU time: 4374.76	Solution:     (scale: 2.0)
Route  1():	[0;32m[0;34mD000[0;0m - [0;32mW021[0;0m[30.00] - [0;32mW028[0;0m[165.00] - [0;32mW022[0;0m[15.00] - [0;32mD000[0;0m 
Route  2():	[0;32m[0;34mD000[0;0m - [0;32mW030[0;0m[110.00] - [0;32mW014[0;0m[55.00] - [0;32mW003[0;0m[35.00] - [0;32mD000[0;0m 
Route  3():	[0;32m[0;34mD000[0;0m - [0;32mW023[0;0m[80.00] - [0;32mW012[0;0m[120.00] - [0;32mD000[0;0m 
Route  4():	[0;32m[0;34mD000[0;0m - [0;32mW026[0;0m[215.00] - [0;32mD000[0;0m 
Route  5():	[0;32m[0;34mD000[0;0m - [0;32mW002[0;0m[225.00] - [0;32mD000[0;0m 
Cost: 			56.166
Cost R+: 		49.3657
Cost Scale 1: 		51.1844
Cost R+ Scale 1: 	44.0681

Solution 116 / 137...
CPU time: 5139.79	Solution:     (scale: 2.0)
Route  1():	[0;32m[0;34mD000[0;0m - [0;32mW021[0;0m[30.00] - [0;32mW028[0;0m[165.00] - [0;32mW022[0;0m[15.00] - [0;32mD000[0;0m 
Route  2():	[0;32m[0;34mD000[0;0m - [0;32mW030[0;0m[110.00] - [0;32mW014[0;0m[55.00] - [0;32mW003[0;0m[35.00] - [0;32mD000[0;0m 
Route  3():	[0;32m[0;34mD000[0;0m - [0;32mW023[0;0m[80.00] - [0;32mW012[0;0m[120.00] - [0;32mD000[0;0m 
Route  4():	[0;32m[0;34mD000[0;0m - [0;32mW026[0;0m[215.00] - [0;32mD000[0;0m 
Route  5():	[0;32m[0;34mD000[0;0m - [0;32mW002[0;0m[235.00] - [0;32mD000[0;0m 
Cost: 			56.0717
Cost R+: 		49.2615
Cost Scale 1: 		50.9502
Cost R+ Scale 1: 	43.8324

Solution 117 / 137...
CPU time: 5299.07	Solution:     (scale: 2.0)
Route  1():	[0;32m[0;34mD000[0;0m - [0;32mW021[0;0m[30.00] - [0;32mW028[0;0m[165.00] - [0;32mW022[0;0m[15.00] - [0;32mD000[0;0m 
Route  2():	[0;32m[0;34mD000[0;0m - [0;32mW030[0;0m[110.00] - [0;32mW014[0;0m[55.00] - [0;32mW003[0;0m[35.00] - [0;32mD000[0;0m 
Route  3():	[0;32m[0;34mD000[0;0m - [0;32mW023[0;0m[75.00] - [0;32mW012[0;0m[120.00] - [0;32mD000[0;0m 
Route  4():	[0;32m[0;34mD000[0;0m - [0;32mW026[0;0m[220.00] - [0;32mD000[0;0m 
Route  5():	[0;32m[0;34mD000[0;0m - [0;32mW002[0;0m[235.00] - [0;32mD000[0;0m 
Cost: 			56.0376
Cost R+: 		49.2058
Cost Scale 1: 		50.7891
Cost R+ Scale 1: 	43.6858

Solution 118 / 137...
CPU time: 5637.96	Solution:     (scale: 2.0)
Route  1():	[0;32m[0;34mD000[0;0m - [0;32mW021[0;0m[75.00] - [0;32mW028[0;0m[135.00] - [0;32mD000[0;0m 
Route  2():	[0;32m[0;34mD000[0;0m - [0;32mW014[0;0m[65.00] - [0;32mW030[0;0m[110.00] - [0;32mW003[0;0m[5.00] - [0;32mD000[0;0m 
Route  3():	[0;32m[0;34mD000[0;0m - [0;32mW023[0;0m[65.00] - [0;32mW012[0;0m[120.00] - [0;32mD000[0;0m 
Route  4():	[0;32m[0;34mD000[0;0m - [0;32mW026[0;0m[220.00] - [0;32mD000[0;0m 
Route  5():	[0;32m[0;34mD000[0;0m - [0;32mW002[0;0m[235.00] - [0;32mD000[0;0m 
Cost: 			56.0252
Cost R+: 		50.0249
Cost Scale 1: 		50.6086
Cost R+ Scale 1: 	44.5757

Solution 119 / 137...
CPU time: 5643.09	Solution:     (scale: 2.0)
Route  1():	[0;32m[0;34mD000[0;0m - [0;32mW021[0;0m[75.00] - [0;32mW028[0;0m[135.00] - [0;32mD000[0;0m 
Route  2():	[0;32m[0;34mD000[0;0m - [0;32mW014[0;0m[65.00] - [0;32mW030[0;0m[130.00] - [0;32mW003[0;0m[5.00] - [0;32mD000[0;0m 
Route  3():	[0;32m[0;34mD000[0;0m - [0;32mW023[0;0m[65.00] - [0;32mW012[0;0m[120.00] - [0;32mD000[0;0m 
Route  4():	[0;32m[0;34mD000[0;0m - [0;32mW026[0;0m[220.00] - [0;32mD000[0;0m 
Route  5():	[0;32m[0;34mD000[0;0m - [0;32mW002[0;0m[235.00] - [0;32mD000[0;0m 
Cost: 			55.9694
Cost R+: 		49.97
Cost Scale 1: 		50.5557
Cost R+ Scale 1: 	44.5283

Solution 120 / 137...
CPU time: 5701.54	Solution:     (scale: 2.0)
Route  1():	[0;32m[0;34mD000[0;0m - [0;32mW021[0;0m[75.00] - [0;32mW028[0;0m[135.00] - [0;32mD000[0;0m 
Route  2():	[0;32m[0;34mD000[0;0m - [0;32mW014[0;0m[65.00] - [0;32mW030[0;0m[125.00] - [0;32mW003[0;0m[5.00] - [0;32mD000[0;0m 
Route  3():	[0;32m[0;34mD000[0;0m - [0;32mW023[0;0m[80.00] - [0;32mW012[0;0m[120.00] - [0;32mD000[0;0m 
Route  4():	[0;32m[0;34mD000[0;0m - [0;32mW026[0;0m[220.00] - [0;32mD000[0;0m 
Route  5():	[0;32m[0;34mD000[0;0m - [0;32mW002[0;0m[235.00] - [0;32mD000[0;0m 
Cost: 			55.7573
Cost R+: 		49.6691
Cost Scale 1: 		50.3802
Cost R+ Scale 1: 	44.2441

Solution 121 / 137...
CPU time: 5823.04	Solution:     (scale: 2.0)
Route  1():	[0;32m[0;34mD000[0;0m - [0;32mW021[0;0m[75.00] - [0;32mW028[0;0m[135.00] - [0;32mD000[0;0m 
Route  2():	[0;32m[0;34mD000[0;0m - [0;32mW014[0;0m[65.00] - [0;32mW030[0;0m[120.00] - [0;32mW003[0;0m[10.00] - [0;32mD000[0;0m 
Route  3():	[0;32m[0;34mD000[0;0m - [0;32mW023[0;0m[80.00] - [0;32mW012[0;0m[120.00] - [0;32mD000[0;0m 
Route  4():	[0;32m[0;34mD000[0;0m - [0;32mW026[0;0m[220.00] - [0;32mD000[0;0m 
Route  5():	[0;32m[0;34mD000[0;0m - [0;32mW002[0;0m[235.00] - [0;32mD000[0;0m 
Cost: 			55.7214
Cost R+: 		49.649
Cost Scale 1: 		50.3406
Cost R+ Scale 1: 	44.221

Solution 122 / 137...
CPU time: 5877.89	Solution:     (scale: 2.0)
Route  1():	[0;32m[0;34mD000[0;0m - [0;32mW021[0;0m[75.00] - [0;32mW028[0;0m[135.00] - [0;32mD000[0;0m 
Route  2():	[0;32m[0;34mD000[0;0m - [0;32mW003[0;0m[20.00] - [0;32mW014[0;0m[65.00] - [0;32mW030[0;0m[120.00] - [0;32mD000[0;0m 
Route  3():	[0;32m[0;34mD000[0;0m - [0;32mW023[0;0m[80.00] - [0;32mW012[0;0m[120.00] - [0;32mD000[0;0m 
Route  4():	[0;32m[0;34mD000[0;0m - [0;32mW026[0;0m[220.00] - [0;32mD000[0;0m 
Route  5():	[0;32m[0;34mD000[0;0m - [0;32mW002[0;0m[230.00] - [0;32mD000[0;0m 
Cost: 			55.688
Cost R+: 		49.6808
Cost Scale 1: 		50.4205
Cost R+ Scale 1: 	44.3382

Solution 123 / 137...
CPU time: 6308.39	Solution:     (scale: 2.0)
Route  1():	[0;32m[0;34mD000[0;0m - [0;32mW021[0;0m[35.00] - [0;32mW028[0;0m[175.00] - [0;32mD000[0;0m 
Route  2():	[0;32m[0;34mD000[0;0m - [0;32mW030[0;0m[110.00] - [0;32mW014[0;0m[105.00] - [0;32mD000[0;0m 
Route  3():	[0;32m[0;34mD000[0;0m - [0;32mW023[0;0m[80.00] - [0;32mW012[0;0m[120.00] - [0;32mD000[0;0m 
Route  4():	[0;32m[0;34mD000[0;0m - [0;32mW026[0;0m[220.00] - [0;32mD000[0;0m 
Route  5():	[0;32m[0;34mD000[0;0m - [0;32mW002[0;0m[225.00] - [0;32mD000[0;0m 
Cost: 			55.4704
Cost R+: 		48.5836
Cost Scale 1: 		50.3602
Cost R+ Scale 1: 	43.2716

Solution 124 / 137...
CPU time: 7222.4	Solution:     (scale: 1.0)
Route  1():	[0;32m[0;34mD000[0;0m - [0;32mW021[0;0m[70.00] - [0;32mW028[0;0m[350.00] - [0;32mD000[0;0m 
Route  2():	[0;32m[0;34mD000[0;0m - [0;32mW030[0;0m[220.00] - [0;32mW014[0;0m[210.00] - [0;32mD000[0;0m 
Route  3():	[0;32m[0;34mD000[0;0m - [0;32mW023[0;0m[160.00] - [0;32mW012[0;0m[240.00] - [0;32mD000[0;0m 
Route  4():	[0;32m[0;34mD000[0;0m - [0;32mW026[0;0m[440.00] - [0;32mD000[0;0m 
Route  5():	[0;32m[0;34mD000[0;0m - [0;32mW002[0;0m[450.00] - [0;32mD000[0;0m 
Cost: 			50.3602
Cost R+: 		43.2716
Cost Scale 1: 		50.3602
Cost R+ Scale 1: 	43.2716

Solution 125 / 137...
CPU time: 8286.03	Solution:     (scale: 1.0)
Route  1():	[0;32m[0;34mD000[0;0m - [0;32mW014[0;0m[210.00] - [0;32mW012[0;0m[190.00] - [0;32mD000[0;0m 
Route  2():	[0;32m[0;34mD000[0;0m - [0;32mW028[0;0m[440.00] - [0;32mD000[0;0m 
Route  3():	[0;32m[0;34mD000[0;0m - [0;32mW023[0;0m[120.00] - [0;32mW021[0;0m[160.00] - [0;32mW013[0;0m[100.00] - [0;32mD000[0;0m 
Route  4():	[0;32m[0;34mD000[0;0m - [0;32mW026[0;0m[400.00] - [0;32mD000[0;0m 
Route  5():	[0;32m[0;34mD000[0;0m - [0;32mW002[0;0m[450.00] - [0;32mD000[0;0m 
Cost: 			50.3345
Cost R+: 		44.375
Cost Scale 1: 		50.3345
Cost R+ Scale 1: 	44.375

Solution 126 / 137...
CPU time: 8369.69	Solution:     (scale: 1.0)
Route  1():	[0;32m[0;34mD000[0;0m - [0;32mW014[0;0m[210.00] - [0;32mW012[0;0m[190.00] - [0;32mD000[0;0m 
Route  2():	[0;32m[0;34mD000[0;0m - [0;32mW028[0;0m[440.00] - [0;32mD000[0;0m 
Route  3():	[0;32m[0;34mD000[0;0m - [0;32mW021[0;0m[160.00] - [0;32mW023[0;0m[120.00] - [0;32mW013[0;0m[100.00] - [0;32mD000[0;0m 
Route  4():	[0;32m[0;34mD000[0;0m - [0;32mW026[0;0m[400.00] - [0;32mD000[0;0m 
Route  5():	[0;32m[0;34mD000[0;0m - [0;32mW002[0;0m[450.00] - [0;32mD000[0;0m 
Cost: 			49.8789
Cost R+: 		44.001
Cost Scale 1: 		49.8789
Cost R+ Scale 1: 	44.001

Solution 127 / 137...
CPU time: 8386.73	Solution:     (scale: 1.0)
Route  1():	[0;32m[0;34mD000[0;0m - [0;32mW014[0;0m[210.00] - [0;32mW012[0;0m[190.00] - [0;32mD000[0;0m 
Route  2():	[0;32m[0;34mD000[0;0m - [0;32mW028[0;0m[440.00] - [0;32mD000[0;0m 
Route  3():	[0;32m[0;34mD000[0;0m - [0;32mW021[0;0m[160.00] - [0;32mW023[0;0m[120.00] - [0;32mW013[0;0m[100.00] - [0;32mD000[0;0m 
Route  4():	[0;32m[0;34mD000[0;0m - [0;32mW026[0;0m[430.00] - [0;32mD000[0;0m 
Route  5():	[0;32m[0;34mD000[0;0m - [0;32mW002[0;0m[440.00] - [0;32mD000[0;0m 
Cost: 			49.7288
Cost R+: 		43.8474
Cost Scale 1: 		49.7288
Cost R+ Scale 1: 	43.8474

Solution 128 / 137...
CPU time: 8420.15	Solution:     (scale: 1.0)
Route  1():	[0;32m[0;34mD000[0;0m - [0;32mW014[0;0m[210.00] - [0;32mW012[0;0m[190.00] - [0;32mD000[0;0m 
Route  2():	[0;32m[0;34mD000[0;0m - [0;32mW028[0;0m[440.00] - [0;32mD000[0;0m 
Route  3():	[0;32m[0;34mD000[0;0m - [0;32mW021[0;0m[160.00] - [0;32mW013[0;0m[100.00] - [0;32mW023[0;0m[120.00] - [0;32mD000[0;0m 
Route  4():	[0;32m[0;34mD000[0;0m - [0;32mW026[0;0m[430.00] - [0;32mD000[0;0m 
Route  5():	[0;32m[0;34mD000[0;0m - [0;32mW002[0;0m[440.00] - [0;32mD000[0;0m 
Cost: 			49.6123
Cost R+: 		43.7664
Cost Scale 1: 		49.6123
Cost R+ Scale 1: 	43.7664

Solution 129 / 137...
CPU time: 8526.09	Solution:     (scale: 1.0)
Route  1():	[0;32m[0;34mD000[0;0m - [0;32mW014[0;0m[210.00] - [0;32mW012[0;0m[190.00] - [0;32mD000[0;0m 
Route  2():	[0;32m[0;34mD000[0;0m - [0;32mW028[0;0m[430.00] - [0;32mD000[0;0m 
Route  3():	[0;32m[0;34mD000[0;0m - [0;32mW021[0;0m[160.00] - [0;32mW013[0;0m[100.00] - [0;32mW023[0;0m[120.00] - [0;32mD000[0;0m 
Route  4():	[0;32m[0;34mD000[0;0m - [0;32mW026[0;0m[440.00] - [0;32mD000[0;0m 
Route  5():	[0;32m[0;34mD000[0;0m - [0;32mW002[0;0m[440.00] - [0;32mD000[0;0m 
Cost: 			49.5837
Cost R+: 		43.6908
Cost Scale 1: 		49.5837
Cost R+ Scale 1: 	43.6908

Solution 130 / 137...
CPU time: 8709.47	Solution:     (scale: 1.0)
Route  1():	[0;32m[0;34mD000[0;0m - [0;32mW014[0;0m[200.00] - [0;32mW012[0;0m[200.00] - [0;32mD000[0;0m 
Route  2():	[0;32m[0;34mD000[0;0m - [0;32mW028[0;0m[430.00] - [0;32mD000[0;0m 
Route  3():	[0;32m[0;34mD000[0;0m - [0;32mW021[0;0m[160.00] - [0;32mW013[0;0m[100.00] - [0;32mW023[0;0m[120.00] - [0;32mD000[0;0m 
Route  4():	[0;32m[0;34mD000[0;0m - [0;32mW026[0;0m[440.00] - [0;32mD000[0;0m 
Route  5():	[0;32m[0;34mD000[0;0m - [0;32mW002[0;0m[440.00] - [0;32mD000[0;0m 
Cost: 			49.4884
Cost R+: 		43.5758
Cost Scale 1: 		49.4884
Cost R+ Scale 1: 	43.5758

Solution 131 / 137...
CPU time: 8771.58	Solution:     (scale: 1.0)
Route  1():	[0;32m[0;34mD000[0;0m - [0;32mW014[0;0m[200.00] - [0;32mW012[0;0m[190.00] - [0;32mD000[0;0m 
Route  2():	[0;32m[0;34mD000[0;0m - [0;32mW028[0;0m[440.00] - [0;32mD000[0;0m 
Route  3():	[0;32m[0;34mD000[0;0m - [0;32mW021[0;0m[160.00] - [0;32mW013[0;0m[100.00] - [0;32mW023[0;0m[120.00] - [0;32mD000[0;0m 
Route  4():	[0;32m[0;34mD000[0;0m - [0;32mW026[0;0m[440.00] - [0;32mD000[0;0m 
Route  5():	[0;32m[0;34mD000[0;0m - [0;32mW002[0;0m[440.00] - [0;32mD000[0;0m 
Cost: 			49.4018
Cost R+: 		43.5142
Cost Scale 1: 		49.4018
Cost R+ Scale 1: 	43.5142

Solution 132 / 137...
CPU time: 9527.1	Solution:     (scale: 1.0)
Route  1():	[0;32m[0;34mD000[0;0m - [0;32mW014[0;0m[200.00] - [0;32mW012[0;0m[190.00] - [0;32mD000[0;0m 
Route  2():	[0;32m[0;34mD000[0;0m - [0;32mW028[0;0m[440.00] - [0;32mD000[0;0m 
Route  3():	[0;32m[0;34mD000[0;0m - [0;32mW021[0;0m[160.00] - [0;32mW013[0;0m[100.00] - [0;32mW023[0;0m[120.00] - [0;32mD000[0;0m 
Route  4():	[0;32m[0;34mD000[0;0m - [0;32mW026[0;0m[440.00] - [0;32mD000[0;0m 
Route  5():	[0;32m[0;34mD000[0;0m - [0;32mW002[0;0m[460.00] - [0;32mD000[0;0m 
Cost: 			49.2951
Cost R+: 		43.409
Cost Scale 1: 		49.2951
Cost R+ Scale 1: 	43.409

Solution 133 / 137...
CPU time: 9533.88	Solution:     (scale: 1.0)
Route  1():	[0;32m[0;34mD000[0;0m - [0;32mW014[0;0m[200.00] - [0;32mW012[0;0m[190.00] - [0;32mD000[0;0m 
Route  2():	[0;32m[0;34mD000[0;0m - [0;32mW028[0;0m[440.00] - [0;32mD000[0;0m 
Route  3():	[0;32m[0;34mD000[0;0m - [0;32mW021[0;0m[230.00] - [0;32mW013[0;0m[100.00] - [0;32mW023[0;0m[50.00] - [0;32mD000[0;0m 
Route  4():	[0;32m[0;34mD000[0;0m - [0;32mW026[0;0m[440.00] - [0;32mD000[0;0m 
Route  5():	[0;32m[0;34mD000[0;0m - [0;32mW002[0;0m[460.00] - [0;32mD000[0;0m 
Cost: 			49.016
Cost R+: 		43.6765
Cost Scale 1: 		49.016
Cost R+ Scale 1: 	43.6765

Solution 134 / 137...
CPU time: 9821.37	Solution:     (scale: 1.0)
Route  1():	[0;32m[0;34mD000[0;0m - [0;32mW014[0;0m[220.00] - [0;32mW012[0;0m[190.00] - [0;32mD000[0;0m 
Route  2():	[0;32m[0;34mD000[0;0m - [0;32mW028[0;0m[440.00] - [0;32mD000[0;0m 
Route  3():	[0;32m[0;34mD000[0;0m - [0;32mW013[0;0m[40.00] - [0;32mW021[0;0m[300.00] - [0;32mW023[0;0m[50.00] - [0;32mD000[0;0m 
Route  4():	[0;32m[0;34mD000[0;0m - [0;32mW026[0;0m[440.00] - [0;32mD000[0;0m 
Route  5():	[0;32m[0;34mD000[0;0m - [0;32mW002[0;0m[460.00] - [0;32mD000[0;0m 
Cost: 			48.2757
Cost R+: 		42.6885
Cost Scale 1: 		48.2757
Cost R+ Scale 1: 	42.6885

Solution 135 / 137...
CPU time: 9952.16	Solution:     (scale: 1.0)
Route  1():	[0;32m[0;34mD000[0;0m - [0;32mW014[0;0m[220.00] - [0;32mW012[0;0m[190.00] - [0;32mD000[0;0m 
Route  2():	[0;32m[0;34mD000[0;0m - [0;32mW028[0;0m[440.00] - [0;32mD000[0;0m 
Route  3():	[0;32m[0;34mD000[0;0m - [0;32mW021[0;0m[300.00] - [0;32mW013[0;0m[40.00] - [0;32mW023[0;0m[50.00] - [0;32mD000[0;0m 
Route  4():	[0;32m[0;34mD000[0;0m - [0;32mW026[0;0m[440.00] - [0;32mD000[0;0m 
Route  5():	[0;32m[0;34mD000[0;0m - [0;32mW002[0;0m[460.00] - [0;32mD000[0;0m 
Cost: 			48.0046
Cost R+: 		42.6112
Cost Scale 1: 		48.0046
Cost R+ Scale 1: 	42.6112

Solution 136 / 137...
CPU time: 9974.6	Solution:     (scale: 1.0)
Route  1():	[0;32m[0;34mD000[0;0m - [0;32mW014[0;0m[220.00] - [0;32mW012[0;0m[190.00] - [0;32mD000[0;0m 
Route  2():	[0;32m[0;34mD000[0;0m - [0;32mW028[0;0m[430.00] - [0;32mD000[0;0m 
Route  3():	[0;32m[0;34mD000[0;0m - [0;32mW021[0;0m[310.00] - [0;32mW013[0;0m[40.00] - [0;32mW023[0;0m[50.00] - [0;32mD000[0;0m 
Route  4():	[0;32m[0;34mD000[0;0m - [0;32mW026[0;0m[440.00] - [0;32mD000[0;0m 
Route  5():	[0;32m[0;34mD000[0;0m - [0;32mW002[0;0m[450.00] - [0;32mD000[0;0m 
Cost: 			47.9119
Cost R+: 		42.4549
Cost Scale 1: 		47.9119
Cost R+ Scale 1: 	42.4549

Solution 137 / 137...
CPU time: 10141.96	Solution:     (scale: 1.0)
Route  1():	[0;32m[0;34mD000[0;0m - [0;32mW014[0;0m[210.00] - [0;32mW012[0;0m[190.00] - [0;32mD000[0;0m 
Route  2():	[0;32m[0;34mD000[0;0m - [0;32mW028[0;0m[430.00] - [0;32mD000[0;0m 
Route  3():	[0;32m[0;34mD000[0;0m - [0;32mW021[0;0m[310.00] - [0;32mW013[0;0m[40.00] - [0;32mW023[0;0m[50.00] - [0;32mD000[0;0m 
Route  4():	[0;32m[0;34mD000[0;0m - [0;32mW026[0;0m[440.00] - [0;32mD000[0;0m 
Route  5():	[0;32m[0;34mD000[0;0m - [0;32mW002[0;0m[460.00] - [0;32mD000[0;0m 
Cost: 			47.7633
Cost R+: 		42.3119
Cost Scale 1: 		47.7633
Cost R+ Scale 1: 	42.3119


Writting JSON summary file...    Done.
